# use extra/src/uk/me/parabola/util/CollationRules.java to generate some of the tables.
# This uses https://www.unicode.org/Public/UCA/latest/allkeys.txt
# see https://www.mkgmap.org.uk/pipermail/mkgmap-dev/2021q4/033096.html

codepage 65001
id1 19
id2 4
description "Unicode sort"
multi

characters

=0008=000e=000f=0010=0011=0012=0013=0014=0015=0016=0017=0018=0019=001a=001b=001c=001d=001e=001f=007f=0080=0081=0082=0083=0084=0086=0087=0088=0089=008a=008b=008c=008d=008e=008f=0090=0091=0092=0093=0094=0095=0096=0097=0098=0099=009a=009b=009c=009d=009e=009f=00ad=034f=҈=҉=0591=0592=0593=0594=0595=0596=0597=0598=0599=059a=059b=059c=059d=059e=059f=05a0=05a1=05a2=05a3=05a4=05a5=05a6=05a7=05a8=05a9=05aa=05ab=05ac=05ad=05ae=05af=05bd=05c4=05c5=0600=0601=0602=0603=0604=0610=0611=0612=0613=0614=0615=0616=0617=0618=0619=061a=061c=ـ=06d6=06d7=06d8=06d9=06da=06db=06dc=06dd=06df=06e0=06e1=06e2=06e3=06e4=06e7=06e8=06ea=06eb=06ec=06ed=070f=0740=0743=0744=0747=0748=0749=074a=ߺ=08ea=08eb=08ec=08ed=08ee=08ef=08f3=0951=0952=0f18=0f19=0f35=0f37=༾=༿=0f82=0f83=0f86=0f87=0fc6=17b4=17b5=17d3=᠊=180b=180c=180d=180e=1a7f=1b6b=1b6c=1b6d=1b6e=1b6f=1b70=1b71=1b72=1b73=1cd0=1cd1=1cd2=᳓=1cd4=1cd5=1cd6=1cd7=1cd8=1cd9=1cda=1cdb=1cdc=1cdd=1cde=1cdf=1ce0=᳡=1ce2=1ce3=1ce4=1ce5=1ce6=1ce7=1ce8=1cf4=200b=200c=200d=200e=200f=202a=202b=202c=202d=202e=2060=2061=2062=2063=2064=2066=2067=2068=2069=206a=206b=206c=206d=206e=206f=2d7f=꙰=꙱=꙲=a8e0=a8e1=a8e2=a8e3=a8e4=a8e5=a8e6=a8e7=a8e8=a8e9=a8ea=a8eb=a8ec=a8ed=a8ee=a8ef=a8f0=a8f1=fe00=fe01=fe02=fe03=fe04=fe05=fe06=fe07=fe08=fe09=fe0a=fe0b=fe0c=fe0d=fe0e=fe0f=fe21=fe23=fe24=fe25=fe26=ﹳ=feff=fff9=fffa=fffb,0001,0002,0003,0004,0005,0006,0007 ; 0332 ; 0313=0343=0486=2cf1 ; 0314=0485=2cf0 ; 0301=0341=0954 ; 0300=0340=0953 ; 0306 ; 0302 ; 030c ; 030a ; 0342 ; 0308 ; 0344 ; 030b ; 0303 ; 0307 ; 0338 ; 0327 ; 0328 ; 0304 ; 030d=030e=0312=0315=031a=033d=033e=033f=0346=034a=034b=034c=0350=0351=0352=0357=035b=035d=035e=0484=0487=0741=0745=17cb=17cc=17cd=17ce=17cf=17d0=17d1=17dd=1dc0=1dc1=1dc3=1dc4=1dc5=1dc6=1dc7=1dc8=1dc9=1dcb=1dcc=1dcd=1dce=1dd1=1dfe=20f0=2cef=a67c=a67d ; 0316=0317=0318=0319=031c=031d=031e=031f=0320=0329=032a=032b=032c=032f=0333=033a=033b=033c=0347=0348=0349=034d=034e=0353=0354=0355=0356=0359=035a=035c=035f=0362=0742=0746=0859=085a=085b=1dc2=1dcf=1dd0=1dfc=1dfd=1dff=20ec=20ed=20ee=20ef ; 0336=0337=20d8=20d9=20da=20e5=20ea=20eb ; ⃝=⃞=⃟=⃠=⃢=⃣=⃤ ; 3099,ﾞ ; 309a,ﾟ ; 0335 ; 0305 ; 0309 ; 030f ; 0310 ; 0311 ; 031b ; 0321 ; 0322 ; 0323 ; 0324 ; 0325 ; 0326 ; 032d ; 032e ; 0330 ; 0331 ; 0334 ; 0339 ; 0345 ; 0358 ; 0360=fe22 ; 0361=fe20 ; 0483 ; a66f ; 05b0 ; 05b1 ; 05b2 ; 05b3 ; 05b4 ; 05b5 ; 05b6 ; 05b7 ; 05b8=05c7 ; 05b9=05ba ; 05bb ; 05c2 ; 05c1 ; 05bc ; 05bf ; fb1e ; 081c=081d ; 081e=081f=0820 ; 0821=0822=0823 ; ࠤ=0825 ; 0826=0827 ; ࠨ=0829=082a ; 082b ; 082c ; 0818 ; 0819 ; 082d ; 064b,ﹱ,ﹰ ; 08f0 ; 08e7 ; 064c,ﹲ ; ﱞ ; 08f1 ; 08e8 ; 064d,ﹴ ; ﱟ ; 08f2 ; 08e9 ; 064e,ﹷ,ﹶ ; ﳲ,ﱠ ; 08e4 ; 08f4 ; 08f5 ; 064f,ﹹ,ﹸ ; ﳳ,ﱡ ; 08e5 ; 08fe ; 0650,ﹻ,ﹺ ; ﳴ,ﱢ ; 08e6 ; 08f6 ; 0651,ﹽ,ﹼ ; ﱣ ; 0652,ﹿ,ﹾ ; 0653 ; 0654 ; 0655 ; 065f ; 0656 ; 0657 ; 0658 ; 0659 ; 065a ; 065b ; 065c ; 065d ; 065e ; 08f7 ; 08f8 ; 08fd ; 08fb ; 08fc ; 08f9 ; 08fa ; 0670 ; 0711 ; 0730 ; 0731 ; 0732 ; 0733 ; 0734 ; 0735 ; 0736 ; 0737 ; 0738 ; 0739 ; 073a ; 073b ; 073c ; 073d ; 073e ; 073f ; 07eb ; 07ec ; 07ed ; 07ee ; 07ef ; 07f0 ; 07f1 ; 07f2 ; 07f3 ; 135f ; 135e ; 135d ; a6f0 ; a6f1 ; 093c=09bc=0a3c=0abc=0b3c=0cbc=1b34=1be6=1c37=a9b3 ; 0900=0901=0981=0a01=0a81=0b01=ఁ=1b00=1b01=a980 ; 0902=ং=0a02=0a82=ଂ=0b82=ం=ಂ=ം=ං=0f7e=1036=17c6=1a74=1b02=1b80=1ced=a80b=ꢀ=a981 ; ः=ঃ=ਃ=ઃ=ଃ=ః=ಃ=ഃ=ඃ=ཿ=း=ះ=ᬄ=ᮂ=ᳲ=1cf3=ꢁ=ꦃ ; 0a70 ; 0a71 ; 1b03 ; a982 ; 1b81 ; ꯬ ; 0e4e ; 0e47 ; 0e48 ; 0e49 ; 0e4a ; 0e4b ; 0e4c ; 0e4d ; 0ec8 ; 0ec9 ; 0eca ; 0ecb ; 0ecc ; 0ecd ; aabf ; aac1 ; 0f39 ; a92b ; a92c ; a92d ; 1037 ; 108d ; ៈ ; 17c9 ; 17ca ; 1a75 ; 1a76 ; 1a77 ; 1a78 ; 1a79 ; 1a7a ; 1a7b ; 1a7c ; 1939 ; 193a ; 193b ; 302a ; 302b ; 302c ; 302d ; 302e ; 302f ; 20d0 ; 20d1 ; 20d2=20d3 ; 20d4 ; 20d5 ; 20d6 ; 20d7 ; 20db ; 20dc ; 20e1 ; 20e6 ; 20e7 ; 20e8 ; 20e9
< 0009
< 000a
< 000b
< 000c
< 000d
< 0085
< 2028
< 2029
< 0020,3000,1680=2000=2001=2002=2003=2004=2005=2006=2008=2009=200a=205f,00a0=2007=202f
< ‾,﹉=﹊=﹋=﹌
< _,＿,﹍=﹎=﹏,︳=︴
< ‗
< -,－,﹣
< ֊
< ᐀
< ᭠
< ᠆
< ᠇
< ‐,‑
< ‒
< –,︲
< —,﹘,︱
< ―
< 2e3a
< 2e3b
< ⁓
< ⸗
< 〜
< 〰
< ゠
< ・,･
< 002c,，,﹐,︐
< 2e34
< 2e32
< ՝
< ،
< ؍
< ٫
< ٬
< ߸
< ᠂
< ᠈
< ꓾
< ꘍
< ꛵
< 、,﹑,､,︑
< ﹅
< ﹆
< 003b=;,；,﹔,︔
< ؛
< ⁏
< 2e35
< ꛶
< :,：,﹕,︓
< ։
< ؞
< ܃
< ܄
< ܅
< ܆
< ܇
< ܈
< ࠰
< ࠱
< ࠲
< ࠳
< ࠴
< ࠵
< ࠶
< ࠷
< ࠸
< ࠹
< ࠺
< ࠻
< ࠼
< ࠽
< ࠾
< ፡
< ፣
< ፤
< ፥
< ፦
< ᠄
< ᠅
< ༔
< ៖
< ᭝
< ꧇
< ᛫
< ᛬
< ᛭
< ꛴
< !,！,﹗,︕
< ¡
< ՜
< ߹
< ᥄
< ?,？,﹖,︖
< ¿
< ⸮
< ՞
< ؟
< ܉
< ፧
< ᥅
< ⳺
< ⳻
< ꘏
< ꛷
< aaf1
< ‽
< ⸘
< .,．,․,﹒
< ᠁
< ۔
< ܁
< ܂
< ።
< ᠃
< ᠉
< ᙮
< ᭜
< ⳹
< ⳾
< ⸰
< ꓿
< ꘎
< ꛳
< 。,｡,︒
< ·=·
< ⸱
< 2e33
< ।
< ॥
< ꣎
< ꣏
< ᰻
< ᰼
< ꡶
< ꡷
< ᜵
< ᜶
< ꤯
< ၊
< ။
< ។
< ៕
< ᪨
< ᪩
< ᪪
< ᪫
< ᭞
< ᭟
< ꧈
< ꧉
< ꩝
< ꩞
< ꩟
< aaf0
< ꯫
< ᱾
< ᱿
< ܀
< ߷
< ჻
< ፠
< ፨
< ᨞
< ᨟
< ᭚
< ᭛
< ꧁
< ꧂
< ꧃
< ꧄
< ꧅
< ꧆
< ꧊
< ꧋
< ꧌
< ꧍
< ꛲
< ꥟
< ⁕
< ⁖
< ⁘
< ⁙
< ⁚
< ⁛
< ⁜
< ⁝
< ⁞
< ⸪
< ⸫
< ⸬
< ⸭
< ⳼
< ⳿
< ⸙
< ',＇
< ‘
< ’
< ‚
< ‛
< ‹
< ›
< ",＂
< “
< ”
< „
< ‟
< 〝
< 〞
< 〟
< «
< »
< (,（,﹙,⁽,₍,︵
< ),）,﹚,⁾,₎,︶
< [,［,﹇
< ],］,﹈
< {,｛,﹛,︷
< },｝,﹜,︸
< ༺
< ༻
< ༼
< ༽
< ᚛
< ᚜
< ⁅
< ⁆
< ⌈
< ⌉
< ⌊
< ⌋
< ⧼
< ⧽
< ⦃
< ⦄
< ⦅,｟
< ⦆,｠
< ⦇
< ⦈
< ⦉
< ⦊
< ⦋
< ⦌
< ⦍
< ⦎
< ⦏
< ⦐
< ⦑
< ⦒
< ⦓
< ⦔
< ⦕
< ⦖
< ⦗
< ⦘
< ⟅
< ⟆
< ⟦
< ⟧
< ⟨
< ⟩
< ⟪
< ⟫
< ⟬
< ⟭
< ⟮
< ⟯
< ❨
< ❩
< ❪
< ❫
< ❬
< ❭
< ❮
< ❯
< ❰
< ❱
< ❲
< ❳
< ❴
< ❵
< ⸂
< ⸃
< ⸄
< ⸅
< ⸉
< ⸊
< ⸌
< ⸍
< ⸜
< ⸝
< ⸠
< ⸡
< ⸢
< ⸣
< ⸤
< ⸥
< ⸦
< ⸧
< ⸨
< ⸩
< 〈=〈,︿
< 〉=〉,﹀
< 《,︽
< 》,︾
< 「,｢,﹁
< 」,｣,﹂
< 『,﹃
< 』,﹄
< 【,︻
< 】,︼
< 〔,﹝,︹
< 〕,﹞,︺
< 〖,︗
< 〗,︘
< 〘
< 〙
< 〚
< 〛
< ﴾
< ﴿
< ‖
< ⧘
< ⧙
< ⧚
< ⧛
< §
< 2e39
< ¶
< ⁋
< @,＠,﹫
< *,＊,﹡
< ⁎
< ⁑
< ٭
< ꙳
< /,／
< \,＼,﹨
< &,＆,﹠
< ⁊
< 0023,＃,﹟
< %,％,﹪
< ٪
< ‰
< ؉
< ‱
< ؊
< †
< ‡
< 2e36
< 2e37
< 2e38
< •
< ‣
< ‧
< ⁃
< ⁌
< ⁍
< ′
< ‵
< 〃
< 〽
< ‸
< ※
< ‿
< ⁔
< ⁀
< ⁐
< ⁁
< ⁂
< ⸀
< ⸁
< ⸆
< ⸇
< ⸈
< ⸋
< ⸎
< ⸏
< ⸐
< ⸑
< ⸒
< ⸓
< ⸔
< ⸕
< ⸖
< ⸚
< ⸛
< ⸞
< ⸟
< ꙾
< ՚
< ՛
< ՟
< ־
< ׀
< ׃
< ׆
< ׳
< ״
< ܊
< ܋
< ܌
< ܍
< ࡞
< ᠀
< ॰
< ꣸
< ꣹
< ꣺
< 0af0
< ෴
< ๏
< ๚
< ๛
< ꫞
< ꫟
< ༄
< ༅
< ༆
< ༇
< ༈
< ༉
< ༊
< ࿐
< ࿑
< ་,༌
< །
< ༎
< ༏
< ༐
< ༑
< ༒
< ྅
< ࿒
< ࿓
< ࿔
< ࿙
< ࿚
< ᰽
< ᰾
< ᰿
< ၌
< ၍
< ၎
< ၏
< ៘
< ៙
< ៚
< ᪠
< ᪡
< ᪢
< ᪣
< ᪤
< ᪥
< ᪦
< ᪬
< ᪭
< ᙭
< 1cc0
< 1cc1
< 1cc2
< 1cc3
< 1cc4
< 1cc5
< 1cc6
< 1cc7
< ⵰
< ꡴
< ꡵
< ᯼
< ᯽
< ᯾
< ᯿
< ꤮
< ꧞
< ꧟
< ꩜
< `=`,｀
< ´=΄=´
< ^,＾
< ¯,￣
< ˘
< ˙
< ¨ ; ΅=΅ ; ῭ ; ῁
< ˚
< ˝
< ¸
< ˛
< ᾽=᾿ ; ῎ ; ῍ ; ῏
< ῾ ; ῞ ; ῝ ; ῟
< ῀
< ゛
< ゜
< ʹ=ʹ
< ͵
< ʺ
< ˂
< ˃
< ˄
< ˅
< ˆ
< ˇ
< ˈ
< ˉ
< ˊ
< ˋ
< ˌ
< ˍ
< ˎ
< ˏ
< ˒
< ˓
< ˔
< ˕
< ˖
< ˗
< ˞
< ˟
< ˥
< ˦
< ˧
< ˨
< ˩
< ˪
< ˫
< ˬ
< ˭
< ˯
< ˰
< ˱
< ˲
< ˳
< ˴
< ˵
< ˶
< ˷
< ˸
< ˹
< ˺
< ˻
< ˼
< ˽
< ˾
< ˿
< ᎐
< ᎑
< ᎒
< ᎓
< ᎔
< ᎕
< ᎖
< ᎗
< ᎘
< ᎙
< ꜀
< ꜁
< ꜂
< ꜃
< ꜄
< ꜅
< ꜆
< ꜇
< ꜈
< ꜉
< ꜊
< ꜋
< ꜌
< ꜍
< ꜎
< ꜏
< ꜐
< ꜑
< ꜒
< ꜓
< ꜔
< ꜕
< ꜖
< ꜗ
< ꜘ
< ꜙ
< ꜚ
< ꜛ
< ꜜ
< ꜝ
< ꜞ
< ꜟ
< ꜠
< ꜡
< ꞈ
< ꞉
< ꞊
< °
< ҂
< ؈
< ؎
< ؏
< ۞
< ۩
< ﷽
< ﮲
< ﮳
< ﮴
< ﮵
< ﮶
< ﮷
< ﮸
< ﮹
< ﮺
< ﮻
< ﮼
< ﮽
< ﮾
< ﮿
< ﯀
< ﯁
< ߶
< ৺
< ୰
< ௳
< ௴
< ௵
< ௶
< ௷
< ௸
< ௺
< ౿
< ൹
< ꠨
< ꠩
< ꠪
< ꠫
< ꠶
< ꠷
< ꠹
< ༁
< ༂
< ༃
< ༓
< ༕
< ༖
< ༗
< ༚
< ༛
< ༜
< ༝
< ༞
< ༟
< ༴
< ༶
< ༸
< ྾
< ྿
< ࿀
< ࿁
< ࿂
< ࿃
< ࿄
< ࿅
< ࿇
< ࿈
< ࿉
< ࿊
< ࿋
< ࿌
< ࿎
< ࿏
< ࿕
< ࿖
< ࿗
< ࿘
< ᥀
< ႞
< ႟
< ꩷
< ꩸
< ꩹
< ᧠
< ᧡
< ᧢
< ᧣
< ᧤
< ᧥
< ᧦
< ᧧
< ᧨
< ᧩
< ᧪
< ᧫
< ᧬
< ᧭
< ᧮
< ᧯
< ᧰
< ᧱
< ᧲
< ᧳
< ᧴
< ᧵
< ᧶
< ᧷
< ᧸
< ᧹
< ᧺
< ᧻
< ᧼
< ᧽
< ᧾
< ᧿
< ᭡
< ᭢
< ᭣
< ᭤
< ᭥
< ᭦
< ᭧
< ᭨
< ᭩
< ᭪
< ᭴
< ᭵
< ᭶
< ᭷
< ᭸
< ᭹
< ᭺
< ᭻
< ᭼
< ©
< ®
< ℄
< ℈
< ℔
< ℗
< ℘
< ℞
< ℟
< ℣
< ℥
< ℧
< ℩
< ℮
< ℺
< ⅁
< ⅂
< ⅃
< ⅄
< ⅊
< ⅌
< ⅏
< ←,￩ ; ↚
< →,￫ ; ↛
< ↑,￪
< ↓,￬
< ↔ ; ↮
< ↕
< ↖
< ↗
< ↘
< ↙
< ↜
< ↝
< ↞
< ↟
< ↠
< ↡
< ↢
< ↣
< ↤
< ↥
< ↦
< ↧
< ↨
< ↩
< ↪
< ↫
< ↬
< ↭
< ↯
< ↰
< ↱
< ↲
< ↳
< ↴
< ↵
< ↶
< ↷
< ↸
< ↹
< ↺
< ↻
< ↼
< ↽
< ↾
< ↿
< ⇀
< ⇁
< ⇂
< ⇃
< ⇄
< ⇅
< ⇆
< ⇇
< ⇈
< ⇉
< ⇊
< ⇋
< ⇌
< ⇐ ; ⇍
< ⇑
< ⇒ ; ⇏
< ⇓
< ⇔ ; ⇎
< ⇕
< ⇖
< ⇗
< ⇘
< ⇙
< ⇚
< ⇛
< ⇜
< ⇝
< ⇞
< ⇟
< ⇠
< ⇡
< ⇢
< ⇣
< ⇤
< ⇥
< ⇦
< ⇧
< ⇨
< ⇩
< ⇪
< ⇫
< ⇬
< ⇭
< ⇮
< ⇯
< ⇰
< ⇱
< ⇲
< ⇳
< ⇴
< ⇵
< ⇶
< ⇷
< ⇸
< ⇹
< ⇺
< ⇻
< ⇼
< ⇽
< ⇾
< ⇿
< ∀
< ∁
< ∂
< ∃ ; ∄
< ∅
< ∆
< ∇
< ∈ ; ∉
< ∊
< ∋ ; ∌
< ∍
< ϶
< ∎
< ∏
< ∐
< ∑,⅀
< +,＋,﬩,﹢,⁺,₊
< ±
< ÷
< ×
< 003c,＜,﹤ ; ≮
< 003d,＝,﹦,⁼,₌ ; ≠
< >,＞,﹥ ; ≯
< ¬,￢
< |,｜
< ¦,￤
< ~,～ ; ˜
< −,⁻,₋
< ⁒
< ∓
< ∔
< ∕
< ⁄
< ∖
< ∗
< ∘
< ∙
< √
< ∛
< ؆
< ∜
< ؇
< ∝
< ∞
< ∟
< ∠
< ∡
< ∢
< ∣ ; ∤
< ∥ ; ∦
< ∧
< ∨
< ∩
< ∪
< ∫
< ∮
< ∱
< ∲
< ∳
< ∴
< ∵
< ∶
< ∷
< ∸
< ∹
< ∺
< ∻
< ∼ ; ≁
< ∽
< ∾
< ∿
< ≀
< ≂
< ≃ ; ≄
< ≅ ; ≇
< ≆
< ≈ ; ≉
< ≊
< ≋
< ≌
< ≍ ; ≭
< ≎
< ≏
< ≐
< ≑
< ≒
< ≓
< ≔
< ≕
< ≖
< ≗
< ≘
< ≙
< ≚
< ≛
< ≜
< ≝
< ≞
< ≟
< ≡ ; ≢
< ≣
< ≤ ; ≰
< ≥ ; ≱
< ≦
< ≧
< ≨
< ≩
< ≪
< ≫
< ≬
< ≲ ; ≴
< ≳ ; ≵
< ≶ ; ≸
< ≷ ; ≹
< ≺ ; ⊀
< ≻ ; ⊁
< ≼ ; ⋠
< ≽ ; ⋡
< ≾
< ≿
< ⊂ ; ⊄
< ⊃ ; ⊅
< ⊆ ; ⊈
< ⊇ ; ⊉
< ⊊
< ⊋
< ⊌
< ⊍
< ⊎
< ⊏
< ⊐
< ⊑ ; ⋢
< ⊒ ; ⋣
< ⊓
< ⊔
< ⊕
< ⊖
< ⊗
< ⊘
< ⊙
< ⊚
< ⊛
< ⊜
< ⊝
< ⊞
< ⊟
< ⊠
< ⊡
< ⊢ ; ⊬
< ⊣
< ⊤
< ⊥
< ⊦
< ⊧
< ⊨ ; ⊭
< ⊩ ; ⊮
< ⊪
< ⊫ ; ⊯
< ⊰
< ⊱
< ⊲ ; ⋪
< ⊳ ; ⋫
< ⊴ ; ⋬
< ⊵ ; ⋭
< ⊶
< ⊷
< ⊸
< ⊹
< ⊺
< ⊻
< ⊼
< ⅋
< ⊽
< ⊾
< ⊿
< ⋀
< ⋁
< ⋂
< ⋃
< ⋄
< ⋅
< ⋆
< ⋇
< ⋈
< ⋉
< ⋊
< ⋋
< ⋌
< ⋍
< ⋎
< ⋏
< ⋐
< ⋑
< ⋒
< ⋓
< ⋔
< ⋕
< ⋖
< ⋗
< ⋘
< ⋙
< ⋚
< ⋛
< ⋜
< ⋝
< ⋞
< ⋟
< ⋤
< ⋥
< ⋦
< ⋧
< ⋨
< ⋩
< ⋮
< ⋯
< ⋰
< ⋱
< ⋲
< ⋳
< ⋴
< ⋵
< ⋶
< ⋷
< ⋸
< ⋹
< ⋺
< ⋻
< ⋼
< ⋽
< ⋾
< ⋿
< ⌀
< ⌁
< ⌂
< ⌃
< ⌄
< ⌅
< ⌆
< ⌇
< ⌌
< ⌍
< ⌎
< ⌏
< ⌐
< ⌑
< ⌒
< ⌓
< ⌔
< ⌕
< ⌖
< ⌗
< ⌘
< ⌙
< ⌚
< ⌛
< ⌜
< ⌝
< ⌞
< ⌟
< ⌠
< ⌡
< ⌢
< ⌣
< ⌤
< ⌥
< ⌦
< ⌧
< ⌨
< ⌫
< ⌬
< ⌭
< ⌮
< ⌯
< ⌰
< ⌱
< ⌲
< ⌳
< ⌴
< ⌵
< ⌶
< ⌷
< ⌸
< ⌹
< ⌺
< ⌻
< ⌼
< ⌽
< ⌾
< ⌿
< ⍀
< ⍁
< ⍂
< ⍃
< ⍄
< ⍅
< ⍆
< ⍇
< ⍈
< ⍉
< ⍊
< ⍋
< ⍌
< ⍍
< ⍎
< ⍏
< ⍐
< ⍑
< ⍒
< ⍓
< ⍔
< ⍕
< ⍖
< ⍗
< ⍘
< ⍙
< ⍚
< ⍛
< ⍜
< ⍝
< ⍞
< ⍟
< ⍠
< ⍡
< ⍢
< ⍣
< ⍤
< ⍥
< ⍦
< ⍧
< ⍨
< ⍩
< ⍪
< ⍫
< ⍬
< ⍭
< ⍮
< ⍯
< ⍰
< ⍱
< ⍲
< ⍳
< ⍴
< ⍵
< ⍶
< ⍷
< ⍸
< ⍹
< ⍺
< ⍻
< ⍼
< ⍽
< ⍾
< ⍿
< ⎀
< ⎁
< ⎂
< ⎃
< ⎄
< ⎅
< ⎆
< ⎇
< ⎈
< ⎉
< ⎊
< ⎋
< ⎌
< ⎍
< ⎎
< ⎏
< ⎐
< ⎑
< ⎒
< ⎓
< ⎔
< ⎕
< ⎖
< ⎗
< ⎘
< ⎙
< ⎚
< ⎛
< ⎜
< ⎝
< ⎞
< ⎟
< ⎠
< ⎡
< ⎢
< ⎣
< ⎤
< ⎥
< ⎦
< ⎧
< ⎨
< ⎩
< ⎪
< ⎫
< ⎬
< ⎭
< ⎮
< ⎯
< ⎰
< ⎱
< ⎲
< ⎳
< ⎴
< ⎵
< ⎶
< ⎷
< ⎸
< ⎹
< ⎺
< ⎻
< ⎼
< ⎽
< ⎾
< ⎿
< ⏀
< ⏁
< ⏂
< ⏃
< ⏄
< ⏅
< ⏆
< ⏇
< ⏈
< ⏉
< ⏊
< ⏋
< ⏌
< ⏍
< ⏎
< ⏏
< ⏐
< ⏑
< ⏒
< ⏓
< ⏔
< ⏕
< ⏖
< ⏗
< ⏘
< ⏙
< ⏚
< ⏛
< ⏜
< ⏝
< ⏞
< ⏟
< ⏠
< ⏡
< ⏢
< ⏣
< ⏤
< ⏥
< ⏦
< ⏧
< ⏨
< ⏩
< ⏪
< ⏫
< ⏬
< ⏭
< ⏮
< ⏯
< ⏰
< ⏱
< ⏲
< ⏳
< ␀
< ␁
< ␂
< ␃
< ␄
< ␅
< ␆
< ␇
< ␈
< ␉
< ␊
< ␋
< ␌
< ␍
< ␎
< ␏
< ␐
< ␑
< ␒
< ␓
< ␔
< ␕
< ␖
< ␗
< ␘
< ␙
< ␚
< ␛
< ␜
< ␝
< ␞
< ␟
< ␠
< ␡
< ␢
< ␣
< ␤
< ␥
< ␦
< ⑀
< ⑁
< ⑂
< ⑃
< ⑄
< ⑅
< ⑆
< ⑇
< ⑈
< ⑉
< ⑊
< ─
< ━
< │,￨
< ┃
< ┄
< ┅
< ┆
< ┇
< ┈
< ┉
< ┊
< ┋
< ┌
< ┍
< ┎
< ┏
< ┐
< ┑
< ┒
< ┓
< └
< ┕
< ┖
< ┗
< ┘
< ┙
< ┚
< ┛
< ├
< ┝
< ┞
< ┟
< ┠
< ┡
< ┢
< ┣
< ┤
< ┥
< ┦
< ┧
< ┨
< ┩
< ┪
< ┫
< ┬
< ┭
< ┮
< ┯
< ┰
< ┱
< ┲
< ┳
< ┴
< ┵
< ┶
< ┷
< ┸
< ┹
< ┺
< ┻
< ┼
< ┽
< ┾
< ┿
< ╀
< ╁
< ╂
< ╃
< ╄
< ╅
< ╆
< ╇
< ╈
< ╉
< ╊
< ╋
< ╌
< ╍
< ╎
< ╏
< ═
< ║
< ╒
< ╓
< ╔
< ╕
< ╖
< ╗
< ╘
< ╙
< ╚
< ╛
< ╜
< ╝
< ╞
< ╟
< ╠
< ╡
< ╢
< ╣
< ╤
< ╥
< ╦
< ╧
< ╨
< ╩
< ╪
< ╫
< ╬
< ╭
< ╮
< ╯
< ╰
< ╱
< ╲
< ╳
< ╴
< ╵
< ╶
< ╷
< ╸
< ╹
< ╺
< ╻
< ╼
< ╽
< ╾
< ╿
< ▀
< ▁
< ▂
< ▃
< ▄
< ▅
< ▆
< ▇
< █
< ▉
< ▊
< ▋
< ▌
< ▍
< ▎
< ▏
< ▐
< ░
< ▒
< ▓
< ▔
< ▕
< ▖
< ▗
< ▘
< ▙
< ▚
< ▛
< ▜
< ▝
< ▞
< ▟
< ■,￭
< □
< ▢
< ▣
< ▤
< ▥
< ▦
< ▧
< ▨
< ▩
< ▪
< ▫
< ▬
< ▭
< ▮
< ▯
< ▰
< ▱
< ▲
< △
< ▴
< ▵
< ▶
< ▷
< ▸
< ▹
< ►
< ▻
< ▼
< ▽
< ▾
< ▿
< ◀
< ◁
< ◂
< ◃
< ◄
< ◅
< ◆
< ◇
< ◈
< ◉
< ◊
< ○,￮
< ◌
< ◍
< ◎
< ●
< ◐
< ◑
< ◒
< ◓
< ◔
< ◕
< ◖
< ◗
< ◘
< ◙
< ◚
< ◛
< ◜
< ◝
< ◞
< ◟
< ◠
< ◡
< ◢
< ◣
< ◤
< ◥
< ◦
< ◧
< ◨
< ◩
< ◪
< ◫
< ◬
< ◭
< ◮
< ◯
< ◰
< ◱
< ◲
< ◳
< ◴
< ◵
< ◶
< ◷
< ◸
< ◹
< ◺
< ◻
< ◼
< ◽
< ◾
< ◿
< ☀
< ☁
< ☂
< ☃
< ☄
< ★
< ☆
< ☇
< ☈
< ☉
< ☊
< ☋
< ☌
< ☍
< ☎
< ☏
< ☐
< ☑
< ☒
< ☓
< ☔
< ☕
< ☖
< ☗
< ☘
< ☙
< ☚
< ☛
< ☜
< ☝
< ☞
< ☟
< ☠
< ☡
< ☢
< ☣
< ☤
< ☥
< ☦
< ☧
< ☨
< ☩
< ☪
< ☫
< ☬
< ☭
< ☮
< ☯
< ☸
< ☹
< ☺
< ☻
< ☼
< ☽
< ☾
< ☿
< ♀
< ♁
< ♂
< ♃
< ♄
< ♅
< ♆
< ♇
< ♈
< ♉
< ♊
< ♋
< ♌
< ♍
< ♎
< ♏
< ♐
< ♑
< ♒
< ♓
< ♔
< ♕
< ♖
< ♗
< ♘
< ♙
< ♚
< ♛
< ♜
< ♝
< ♞
< ♟
< ♠
< ♡
< ♢
< ♣
< ♤
< ♥
< ♦
< ♧
< ♨
< ♩
< ♪
< ♫
< ♬
< ♰
< ♱
< ♲
< ♳
< ♴
< ♵
< ♶
< ♷
< ♸
< ♹
< ♺
< ♻
< ♼
< ♽
< ♾
< ♿
< ⚀
< ⚁
< ⚂
< ⚃
< ⚄
< ⚅
< ⚆
< ⚇
< ⚈
< ⚉
< ⚐
< ⚑
< ⚒
< ⚓
< ⚔
< ⚕
< ⚖
< ⚗
< ⚘
< ⚙
< ⚚
< ⚛
< ⚜
< ⚝
< ⚞
< ⚟
< ⚠
< ⚡
< ⚢
< ⚣
< ⚤
< ⚥
< ⚦
< ⚧
< ⚨
< ⚩
< ⚪
< ⚫
< ⚬
< ⚭
< ⚮
< ⚯
< ⚰
< ⚱
< ⚲
< ⚳
< ⚴
< ⚵
< ⚶
< ⚷
< ⚸
< ⚹
< ⚺
< ⚻
< ⚼
< ⚽
< ⚾
< ⚿
< ⛀
< ⛁
< ⛂
< ⛃
< ⛄
< ⛅
< ⛆
< ⛇
< ⛈
< ⛉
< ⛊
< ⛋
< ⛌
< ⛍
< ⛎
< ⛏
< ⛐
< ⛑
< ⛒
< ⛓
< ⛔
< ⛕
< ⛖
< ⛗
< ⛘
< ⛙
< ⛚
< ⛛
< ⛜
< ⛝
< ⛞
< ⛟
< ⛠
< ⛡
< ⛢
< ⛣
< ⛤
< ⛥
< ⛦
< ⛧
< ⛨
< ⛩
< ⛪
< ⛫
< ⛬
< ⛭
< ⛮
< ⛯
< ⛰
< ⛱
< ⛲
< ⛳
< ⛴
< ⛵
< ⛶
< ⛷
< ⛸
< ⛹
< ⛺
< ⛻
< ⛼
< ⛽
< ⛾
< ⛿
< ✁
< ✂
< ✃
< ✄
< ✅
< ✆
< ✇
< ✈
< ✉
< ✊
< ✋
< ✌
< ✍
< ✎
< ✏
< ✐
< ✑
< ✒
< ✓
< ✔
< ✕
< ✖
< ✗
< ✘
< ✙
< ✚
< ✛
< ✜
< ✝
< ✞
< ✟
< ✠
< ✡
< ✢
< ✣
< ✤
< ✥
< ✦
< ✧
< ✨
< ✩
< ✪
< ✫
< ✬
< ✭
< ✮
< ✯
< ✰
< ✱
< ✲
< ✳
< ✴
< ✵
< ✶
< ✷
< ✸
< ✹
< ✺
< ✻
< ✼
< ✽
< ✾
< ✿
< ❀
< ❁
< ❂
< ❃
< ❄
< ❅
< ❆
< ❇
< ❈
< ❉
< ❊
< ❋
< ❌
< ❍
< ❎
< ❏
< ❐
< ❑
< ❒
< ❓
< ❔
< ❕
< ❖
< ❗
< ❘
< ❙
< ❚
< ❛
< ❜
< ❝
< ❞
< ❟
< ❠
< ❡
< ❢
< ❣
< ❤
< ❥
< ❦
< ❧
< ➔
< ➕
< ➖
< ➗
< ➘
< ➙
< ➚
< ➛
< ➜
< ➝
< ➞
< ➟
< ➠
< ➡
< ➢
< ➣
< ➤
< ➥
< ➦
< ➧
< ➨
< ➩
< ➪
< ➫
< ➬
< ➭
< ➮
< ➯
< ➰
< ➱
< ➲
< ➳
< ➴
< ➵
< ➶
< ➷
< ➸
< ➹
< ➺
< ➻
< ➼
< ➽
< ➾
< ➿
< ⟀
< ⟁
< ⟂
< ⟃
< ⟄
< ⟇
< ⟈
< ⟉
< ⟊
< 27cb
< ⟌
< 27cd
< ⟎
< ⟏
< ⟐
< ⟑
< ⟒
< ⟓
< ⟔
< ⟕
< ⟖
< ⟗
< ⟘
< ⟙
< ⟚
< ⟛
< ⟜
< ⟝
< ⟞
< ⟟
< ⟠
< ⟡
< ⟢
< ⟣
< ⟤
< ⟥
< ⟰
< ⟱
< ⟲
< ⟳
< ⟴
< ⟵
< ⟶
< ⟷
< ⟸
< ⟹
< ⟺
< ⟻
< ⟼
< ⟽
< ⟾
< ⟿
< ⤀
< ⤁
< ⤂
< ⤃
< ⤄
< ⤅
< ⤆
< ⤇
< ⤈
< ⤉
< ⤊
< ⤋
< ⤌
< ⤍
< ⤎
< ⤏
< ⤐
< ⤑
< ⤒
< ⤓
< ⤔
< ⤕
< ⤖
< ⤗
< ⤘
< ⤙
< ⤚
< ⤛
< ⤜
< ⤝
< ⤞
< ⤟
< ⤠
< ⤡
< ⤢
< ⤣
< ⤤
< ⤥
< ⤦
< ⤧
< ⤨
< ⤩
< ⤪
< ⤫
< ⤬
< ⤭
< ⤮
< ⤯
< ⤰
< ⤱
< ⤲
< ⤳
< ⤴
< ⤵
< ⤶
< ⤷
< ⤸
< ⤹
< ⤺
< ⤻
< ⤼
< ⤽
< ⤾
< ⤿
< ⥀
< ⥁
< ⥂
< ⥃
< ⥄
< ⥅
< ⥆
< ⥇
< ⥈
< ⥉
< ⥊
< ⥋
< ⥌
< ⥍
< ⥎
< ⥏
< ⥐
< ⥑
< ⥒
< ⥓
< ⥔
< ⥕
< ⥖
< ⥗
< ⥘
< ⥙
< ⥚
< ⥛
< ⥜
< ⥝
< ⥞
< ⥟
< ⥠
< ⥡
< ⥢
< ⥣
< ⥤
< ⥥
< ⥦
< ⥧
< ⥨
< ⥩
< ⥪
< ⥫
< ⥬
< ⥭
< ⥮
< ⥯
< ⥰
< ⥱
< ⥲
< ⥳
< ⥴
< ⥵
< ⥶
< ⥷
< ⥸
< ⥹
< ⥺
< ⥻
< ⥼
< ⥽
< ⥾
< ⥿
< ⦀
< ⦁
< ⦂
< ⦙
< ⦚
< ⦛
< ⦜
< ⦝
< ⦞
< ⦟
< ⦠
< ⦡
< ⦢
< ⦣
< ⦤
< ⦥
< ⦦
< ⦧
< ⦨
< ⦩
< ⦪
< ⦫
< ⦬
< ⦭
< ⦮
< ⦯
< ⦰
< ⦱
< ⦲
< ⦳
< ⦴
< ⦵
< ⦶
< ⦷
< ⦸
< ⦹
< ⦺
< ⦻
< ⦼
< ⦽
< ⦾
< ⦿
< ⧀
< ⧁
< ⧂
< ⧃
< ⧄
< ⧅
< ⧆
< ⧇
< ⧈
< ⧉
< ⧊
< ⧋
< ⧌
< ⧍
< ⧎
< ⧏
< ⧐
< ⧑
< ⧒
< ⧓
< ⧔
< ⧕
< ⧖
< ⧗
< ⧜
< ⧝
< ⧞
< ⧟
< ⧠
< ⧡
< ⧢
< ⧣
< ⧤
< ⧥
< ⧦
< ⧧
< ⧨
< ⧩
< ⧪
< ⧫
< ⧬
< ⧭
< ⧮
< ⧯
< ⧰
< ⧱
< ⧲
< ⧳
< ⧴
< ⧵
< ⧶
< ⧷
< ⧸
< ⧹
< ⧺
< ⧻
< ⧾
< ⧿
< ⨀
< ⨁
< ⨂
< ⨃
< ⨄
< ⨅
< ⨆
< ⨇
< ⨈
< ⨉
< ⨊
< ⨋
< ⨍
< ⨎
< ⨏
< ⨐
< ⨑
< ⨒
< ⨓
< ⨔
< ⨕
< ⨖
< ⨗
< ⨘
< ⨙
< ⨚
< ⨛
< ⨜
< ⨝
< ⨞
< ⨟
< ⨠
< ⨡
< ⨢
< ⨣
< ⨤
< ⨥
< ⨦
< ⨧
< ⨨
< ⨩
< ⨪
< ⨫
< ⨬
< ⨭
< ⨮
< ⨯
< ⨰
< ⨱
< ⨲
< ⨳
< ⨴
< ⨵
< ⨶
< ⨷
< ⨸
< ⨹
< ⨺
< ⨻
< ⨼
< ⨽
< ⨾
< ⨿
< ⩀
< ⩁
< ⩂
< ⩃
< ⩄
< ⩅
< ⩆
< ⩇
< ⩈
< ⩉
< ⩊
< ⩋
< ⩌
< ⩍
< ⩎
< ⩏
< ⩐
< ⩑
< ⩒
< ⩓
< ⩔
< ⩕
< ⩖
< ⩗
< ⩘
< ⩙
< ⩚
< ⩛
< ⩜
< ⩝
< ⩞
< ⩟
< ⩠
< ⩡
< ⩢
< ⩣
< ⩤
< ⩥
< ⩦
< ⩧
< ⩨
< ⩩
< ⩪
< ⩫
< ⩬
< ⩭
< ⩮
< ⩯
< ⩰
< ⩱
< ⩲
< ⩳
< ⩷
< ⩸
< ⩹
< ⩺
< ⩻
< ⩼
< ⩽
< ⩾
< ⩿
< ⪀
< ⪁
< ⪂
< ⪃
< ⪄
< ⪅
< ⪆
< ⪇
< ⪈
< ⪉
< ⪊
< ⪋
< ⪌
< ⪍
< ⪎
< ⪏
< ⪐
< ⪑
< ⪒
< ⪓
< ⪔
< ⪕
< ⪖
< ⪗
< ⪘
< ⪙
< ⪚
< ⪛
< ⪜
< ⪝
< ⪞
< ⪟
< ⪠
< ⪡
< ⪢
< ⪣
< ⪤
< ⪥
< ⪦
< ⪧
< ⪨
< ⪩
< ⪪
< ⪫
< ⪬
< ⪭
< ⪮
< ⪯
< ⪰
< ⪱
< ⪲
< ⪳
< ⪴
< ⪵
< ⪶
< ⪷
< ⪸
< ⪹
< ⪺
< ⪻
< ⪼
< ⪽
< ⪾
< ⪿
< ⫀
< ⫁
< ⫂
< ⫃
< ⫄
< ⫅
< ⫆
< ⫇
< ⫈
< ⫉
< ⫊
< ⫋
< ⫌
< ⫍
< ⫎
< ⫏
< ⫐
< ⫑
< ⫒
< ⫓
< ⫔
< ⫕
< ⫖
< ⫗
< ⫘
< ⫙
< ⫚
< ⫛
< ⫝ ; ⫝̸
< ⫞
< ⫟
< ⫠
< ⫡
< ⫢
< ⫣
< ⫤
< ⫥
< ⫦
< ⫧
< ⫨
< ⫩
< ⫪
< ⫫
< ⫬
< ⫭
< ⫮
< ⫯
< ⫰
< ⫱
< ⫲
< ⫳
< ⫴
< ⫵
< ⫶
< ⫷
< ⫸
< ⫹
< ⫺
< ⫻
< ⫼
< ⫽
< ⫾
< ⫿
< ⬀
< ⬁
< ⬂
< ⬃
< ⬄
< ⬅
< ⬆
< ⬇
< ⬈
< ⬉
< ⬊
< ⬋
< ⬌
< ⬍
< ⬎
< ⬏
< ⬐
< ⬑
< ⬒
< ⬓
< ⬔
< ⬕
< ⬖
< ⬗
< ⬘
< ⬙
< ⬚
< ⬛
< ⬜
< ⬝
< ⬞
< ⬟
< ⬠
< ⬡
< ⬢
< ⬣
< ⬤
< ⬥
< ⬦
< ⬧
< ⬨
< ⬩
< ⬪
< ⬫
< ⬬
< ⬭
< ⬮
< ⬯
< ⬰
< ⬱
< ⬲
< ⬳
< ⬴
< ⬵
< ⬶
< ⬷
< ⬸
< ⬹
< ⬺
< ⬻
< ⬼
< ⬽
< ⬾
< ⬿
< ⭀
< ⭁
< ⭂
< ⭃
< ⭄
< ⭅
< ⭆
< ⭇
< ⭈
< ⭉
< ⭊
< ⭋
< ⭌
< ⭐
< ⭑
< ⭒
< ⭓
< ⭔
< ⭕
< ⭖
< ⭗
< ⭘
< ⭙
< ⳥
< ⳦
< ⳧
< ⳨
< ⳩
< ⳪
< ⠀
< ⠁
< ⠂
< ⠃
< ⠄
< ⠅
< ⠆
< ⠇
< ⠈
< ⠉
< ⠊
< ⠋
< ⠌
< ⠍
< ⠎
< ⠏
< ⠐
< ⠑
< ⠒
< ⠓
< ⠔
< ⠕
< ⠖
< ⠗
< ⠘
< ⠙
< ⠚
< ⠛
< ⠜
< ⠝
< ⠞
< ⠟
< ⠠
< ⠡
< ⠢
< ⠣
< ⠤
< ⠥
< ⠦
< ⠧
< ⠨
< ⠩
< ⠪
< ⠫
< ⠬
< ⠭
< ⠮
< ⠯
< ⠰
< ⠱
< ⠲
< ⠳
< ⠴
< ⠵
< ⠶
< ⠷
< ⠸
< ⠹
< ⠺
< ⠻
< ⠼
< ⠽
< ⠾
< ⠿
< ⡀
< ⡁
< ⡂
< ⡃
< ⡄
< ⡅
< ⡆
< ⡇
< ⡈
< ⡉
< ⡊
< ⡋
< ⡌
< ⡍
< ⡎
< ⡏
< ⡐
< ⡑
< ⡒
< ⡓
< ⡔
< ⡕
< ⡖
< ⡗
< ⡘
< ⡙
< ⡚
< ⡛
< ⡜
< ⡝
< ⡞
< ⡟
< ⡠
< ⡡
< ⡢
< ⡣
< ⡤
< ⡥
< ⡦
< ⡧
< ⡨
< ⡩
< ⡪
< ⡫
< ⡬
< ⡭
< ⡮
< ⡯
< ⡰
< ⡱
< ⡲
< ⡳
< ⡴
< ⡵
< ⡶
< ⡷
< ⡸
< ⡹
< ⡺
< ⡻
< ⡼
< ⡽
< ⡾
< ⡿
< ⢀
< ⢁
< ⢂
< ⢃
< ⢄
< ⢅
< ⢆
< ⢇
< ⢈
< ⢉
< ⢊
< ⢋
< ⢌
< ⢍
< ⢎
< ⢏
< ⢐
< ⢑
< ⢒
< ⢓
< ⢔
< ⢕
< ⢖
< ⢗
< ⢘
< ⢙
< ⢚
< ⢛
< ⢜
< ⢝
< ⢞
< ⢟
< ⢠
< ⢡
< ⢢
< ⢣
< ⢤
< ⢥
< ⢦
< ⢧
< ⢨
< ⢩
< ⢪
< ⢫
< ⢬
< ⢭
< ⢮
< ⢯
< ⢰
< ⢱
< ⢲
< ⢳
< ⢴
< ⢵
< ⢶
< ⢷
< ⢸
< ⢹
< ⢺
< ⢻
< ⢼
< ⢽
< ⢾
< ⢿
< ⣀
< ⣁
< ⣂
< ⣃
< ⣄
< ⣅
< ⣆
< ⣇
< ⣈
< ⣉
< ⣊
< ⣋
< ⣌
< ⣍
< ⣎
< ⣏
< ⣐
< ⣑
< ⣒
< ⣓
< ⣔
< ⣕
< ⣖
< ⣗
< ⣘
< ⣙
< ⣚
< ⣛
< ⣜
< ⣝
< ⣞
< ⣟
< ⣠
< ⣡
< ⣢
< ⣣
< ⣤
< ⣥
< ⣦
< ⣧
< ⣨
< ⣩
< ⣪
< ⣫
< ⣬
< ⣭
< ⣮
< ⣯
< ⣰
< ⣱
< ⣲
< ⣳
< ⣴
< ⣵
< ⣶
< ⣷
< ⣸
< ⣹
< ⣺
< ⣻
< ⣼
< ⣽
< ⣾
< ⣿
< ⚊
< ⚋
< ⚌
< ⚍
< ⚎
< ⚏
< ☰
< ☱
< ☲
< ☳
< ☴
< ☵
< ☶
< ☷
< ䷀
< ䷁
< ䷂
< ䷃
< ䷄
< ䷅
< ䷆
< ䷇
< ䷈
< ䷉
< ䷊
< ䷋
< ䷌
< ䷍
< ䷎
< ䷏
< ䷐
< ䷑
< ䷒
< ䷓
< ䷔
< ䷕
< ䷖
< ䷗
< ䷘
< ䷙
< ䷚
< ䷛
< ䷜
< ䷝
< ䷞
< ䷟
< ䷠
< ䷡
< ䷢
< ䷣
< ䷤
< ䷥
< ䷦
< ䷧
< ䷨
< ䷩
< ䷪
< ䷫
< ䷬
< ䷭
< ䷮
< ䷯
< ䷰
< ䷱
< ䷲
< ䷳
< ䷴
< ䷵
< ䷶
< ䷷
< ䷸
< ䷹
< ䷺
< ䷻
< ䷼
< ䷽
< ䷾
< ䷿
< ꒐
< ꒑
< ꒒
< ꒓
< ꒔
< ꒕
< ꒖
< ꒗
< ꒘
< ꒙
< ꒚
< ꒛
< ꒜
< ꒝
< ꒞
< ꒟
< ꒠
< ꒡
< ꒢
< ꒣
< ꒤
< ꒥
< ꒦
< ꒧
< ꒨
< ꒩
< ꒪
< ꒫
< ꒬
< ꒭
< ꒮
< ꒯
< ꒰
< ꒱
< ꒲
< ꒳
< ꒴
< ꒵
< ꒶
< ꒷
< ꒸
< ꒹
< ꒺
< ꒻
< ꒼
< ꒽
< ꒾
< ꒿
< ꓀
< ꓁
< ꓂
< ꓃
< ꓄
< ꓅
< ꓆
< ♭
< ♮
< ♯
< ⿰
< ⿱
< ⿲
< ⿳
< ⿴
< ⿵
< ⿶
< ⿷
< ⿸
< ⿹
< ⿺
< ⿻
< ㇀
< ㇁
< ㇂
< ㇃
< ㇄
< ㇅
< ㇆
< ㇇
< ㇈
< ㇉
< ㇊
< ㇋
< ㇌
< ㇍
< ㇎
< ㇏
< ㇐
< ㇑
< ㇒
< ㇓
< ㇔
< ㇕
< ㇖
< ㇗
< ㇘
< ㇙
< ㇚
< ㇛
< ㇜
< ㇝
< ㇞
< ㇟
< ㇠
< ㇡
< ㇢
< ㇣
< 〄
< 〒,〶
< 〓
< 〠
< 〷
< 〾
< 〿
< ㆐
< ㆑
< ㉿
< ￼
< ৴
< ৵
< ৶
< ৷
< ৸
< ৹
< ୲
< ୳
< ୴
< ୵
< ୶
< ୷
< ꠰
< ꠱
< ꠲
< ꠳
< ꠴
< ꠵
< ௰
< ௱
< ௲
< ൰
< ൱
< ൲
< ൳
< ൴
< ൵
< ፲
< ፳
< ፴
< ፵
< ፶
< ፷
< ፸
< ፹
< ፺
< ፻
< ፼
< ↀ
< ↁ
< ↂ
< ↆ
< ↇ
< ↈ
< ⳽
< ː
< ˑ
< ॱ
< ๆ
< ໆ
< ៗ
< ᪧ
< ꧏ
< ꩰ
< ꫝ
< aaf3
< aaf4
< 々
< 〻
< 〱 ; 〲
< 〳 ; 〴
< 〵
< ゝ ; ゞ
< ー,ｰ
< ヽ ; ヾ
< ¤
< ¢,￠
< $,＄,﹩
< £,￡
< ¥,￥
< 058f
< ؋
< ৲
< ৳
< ৻
< ૱
< ꠸
< ௹
< ฿
< ៛
< ₠
< ₡
< ₢
< ₣
< ₤
< ₥
< ₦
< ₧
< ₩,￦
< ₪
< ₫
< €
< ₭
< ₮
< ₯
< ₰
< ₱
< ₲
< ₳
< ₴
< ₵
< ₶
< ₷
< ₸
< ₹
< 20ba
< 0=٠=۰=߀=०=০=੦=૦=୦=௦=౦=౸=೦=൦=๐=໐=༠=၀=႐=០=៰=᠐=᥆=᧐=᪀=᪐=᭐=᮰=᱀=᱐=〇=꘠=꣐=꤀=꧐=꩐=꯰,０,༳,⓪=⓿,⁰,₀
< 1=١=۱=߁=१=১=੧=૧=୧=௧=౧=౹=౼=೧=൧=๑=໑=༡=၁=႑=፩=១=៱=᠑=᥇=᧑=᧚=᪁=᪑=᭑=᮱=᱁=᱑=〡=꘡=꣑=꤁=꧑=꩑=꯱,１,༪,①=⓵=❶=➀=➊,¹,₁
< 2=٢=۲=߂=२=২=੨=૨=୨=௨=౨=౺=౽=೨=൨=๒=໒=༢=၂=႒=፪=២=៲=᠒=᥈=᧒=᪂=᪒=᭒=᮲=᱂=᱒=〢=꘢=꣒=꤂=꧒=꩒=꯲,２,༫,②=⓶=❷=➁=➋,²,₂
< 3=٣=۳=߃=३=৩=੩=૩=୩=௩=౩=౻=౾=೩=൩=๓=໓=༣=၃=႓=፫=៣=៳=᠓=᥉=᧓=᪃=᪓=᭓=᮳=᱃=᱓=〣=꘣=꣓=꤃=꧓=꩓=꯳,３,༬,③=⓷=❸=➂=➌,³,₃
< 4=٤=۴=߄=४=৪=੪=૪=୪=௪=౪=೪=൪=๔=໔=༤=၄=႔=፬=៤=៴=᠔=᥊=᧔=᪄=᪔=᭔=᮴=᱄=᱔=〤=꘤=꣔=꤄=꧔=꩔=꯴,４,༭,④=⓸=❹=➃=➍,⁴,₄
< 5=٥=۵=߅=५=৫=੫=૫=୫=௫=౫=೫=൫=๕=໕=༥=၅=႕=፭=៥=៵=᠕=᥋=᧕=᪅=᪕=᭕=᮵=᱅=᱕=〥=꘥=꣕=꤅=꧕=꩕=꯵,５,༮,⑤=⓹=❺=➄=➎,⁵,₅
< 6=٦=۶=߆=६=৬=੬=૬=୬=௬=౬=೬=൬=๖=໖=༦=၆=႖=፮=៦=៶=᠖=᥌=᧖=᪆=᪖=᭖=᮶=᱆=᱖=ↅ=〦=꘦=꣖=꤆=꧖=꩖=꯶,６,༯,⑥=⓺=❻=➅=➏,⁶,₆
< 7=٧=۷=߇=७=৭=੭=૭=୭=௭=౭=೭=൭=๗=໗=༧=၇=႗=፯=៧=៷=᠗=᥍=᧗=᪇=᪗=᭗=᮷=᱇=᱗=〧=꘧=꣗=꤇=꧗=꩗=꯷,７,༰,⑦=⓻=❼=➆=➐,⁷,₇
< 8=٨=۸=߈=८=৮=੮=૮=୮=௮=౮=೮=൮=๘=໘=༨=၈=႘=፰=៨=៸=᠘=᥎=᧘=᪈=᪘=᭘=᮸=᱈=᱘=〨=꘨=꣘=꤈=꧘=꩘=꯸,８,༱,⑧=⓼=❽=➇=➑,⁸,₈
< 9=٩=۹=߉=९=৯=੯=૯=୯=௯=౯=೯=൯=๙=໙=༩=၉=႙=፱=៩=៹=᠙=᥏=᧙=᪉=᪙=᭙=᮹=᱉=᱙=〩=꘩=꣙=꤉=꧙=꩙=꯹,９,༲,⑨=⓽=❾=➈=➒,⁹,₉
< a,ａ,0363,ⓐ,A,Ａ,Ⓐ,ª=ᵃ,ₐ,ᴬ ; á,Á ; à,À ; ă,Ă ; ắ,Ắ ; ằ,Ằ ; ẵ,Ẵ ; ẳ,Ẳ ; â,Â ; ấ,Ấ ; ầ,Ầ ; ẫ,Ẫ ; ẩ,Ẩ ; ǎ,Ǎ ; å,Å=Å ; ǻ,Ǻ ; ä,Ä ; ǟ,Ǟ ; ã,Ã ; ȧ,Ȧ ; ǡ,Ǡ ; ą,Ą ; ā,Ā ; ả,Ả ; ȁ,Ȁ ; ȃ,Ȃ ; ạ,Ạ ; ặ,Ặ ; ậ,Ậ ; ḁ,Ḁ ; 1dd3
< ᴀ
< ⱥ,Ⱥ
< ᶏ
< ᴁ
< ᴂ,ᵆ
< ɐ,Ɐ,ᵄ
< ɑ,Ɑ,ᵅ
< ᶐ
< ɒ,Ɒ,ᶛ
< b,ｂ,ⓑ,B,Ｂ,ℬ,Ⓑ,ᵇ,ᴮ ; ḃ,Ḃ ; ḅ,Ḅ ; ḇ,Ḇ
< ʙ
< ƀ,Ƀ
< ᴯ
< ᴃ
< ᵬ
< ᶀ
< ɓ,Ɓ
< ƃ,Ƃ
< c,ｃ,0368=ⅽ,ⓒ,C,Ｃ,Ⅽ,ℂ=ℭ,Ⓒ,ᶜ ; ć,Ć ; ĉ,Ĉ ; č,Č ; ċ,Ċ ; ç,1dd7,Ç ; ḉ,Ḉ
< ᴄ
< ȼ,Ȼ
< a793,a792
< ƈ,Ƈ
< ɕ,ᶝ
< ↄ,Ↄ
< ꜿ,Ꜿ
< d,ｄ,0369=ⅾ,ⅆ,ⓓ,D,Ｄ,Ⅾ,ⅅ,Ⓓ,ᵈ,ᴰ ; ď,Ď ; ḋ,Ḋ ; ḑ,Ḑ ; đ,Đ ; ḍ,Ḍ ; ḓ,Ḓ ; ḏ,Ḏ ; ð=1dd9,Ð,ᶞ ; 1dd8=ꝺ,Ꝺ
< ᴅ
< ᴆ
< ᵭ
< ᶁ
< ɖ,Ɖ
< ɗ,Ɗ
< ᶑ
< ƌ,Ƌ
< ȡ
< ꝱ
< ẟ
< e,ｅ,0364,ℯ=ⅇ,ⓔ,E,Ｅ,ℰ,Ⓔ,ᵉ,ₑ,ᴱ ; é,É ; è,È ; ĕ,Ĕ ; ê,Ê ; ế,Ế ; ề,Ề ; ễ,Ễ ; ể,Ể ; ě,Ě ; ë,Ë ; ẽ,Ẽ ; ė,Ė ; ȩ,Ȩ ; ḝ,Ḝ ; ę,Ę ; ē,Ē ; ḗ,Ḗ ; ḕ,Ḕ ; ẻ,Ẻ ; ȅ,Ȅ ; ȇ,Ȇ ; ẹ,Ẹ ; ệ,Ệ ; ḙ,Ḙ ; ḛ,Ḛ
< ᴇ
< ɇ,Ɇ
< ᶒ
< ⱸ
< ǝ,Ǝ,ᴲ
< ⱻ
< ə,Ə,ᵊ,ₔ
< ᶕ
< ɛ,Ɛ,ℇ,ᵋ
< ᶓ
< ɘ
< ɚ
< ɜ,ᶟ
< ᶔ
< ᴈ,ᵌ
< ɝ
< ɞ
< ʚ
< ɤ
< f,ｆ,ⓕ,F,Ｆ,ℱ,Ⓕ,ᶠ ; ḟ,Ḟ ; ꝼ,Ꝼ
< ꜰ
< ᵮ
< ᶂ
< ƒ,Ƒ
< ⅎ,Ⅎ
< ꟻ
< g,ｇ,1dda,ℊ,ⓖ,G,Ｇ,Ⓖ,ᵍ,ᴳ ; ǵ,Ǵ ; ğ,Ğ ; ĝ,Ĝ ; ǧ,Ǧ ; ġ,Ġ ; ģ,Ģ ; ḡ,Ḡ ; ꞡ,Ꞡ ; ᵹ,Ᵹ
< ɡ,ᶢ
< ɢ,1ddb
< ǥ,Ǥ
< ᶃ
< ɠ,Ɠ
< ʛ
< ᵷ
< ꝿ,Ꝿ
< ɣ,Ɣ,ˠ
< ƣ,Ƣ
< h,ｈ,036a,ℎ,ⓗ,H,Ｈ,ℋ=ℌ=ℍ,Ⓗ,ʰ,ₕ,ᴴ ; ĥ,Ĥ ; ȟ,Ȟ ; ḧ,Ḧ ; ḣ,Ḣ ; ḩ,Ḩ ; ħ=ℏ,Ħ,a7f8 ; ḥ,Ḥ ; ḫ,Ḫ ; ẖ
< ʜ
< ƕ,Ƕ
< ɦ,a7aa,ʱ
< ⱨ,Ⱨ
< ⱶ,Ⱶ
< ꜧ,Ꜧ
< ɧ
< ʻ
< ʽ
< i,ｉ,0365=ⅰ,ℹ=ⅈ,ⓘ,I,Ｉ,Ⅰ,ℐ=ℑ,Ⓘ,ⁱ,ᵢ,ᴵ ; í,Í ; ì,Ì ; ĭ,Ĭ ; î,Î ; ǐ,Ǐ ; ï,Ï ; ḯ,Ḯ ; ĩ,Ĩ ; İ ; į,Į ; ī,Ī ; ỉ,Ỉ ; ȉ,Ȉ ; ȋ,Ȋ ; ị,Ị ; ḭ,Ḭ
< ı
< ɪ,ᶦ
< ꟾ
< ᴉ,ᵎ
< ɨ,Ɨ,ᶤ
< ᵻ,ᶧ
< ᶖ
< ɩ,Ɩ,ᶥ
< ᵼ
< j,ｊ,ⅉ,ⓙ,J,Ｊ,Ⓙ,ʲ,ⱼ,ᴶ ; ĵ,Ĵ ; ǰ
< ȷ
< ᴊ
< ɉ,Ɉ
< ʝ,ᶨ
< ɟ,ᶡ
< ʄ
< k,ｋ,1ddc,ⓚ,K=K,Ｋ,Ⓚ,ᵏ,ₖ,ᴷ ; ḱ,Ḱ ; ǩ,Ǩ ; ķ,Ķ ; ꞣ,Ꞣ ; ḳ,Ḳ ; ḵ,Ḵ
< ᴋ
< ᶄ
< ƙ,Ƙ
< ⱪ,Ⱪ
< ꝁ,Ꝁ
< ꝃ,Ꝃ
< ꝅ,Ꝅ
< ʞ
< l,ｌ,1ddd=ⅼ,ℓ,ⓛ,L,Ｌ,Ⅼ,ℒ,Ⓛ,ˡ,ₗ,ᴸ ; ĺ,Ĺ ; ľ,Ľ ; ļ,Ļ ; ł,Ł ; ḷ,Ḷ ; ḹ,Ḹ ; ḽ,Ḽ ; ḻ,Ḻ ; ŀ,Ŀ
< ʟ,1dde,ᶫ
< ꝇ,Ꝇ
< ᴌ
< ꝉ,Ꝉ
< ƚ,Ƚ
< ⱡ,Ⱡ
< ɫ,Ɫ
< ɬ
< ᶅ,ᶪ
< ɭ,ᶩ
< ꞎ
< ȴ
< ꝲ
< ɮ
< ꞁ,Ꞁ
< ƛ
< ʎ
< m,ｍ,036b=ⅿ,ⓜ,M,Ｍ,Ⅿ,ℳ,Ⓜ,ᵐ,ₘ,ᴹ ; ḿ,Ḿ ; ṁ,Ṁ ; ṃ,Ṃ
< ᴍ,1ddf
< ᵯ
< ᶆ
< ɱ,Ɱ,ᶬ
< ꟽ
< ꟿ
< ꝳ
< n,ｎ,1de0,ⓝ,N,Ｎ,ℕ,Ⓝ,ⁿ,ₙ,ᴺ ; ń,Ń ; ǹ,Ǹ ; ň,Ň ; ñ,Ñ ; ṅ,Ṅ ; ņ,Ņ ; ꞥ,Ꞥ ; ṇ,Ṇ ; ṋ,Ṋ ; ṉ,Ṉ
< ɴ,1de1,ᶰ
< ᴻ
< ᴎ
< ᵰ
< ɲ,Ɲ,ᶮ
< ƞ,Ƞ
< ꞑ,Ꞑ
< ᶇ
< ɳ,ᶯ
< ȵ
< ꝴ
< ŋ,Ŋ,ᵑ
< o,ｏ,0366,ℴ,ⓞ,O,Ｏ,Ⓞ,º=ᵒ,ₒ,ᴼ ; ó,Ó ; ò,Ò ; ŏ,Ŏ ; ô,Ô ; ố,Ố ; ồ,Ồ ; ỗ,Ỗ ; ổ,Ổ ; ǒ,Ǒ ; ö,Ö ; ȫ,Ȫ ; ő,Ő ; õ,Õ ; ṍ,Ṍ ; ṏ,Ṏ ; ȭ,Ȭ ; ȯ,Ȯ ; ȱ,Ȱ ; ø,Ø ; ǿ,Ǿ ; ǫ,Ǫ ; ǭ,Ǭ ; ō,Ō ; ṓ,Ṓ ; ṑ,Ṑ ; ỏ,Ỏ ; ȍ,Ȍ ; ȏ,Ȏ ; ơ,Ơ ; ớ,Ớ ; ờ,Ờ ; ỡ,Ỡ ; ở,Ở ; ợ,Ợ ; ọ,Ọ ; ộ,Ộ
< ᴏ
< ᴑ
< ɶ
< ᴔ
< ᴓ
< ɔ,Ɔ,ᵓ
< ᴐ
< ᴒ
< ᶗ
< ꝍ,Ꝍ
< ᴖ,ᵔ
< ᴗ,ᵕ
< ⱺ
< ɵ,Ɵ,ᶱ
< ꝋ,Ꝋ
< ɷ
< ȣ,Ȣ,ᴽ
< ᴕ
< p,ｐ,ⓟ,P,Ｐ,ℙ,Ⓟ,ᵖ,ₚ,ᴾ ; ṕ,Ṕ ; ṗ,Ṗ
< ᴘ
< ᵽ,Ᵽ
< ꝑ,Ꝑ
< ᵱ
< ᶈ
< ƥ,Ƥ
< ꝓ,Ꝓ
< ꝕ,Ꝕ
< ꟼ
< ɸ,ᶲ
< ⱷ
< q,ｑ,ⓠ,Q,Ｑ,ℚ,Ⓠ
< ꝗ,Ꝗ
< ꝙ,Ꝙ
< ʠ
< ɋ,Ɋ
< ĸ
< r,ｒ,036c=1dca,ⓡ,R,Ｒ,ℛ=ℜ=ℝ,Ⓡ,ʳ,ᵣ,ᴿ ; ŕ,Ŕ ; ř,Ř ; ṙ,Ṙ ; ŗ,Ŗ ; ꞧ,Ꞧ ; ȑ,Ȑ ; ȓ,Ȓ ; ṛ,Ṛ ; ṝ,Ṝ ; ṟ,Ṟ ; ꞃ,Ꞃ
< ʀ,1de2,Ʀ
< ꝛ,1de3,Ꝛ
< ᴙ
< ɍ,Ɍ
< ᵲ
< ɹ,ʴ
< ᴚ
< ɺ
< ᶉ
< ɻ,ʵ
< ⱹ
< ɼ
< ɽ,Ɽ
< ɾ
< ᵳ
< ɿ
< ʁ,ʶ
< ꝵ
< ꝶ
< ꝝ,Ꝝ
< s,ｓ,1de4,ⓢ,S,Ｓ,Ⓢ,ˢ,ₛ ; ś,Ś ; ṥ,Ṥ ; ŝ,Ŝ ; š,Š ; ṧ,Ṧ ; ṡ,Ṡ ; ş,Ş ; ꞩ,Ꞩ ; ṣ,Ṣ ; ṩ,Ṩ ; ș,Ș ; ſ=1de5=ꞅ,Ꞅ ; ẛ
< ꜱ
< ᵴ
< ᶊ
< ʂ,ᶳ
< ȿ,Ȿ
< ẜ
< ẝ
< ʃ,Ʃ,ᶴ
< ᶋ
< ƪ
< ʅ
< ᶘ
< ʆ
< t,ｔ,036d,ⓣ,T,Ｔ,Ⓣ,ᵗ,ₜ,ᵀ ; ť,Ť ; ẗ ; ṫ,Ṫ ; ţ,Ţ ; ṭ,Ṭ ; ț,Ț ; ṱ,Ṱ ; ṯ,Ṯ ; ꞇ,Ꞇ
< ᴛ
< ŧ,Ŧ
< ⱦ,Ⱦ
< ᵵ
< ƫ,ᶵ
< ƭ,Ƭ
< ʈ,Ʈ
< ȶ
< ꝷ
< ʇ
< u,ｕ,0367,ⓤ,U,Ｕ,Ⓤ,ᵘ,ᵤ,ᵁ ; ú,Ú ; ù,Ù ; ŭ,Ŭ ; û,Û ; ǔ,Ǔ ; ů,Ů ; ü,Ü ; ǘ,Ǘ ; ǜ,Ǜ ; ǚ,Ǚ ; ǖ,Ǖ ; ű,Ű ; ũ,Ũ ; ṹ,Ṹ ; ų,Ų ; ū,Ū ; ṻ,Ṻ ; ủ,Ủ ; ȕ,Ȕ ; ȗ,Ȗ ; ư,Ư ; ứ,Ứ ; ừ,Ừ ; ữ,Ữ ; ử,Ử ; ự,Ự ; ụ,Ụ ; ṳ,Ṳ ; ṷ,Ṷ ; ṵ,Ṵ
< ᴜ,ᶸ
< ᴝ,ᵙ
< ᴞ
< ᵫ
< ʉ,Ʉ,ᶶ
< ᵾ
< ᶙ
< ɥ,Ɥ,ᶣ
< ʮ
< ʯ
< ɯ,Ɯ,ᵚ
< ꟺ
< ᴟ
< ɰ,ᶭ
< ʊ,Ʊ,ᶷ
< ᵿ
< v,ｖ,036e=ⅴ,ⓥ,V,Ｖ,Ⅴ,Ⓥ,ᵛ,ᵥ,ⱽ ; ṽ,Ṽ ; ṿ,Ṿ
< ᴠ
< ꝟ,Ꝟ
< ᶌ
< ʋ,Ʋ,ᶹ
< ⱱ
< ⱴ
< ỽ,Ỽ
< ʌ,Ʌ,ᶺ
< w,ｗ,ⓦ,W,Ｗ,Ⓦ,ʷ,ᵂ ; ẃ,Ẃ ; ẁ,Ẁ ; ŵ,Ŵ ; ẘ ; ẅ,Ẅ ; ẇ,Ẇ ; ẉ,Ẉ
< ᴡ
< ⱳ,Ⱳ
< ʍ
< x,ｘ,036f=ⅹ,ⓧ,X,Ｘ,Ⅹ,Ⓧ,ˣ,ₓ ; ẍ,Ẍ ; ẋ,Ẋ
< ᶍ
< y,ｙ,ⓨ,Y,Ｙ,Ⓨ,ʸ ; ý,Ý ; ỳ,Ỳ ; ŷ,Ŷ ; ẙ ; ÿ,Ÿ ; ỹ,Ỹ ; ẏ,Ẏ ; ȳ,Ȳ ; ỷ,Ỷ ; ỵ,Ỵ
< ʏ
< ɏ,Ɏ
< ƴ,Ƴ
< ỿ,Ỿ
< ȝ,Ȝ
< z,ｚ,1de6,ⓩ,Z,Ｚ,ℤ=ℨ,Ⓩ,ᶻ ; ź,Ź ; ẑ,Ẑ ; ž,Ž ; ż,Ż ; ẓ,Ẓ ; ẕ,Ẕ
< ᴢ
< ƶ,Ƶ
< ᵶ
< ᶎ
< ȥ,Ȥ
< ʐ,ᶼ
< ʑ,ᶽ
< ɀ,Ɀ
< ⱬ,Ⱬ
< ꝣ,Ꝣ
< ʒ,Ʒ,ᶾ ; ǯ,Ǯ
< ᴣ
< ƹ,Ƹ
< ᶚ
< ƺ
< ʓ
< þ,Þ
< ꝥ,Ꝥ
< ꝧ,Ꝧ
< ƿ,Ƿ
< ꝩ,Ꝩ
< ꝫ,Ꝫ
< ꝭ,Ꝭ
< ꝯ,1dd2,Ꝯ,ꝰ
< ꝸ
< ƻ
< ꜫ,Ꜫ
< ꜭ,Ꜭ
< ꜯ,Ꜯ
< ƨ,Ƨ
< ƽ,Ƽ
< ƅ,Ƅ
< ʔ
< ɂ,Ɂ
< ˀ
< ʼ
< ˮ
< ʾ
< ꜣ,Ꜣ
< ꞌ,Ꞌ
< ʕ,ˤ
< ʿ
< ˁ
< ᴤ
< ᴥ,ᵜ
< ꜥ,Ꜥ
< ʡ
< ʢ
< ʖ
< ǀ
< ǁ
< ǂ
< ǃ
< ʗ
< ʘ
< ʬ
< ʭ
< α,Α ; ἀ,Ἀ ; ἄ,Ἄ ; ἂ,Ἂ ; ἆ,Ἆ ; ᾀ,ᾈ ; ἁ,Ἁ ; ἅ,Ἅ ; ἃ,Ἃ ; ἇ,Ἇ ; ᾁ,ᾉ ; ά=ά,Ά=Ά ; ᾴ ; ὰ,Ὰ ; ᾲ ; ᾰ,Ᾰ ; ᾶ ; ᾷ ; ᾱ,Ᾱ ; ᾳ,ᾼ ; ᾄ,ᾌ ; ᾂ,ᾊ ; ᾆ,ᾎ ; ᾅ,ᾍ ; ᾃ,ᾋ ; ᾇ,ᾏ
< β,ϐ,Β,ᵝ,ᵦ
< γ,ℽ,Γ,ℾ,ᵞ,ᵧ
< ᴦ
< δ,Δ,ᵟ
< ε,ϵ,Ε ; ἐ,Ἐ ; ἔ,Ἔ ; ἒ,Ἒ ; ἑ,Ἑ ; ἕ,Ἕ ; ἓ,Ἓ ; έ=έ,Έ=Έ ; ὲ,Ὲ
< ϝ,Ϝ
< ͷ,Ͷ
< ϛ,Ϛ
< ζ,Ζ
< ͱ,Ͱ
< η,Η ; ἠ,Ἠ ; ἤ,Ἤ ; ἢ,Ἢ ; ἦ,Ἦ ; ᾐ,ᾘ ; ἡ,Ἡ ; ἥ,Ἥ ; ἣ,Ἣ ; ἧ,Ἧ ; ᾑ,ᾙ ; ή=ή,Ή=Ή ; ῄ ; ὴ,Ὴ ; ῂ ; ῆ ; ῇ ; ῃ,ῌ ; ᾔ,ᾜ ; ᾒ,ᾚ ; ᾖ,ᾞ ; ᾕ,ᾝ ; ᾓ,ᾛ ; ᾗ,ᾟ
< θ,ϑ,Θ,ϴ,ᶿ
< ι=ι,ͺ,Ι ; ἰ,Ἰ ; ἴ,Ἴ ; ἲ,Ἲ ; ἶ,Ἶ ; ἱ,Ἱ ; ἵ,Ἵ ; ἳ,Ἳ ; ἷ,Ἷ ; ί=ί,Ί=Ί ; ὶ,Ὶ ; ῐ,Ῐ ; ῖ ; ϊ,Ϊ ; ΐ=ΐ ; ῒ ; ῗ ; ῑ,Ῑ
< ϳ
< κ,ϰ,Κ
< λ,Λ
< ᴧ
< μ,µ,Μ
< ν,Ν
< ξ,Ξ
< ο,Ο ; ὀ,Ὀ ; ὄ,Ὄ ; ὂ,Ὂ ; ὁ,Ὁ ; ὅ,Ὅ ; ὃ,Ὃ ; ό=ό,Ό=Ό ; ὸ,Ὸ
< π,ϖ,ℼ,Π,ℿ
< ᴨ
< ϻ,Ϻ
< ϟ,Ϟ
< ϙ,Ϙ
< ρ,ϱ,Ρ,ᵨ ; ῤ ; ῥ,Ῥ
< ᴩ
< ϼ
< σ,ϲ,Σ,Ϲ,ς
< ͼ,Ͼ
< ͻ,Ͻ
< ͽ,Ͽ
< τ,Τ
< υ,Υ,ϒ ; ὐ ; ὔ ; ὒ ; ὖ ; ὑ,Ὑ ; ὕ,Ὕ ; ὓ,Ὓ ; ὗ,Ὗ ; ύ=ύ,Ύ=Ύ,ϓ ; ὺ,Ὺ ; ῠ,Ῠ ; ῦ ; ϋ,Ϋ,ϔ ; ΰ=ΰ ; ῢ ; ῧ ; ῡ,Ῡ
< φ,ϕ,Φ,ᵠ,ᵩ
< χ,Χ,ᵡ,ᵪ
< ψ,Ψ
< ᴪ
< ω,Ω=Ω ; ὠ,Ὠ ; ὤ,Ὤ ; ὢ,Ὢ ; ὦ,Ὦ ; ᾠ,ᾨ ; ὡ,Ὡ ; ὥ,Ὥ ; ὣ,Ὣ ; ὧ,Ὧ ; ᾡ,ᾩ ; ώ=ώ,Ώ=Ώ ; ῴ ; ὼ,Ὼ ; ῲ ; ῶ ; ῷ ; ῳ,ῼ ; ᾤ,ᾬ ; ᾢ,ᾪ ; ᾦ,ᾮ ; ᾥ,ᾭ ; ᾣ,ᾫ ; ᾧ,ᾯ
< ϡ,Ϡ
< ͳ,Ͳ
< ϸ,Ϸ
< ⲁ,Ⲁ
< ⲃ,Ⲃ
< ⲅ,Ⲅ
< ⲇ,Ⲇ
< ⲉ,Ⲉ
< ⲷ,Ⲷ
< ⲋ,Ⲋ
< ⲍ,Ⲍ
< ⲏ,Ⲏ
< ⲑ,Ⲑ
< ⲓ,Ⲓ
< ⲕ,Ⲕ
< ⲹ,Ⲹ
< ⲗ,Ⲗ
< ⲙ,Ⲙ
< ⲛ,Ⲛ
< ⲻ,Ⲻ
< ⲽ,Ⲽ
< ⲝ,Ⲝ
< ⲟ,Ⲟ
< ⲡ,Ⲡ
< ⲣ,Ⲣ
< ⲥ,Ⲥ
< ⲧ,Ⲧ
< ⲩ,Ⲩ
< ⲫ,Ⲫ
< ⲭ,Ⲭ
< ⲯ,Ⲯ
< ⲱ,Ⲱ
< ⲿ,Ⲿ
< ⳁ,Ⳁ
< ϣ,Ϣ
< ⳬ,Ⳬ
< ⳃ,Ⳃ
< ⳅ,Ⳅ
< ⳇ,Ⳇ
< ϥ,Ϥ
< ϧ,Ϧ
< 2cf3,2cf2
< ⳉ,Ⳉ
< ϩ,Ϩ
< ⳋ,Ⳋ
< ⳍ,Ⳍ
< ⳏ,Ⳏ
< ⳑ,Ⳑ
< ⳓ,Ⳓ
< ⳕ,Ⳕ
< ϫ,Ϫ
< ⳮ,Ⳮ
< ⳗ,Ⳗ
< ϭ,Ϭ
< ⳙ,Ⳙ
< ⳛ,Ⳛ
< ⳝ,Ⳝ
< ϯ,Ϯ
< ⲳ,Ⲳ
< ⲵ,Ⲵ
< ⳟ,Ⳟ
< ⳡ,Ⳡ
< ⳣ,Ⳣ
< а,2df6,А
< ӑ,Ӑ
< ӓ,Ӓ
< ә,Ә
< ӛ,Ӛ
< ӕ,Ӕ
< б,2de0,Б
< в,2de1,В
< г,2de2,Г ; ґ,Ґ
< ғ,Ғ
< ӻ,Ӻ
< ҕ,Ҕ
< ӷ,Ӷ
< д,2de3,Д
< ԁ,Ԁ
< ꚁ,Ꚁ
< ђ,Ђ
< ꙣ,Ꙣ
< ԃ,Ԃ
< ѓ,Ѓ
< ҙ,Ҙ
< е,2df7,Е ; ѐ,Ѐ ; ё,Ё
< ӗ,Ӗ
< є,a674,Є
< ж,2de4,Ж ; ӂ,Ӂ
< ꚅ,Ꚅ
< ӝ,Ӝ
< җ,Җ
< з,2de5,З
< ꙁ,Ꙁ
< ԅ,Ԅ
< ԑ,Ԑ
< ӟ,Ӟ
< ꙃ,Ꙃ
< ѕ,Ѕ
< ꙅ,Ꙅ
< ӡ,Ӡ
< ꚉ,Ꚉ
< ԇ,Ԇ
< ꚃ,Ꚃ
< и,a675,И ; ѝ,Ѝ ; ӣ,Ӣ
< ҋ,Ҋ
< ӥ,Ӥ
< і,І
< ꙇ,Ꙇ
< ї,a676,Ї
< й,Й
< ј,Ј
< ꙉ,2df8,Ꙉ
< к,2de6,К
< қ,Қ
< ӄ,Ӄ
< ҡ,Ҡ
< ҟ,Ҟ
< ҝ,Ҝ
< ԟ,Ԟ
< ԛ,Ԛ
< л,2de7,Л
< ᴫ
< ӆ,Ӆ
< ԓ,Ԓ
< ԡ,Ԡ
< љ,Љ
< ꙥ,Ꙥ
< ԉ,Ԉ
< ԕ,Ԕ
< м,2de8,М
< ӎ,Ӎ
< ꙧ,Ꙧ
< н,2de9,Н,ᵸ
< ӊ,Ӊ
< ң,Ң
< ӈ,Ӈ
< ԣ,Ԣ
< ҥ,Ҥ
< њ,Њ
< ԋ,Ԋ
< о,2dea=ꙩ=ꙫ=ꙭ=ꙮ,О,Ꙩ=Ꙫ=Ꙭ
< ӧ,Ӧ
< ө,Ө
< ӫ,Ӫ
< п,2deb,П
< ԥ,Ԥ
< ҧ,Ҧ
< ҁ,Ҁ
< р,2dec,Р
< ҏ,Ҏ
< ԗ,Ԗ
< с,2ded,С
< ԍ,Ԍ
< ҫ,Ҫ
< т,2dee,Т
< ꚍ,Ꚍ
< ԏ,Ԏ
< ҭ,Ҭ
< ꚋ,Ꚋ
< ћ,Ћ
< ќ,Ќ
< у,a677,У ; ӯ,Ӯ
< ў,Ў
< ӱ,Ӱ
< ӳ,Ӳ
< ү,Ү
< ұ,Ұ
< ꙋ,2df9,Ꙋ
< ѹ,Ѹ
< ф,Ф
< х,2def,Х
< ӽ,Ӽ
< ӿ,Ӿ
< ҳ,Ҳ
< һ,Һ
< ԧ,Ԧ
< ꚕ,Ꚕ
< ѡ,a67b,Ѡ
< ѿ,Ѿ
< ꙍ,Ꙍ
< ѽ,Ѽ
< ѻ,Ѻ
< ц,2df0,Ц
< ꙡ,Ꙡ
< ꚏ,Ꚏ
< ҵ,Ҵ
< ꚑ,Ꚑ
< ч,2df1,Ч
< ꚓ,Ꚓ
< ӵ,Ӵ
< ҷ,Ҷ
< ӌ,Ӌ
< ҹ,Ҹ
< ꚇ,Ꚇ
< ҽ,Ҽ
< ҿ,Ҿ
< џ,Џ
< ш,2df2,Ш
< ꚗ,Ꚗ
< щ,2df3,Щ
< ꙏ,Ꙏ
< ⸯ
< ꙿ
< ъ,a678,Ъ
< ꙑ,Ꙑ
< ы,a679,Ы
< ӹ,Ӹ
< ь,a67a,Ь
< ҍ,Ҍ
< ѣ,2dfa,Ѣ
< ꙓ,Ꙓ
< э,Э
< ӭ,Ӭ
< ю,2dfb,Ю
< ꙕ,Ꙕ
< ꙗ,2dfc,Ꙗ
< я,Я
< ԙ,Ԙ
< ѥ,a69f,Ѥ
< ѧ,2dfd,Ѧ
< ꙙ,Ꙙ
< ѫ,2dfe,Ѫ
< ꙛ,Ꙛ
< ѩ,Ѩ
< ꙝ,Ꙝ
< ѭ,2dff,Ѭ
< ѯ,Ѯ
< ѱ,Ѱ
< ѳ,2df4,Ѳ
< ѵ,Ѵ
< ѷ,Ѷ
< ꙟ,Ꙟ
< ҩ,Ҩ
< ԝ,Ԝ
< ӏ,Ӏ
< ⰰ,Ⰰ
< ⰱ,Ⰱ
< ⰲ,Ⰲ
< ⰳ,Ⰳ
< ⰴ,Ⰴ
< ⰵ,Ⰵ
< ⰶ,Ⰶ
< ⰷ,Ⰷ
< ⰸ,Ⰸ
< ⰹ,Ⰹ
< ⰺ,Ⰺ
< ⰻ,Ⰻ
< ⰼ,Ⰼ
< ⰽ,Ⰽ
< ⰾ,Ⰾ
< ⰿ,Ⰿ
< ⱀ,Ⱀ
< ⱁ,Ⱁ
< ⱂ,Ⱂ
< ⱃ,Ⱃ
< ⱄ,Ⱄ
< ⱅ,Ⱅ
< ⱆ,Ⱆ
< ⱇ,Ⱇ
< ⱈ,Ⱈ
< ⱉ,Ⱉ
< ⱊ,Ⱊ
< ⱋ,Ⱋ
< ⱌ,Ⱌ
< ⱍ,Ⱍ
< ⱎ,Ⱎ
< ⱏ,Ⱏ
< ⱐ,Ⱐ
< ⱑ,Ⱑ
< ⱒ,Ⱒ
< ⱓ,Ⱓ
< ⱔ,Ⱔ
< ⱕ,Ⱕ
< ⱖ,Ⱖ
< ⱗ,Ⱗ
< ⱘ,Ⱘ
< ⱙ,Ⱙ
< ⱚ,Ⱚ
< ⱛ,Ⱛ
< ⱜ,Ⱜ
< ⱝ,Ⱝ
< ⱞ,Ⱞ
< ა
< ⴀ,Ⴀ
< ბ
< ⴁ,Ⴁ
< გ
< ⴂ,Ⴂ
< დ
< ⴃ,Ⴃ
< ე
< ⴄ,Ⴄ
< ვ
< ⴅ,Ⴅ
< ზ
< ⴆ,Ⴆ
< ჱ
< ⴡ,Ⴡ
< თ
< ⴇ,Ⴇ
< ი
< ⴈ,Ⴈ
< კ
< ⴉ,Ⴉ
< ლ
< ⴊ,Ⴊ
< მ
< ⴋ,Ⴋ
< ნ,ჼ
< ⴌ,Ⴌ
< ჲ
< ⴢ,Ⴢ
< ო
< ⴍ,Ⴍ
< პ
< ⴎ,Ⴎ
< ჟ
< ⴏ,Ⴏ
< რ
< ⴐ,Ⴐ
< ს
< ⴑ,Ⴑ
< ტ
< ⴒ,Ⴒ
< ჳ
< ⴣ,Ⴣ
< უ
< ⴓ,Ⴓ
< ფ
< ⴔ,Ⴔ
< ქ
< ⴕ,Ⴕ
< ღ
< ⴖ,Ⴖ
< ყ
< ⴗ,Ⴗ
< შ
< ⴘ,Ⴘ
< ჩ
< ⴙ,Ⴙ
< ც
< ⴚ,Ⴚ
< ძ
< ⴛ,Ⴛ
< წ
< ⴜ,Ⴜ
< ჭ
< ⴝ,Ⴝ
< ხ
< ⴞ,Ⴞ
< ჴ
< ⴤ,Ⴤ
< ჯ
< ⴟ,Ⴟ
< ჰ
< ⴠ,Ⴠ
< ჵ
< ⴥ,Ⴥ
< ჶ
< ჷ
< 2d27,10c7
< ჸ
< ჹ
< ჺ
< 10fd
< 2d2d,10cd
< 10fe
< 10ff
< ա,Ա
< բ,Բ
< գ,Գ
< դ,Դ
< ե,Ե
< զ,Զ
< է,Է
< ը,Ը
< թ,Թ
< ժ,Ժ
< ի,Ի
< լ,Լ
< խ,Խ
< ծ,Ծ
< կ,Կ
< հ,Հ
< ձ,Ձ
< ղ,Ղ
< ճ,Ճ
< մ,Մ
< յ,Յ
< ն,Ն
< շ,Շ
< ո,Ո
< չ,Չ
< պ,Պ
< ջ,Ջ
< ռ,Ռ
< ս,Ս
< վ,Վ
< տ,Տ
< ր,Ր
< ց,Ց
< ւ,Ւ
< փ,Փ
< ք,Ք
< օ,Օ
< ֆ,Ֆ
< ՙ
< א,ℵ,ﬡ ; אַ ; אָ ; אּ
< ב,ℶ ; בּ ; בֿ
< ג,ℷ ; גּ
< ד,ℸ,ﬢ ; דּ
< ה,ﬣ ; הּ
< ו ; וֹ ; וּ
< ז ; זּ
< ח
< ט ; טּ
< י ; יִ ; יּ
< כ,ﬤ,ך ; כּ,ךּ ; כֿ
< ל,ﬥ ; לּ
< מ,ﬦ,ם ; מּ
< נ,ן ; נּ
< ס ; סּ
< ע,ﬠ
< פ,ף ; פּ,ףּ ; פֿ
< צ,ץ ; צּ
< ק ; קּ
< ר,ﬧ ; רּ
< ש ; שׂ ; שׁ ; שּ ; שּׂ ; שּׁ
< ת,ﬨ ; תּ
< ࠀ
< ࠁ
< ࠂ
< ࠃ
< ࠄ
< ࠅ
< ࠆ
< ࠇ
< ࠈ
< ࠉ
< ࠊ
< ࠋ
< ࠌ
< ࠍ
< ࠎ
< ࠏ
< ࠐ
< ࠑ
< ࠒ
< ࠓ
< ࠔ
< ࠕ
< 0816
< 0817
< ࠚ
< 081b
< ء,ٴ,ﺀ ; ۽
< آ,ﺂ,ﺁ
< أ,ﺄ,ﺃ
< ٲ
< ٱ,ﭑ,ﭐ
< ؤ,ﺆ,ﺅ
< إ,ﺈ,ﺇ
< ٳ
< ݳ
< ݴ
< ئ,ﺋ,ﺌ,ﺊ,ﺉ
< 08a8
< 08a9
< 08ac
< ا,ﺎ,ﺍ ; ﴼ,ﴽ
< ٮ
< ب,ﺑ,ﺒ,ﺐ,ﺏ
< ٻ,ﭔ,ﭕ,ﭓ,ﭒ
< پ,ﭘ,ﭙ,ﭗ,ﭖ
< ڀ,ﭜ,ﭝ,ﭛ,ﭚ
< ݐ
< ݑ
< ݒ
< ݓ
< ݔ
< ݕ
< 08a0
< ݖ
< ة,ﺔ,ﺓ
< ت,ﺗ,ﺘ,ﺖ,ﺕ
< ث,ﺛ,ﺜ,ﺚ,ﺙ
< ٹ,ﭨ,ﭩ,ﭧ,ﭦ
< ٺ,ﭠ,ﭡ,ﭟ,ﭞ
< ټ
< ٽ
< ٿ,ﭤ,ﭥ,ﭣ,ﭢ
< ج,ﺟ,ﺠ,ﺞ,ﺝ
< ڃ,ﭸ,ﭹ,ﭷ,ﭶ
< ڄ,ﭴ,ﭵ,ﭳ,ﭲ
< چ,ﭼ,ﭽ,ﭻ,ﭺ
< ڿ
< ڇ,ﮀ,ﮁ,ﭿ,ﭾ
< 08a2
< ح,ﺣ,ﺤ,ﺢ,ﺡ
< خ,ﺧ,ﺨ,ﺦ,ﺥ
< ځ
< ڂ
< څ
< ݗ
< ݘ
< ݮ
< ݯ
< ݲ
< ݼ
< د,ﺪ,ﺩ
< ذ,ﺬ,ﺫ ; ﱛ
< ڈ,ﮉ,ﮈ
< ډ
< ڊ
< ڋ
< ڌ,ﮅ,ﮄ
< ڍ,ﮃ,ﮂ
< ڎ,ﮇ,ﮆ
< ڏ
< ڐ
< ۮ
< ݙ
< ݚ
< ر,ﺮ,ﺭ ; ﱜ
< ز,ﺰ,ﺯ
< ڑ,ﮍ,ﮌ
< ڒ
< ړ
< ڔ
< ڕ
< ږ
< ڗ
< ژ,ﮋ,ﮊ
< ڙ
< ۯ
< ݛ
< ݫ
< ݬ
< ݱ
< 08aa
< س,ﺳ,ﺴ,ﺲ,ﺱ
< ش,ﺷ,ﺸ,ﺶ,ﺵ
< ښ
< ڛ
< ڜ
< ۺ
< ݜ
< ݭ
< ݰ
< ݽ
< ݾ
< ص,ﺻ,ﺼ,ﺺ,ﺹ
< ض,ﺿ,ﻀ,ﺾ,ﺽ
< ڝ
< ڞ
< ۻ
< ط,ﻃ,ﻄ,ﻂ,ﻁ
< ظ,ﻇ,ﻈ,ﻆ,ﻅ
< ڟ
< 08a3
< ع,ﻋ,ﻌ,ﻊ,ﻉ
< غ,ﻏ,ﻐ,ﻎ,ﻍ
< ڠ
< ۼ
< ݝ
< ݞ
< ݟ
< ف,ﻓ,ﻔ,ﻒ,ﻑ
< ڡ
< ڢ
< ڣ
< ڤ,ﭬ,ﭭ,ﭫ,ﭪ
< 08a4
< ڥ
< ڦ,ﭰ,ﭱ,ﭯ,ﭮ
< ݠ
< ݡ
< ٯ
< ق,ﻗ,ﻘ,ﻖ,ﻕ
< ڧ
< ڨ
< 08a5
< ك,ﻛ,ﻜ,ﻚ,ﻙ
< ک,ﮐ,ﮑ,ﮏ,ﮎ
< ڪ
< ګ
< ڬ
< ݿ
< ڭ,ﯕ,ﯖ,ﯔ,ﯓ
< ڮ
< گ,ﮔ,ﮕ,ﮓ,ﮒ
< ڰ
< ڱ,ﮜ,ﮝ,ﮛ,ﮚ
< ڲ
< ڳ,ﮘ,ﮙ,ﮗ,ﮖ
< ڴ
< ݢ
< ػ
< ؼ
< ݣ
< ݤ
< ل,ﻟ,ﻠ,ﻞ,ﻝ
< ڵ
< ڶ
< ڷ
< ڸ
< ݪ
< 08a6
< م,ﻣ,ﻤ,ﻢ,ﻡ ; ۾
< ݥ
< ݦ
< 08a7
< ن,ﻧ,ﻨ,ﻦ,ﻥ
< ں,ﮟ,ﮞ
< ڻ,ﮢ,ﮣ,ﮡ,ﮠ
< ڼ
< ڽ
< ڹ
< ݧ
< ݨ
< ݩ
< ه,ﻫ,ﻬ,ﻪ,ﻩ ; ﳙ
< ھ,ﮬ,ﮭ,ﮫ,ﮪ
< ہ,ﮨ,ﮩ,ﮧ,ﮦ ; ۂ
< ۃ
< ۿ
< ە ; ۀ,ﮥ,ﮤ
< و,ۥ,ﻮ,ﻭ
< ۄ
< ۅ,ﯡ,ﯠ
< ۆ,ﯚ,ﯙ
< ۇ,ﯘ,ﯗ
< ۈ,ﯜ,ﯛ
< ۉ,ﯣ,ﯢ
< ۊ
< ۋ,ﯟ,ﯞ
< ۏ
< ݸ
< ݹ
< 08ab
< ى,ﯨ,ﯩ,ﻰ,ﻯ ; ﲐ,ﱝ
< ي,ۦ,ﻳ,ﻴ,ﻲ,ﻱ
< ی,ﯾ,ﯿ,ﯽ,ﯼ
< ۍ
< ێ
< ې,ﯦ,ﯧ,ﯥ,ﯤ
< ۑ
< ؽ
< ؾ
< ؿ
< ؠ
< ݵ
< ݶ
< ݷ
< ے,ﮯ,ﮮ ; ۓ,ﮱ,ﮰ
< ݺ
< ݻ
< ܐ
< ܒ ; ܭ
< ܓ ; ܔ ; ܮ
< ܖ
< ܕ ; ܯ
< ܗ
< ܘ
< ܙ
< ݍ
< ܚ
< ܛ ; ܜ
< ܝ
< ܞ
< ܟ
< ݎ
< ܠ
< ܡ
< ܢ
< ܣ,ܤ
< ܥ
< ܦ ; ܧ
< ݏ
< ܨ
< ܩ
< ܪ
< ܫ
< ܬ
< ࡀ
< ࡁ
< ࡂ
< ࡃ
< ࡄ
< ࡅ
< ࡆ
< ࡇ
< ࡈ
< ࡉ
< ࡊ
< ࡋ
< ࡌ
< ࡍ
< ࡎ
< ࡏ
< ࡐ
< ࡑ
< ࡒ
< ࡓ
< ࡔ
< ࡕ
< ࡖ
< ࡗ
< ࡘ
< ހ
< ޙ
< ޚ
< ށ
< ނ
< ރ
< ޜ
< ބ
< ޅ
< ކ
< އ
< ޢ
< ޣ
< ވ
< ޥ
< މ
< ފ
< ދ
< ޛ
< ތ
< ޘ
< ޠ
< ޡ
< ލ
< ގ
< ޤ
< ޏ
< ސ
< ޝ
< ޞ
< ޟ
< ޑ
< ޒ
< ޓ
< ޔ
< ޕ
< ޖ
< ޗ
< ޱ
< 07a6
< 07a7
< 07a8
< 07a9
< 07aa
< 07ab
< 07ac
< 07ad
< 07ae
< 07af
< 07b0
< ߊ
< ߋ
< ߌ
< ߍ
< ߎ
< ߏ
< ߐ
< ߑ
< ߒ
< ߓ
< ߔ
< ߕ
< ߖ ; ߨ
< ߗ ; ߩ
< ߘ
< ߙ ; ߪ
< ߚ
< ߛ
< ߜ
< ߝ
< ߞ
< ߟ
< ߠ
< ߡ
< ߢ
< ߣ
< ߤ
< ߥ
< ߦ
< ߧ
< ߴ
< ߵ
< ⴰ
< ⴱ
< ⴲ
< ⴳ
< ⴴ
< ⴵ
< ⴶ
< ⴷ
< ⴸ
< ⴹ
< ⴺ
< ⴻ
< 2d66
< ⴼ
< ⴽ
< ⴾ
< ⴿ
< ⵀ
< ⵁ
< ⵂ
< ⵃ
< ⵄ
< ⵅ
< ⵆ
< ⵇ
< ⵈ
< ⵉ
< ⵊ
< ⵋ
< ⵌ
< ⵍ
< ⵎ
< ⵏ
< ⵐ
< ⵑ
< ⵒ
< ⵓ
< 2d67
< ⵔ
< ⵕ
< ⵖ
< ⵗ
< ⵘ
< ⵙ
< ⵚ
< ⵛ
< ⵜ
< ⵝ
< ⵞ
< ⵟ
< ⵠ
< ⵡ
< ⵢ
< ⵣ
< ⵤ
< ⵥ
< ⵯ
< ሀ
< ሁ
< ሂ
< ሃ
< ሄ
< ህ
< ሆ
< ሇ
< ለ
< ሉ
< ሊ
< ላ
< ሌ
< ል
< ሎ
< ሏ
< ⶀ
< ሐ
< ሑ
< ሒ
< ሓ
< ሔ
< ሕ
< ሖ
< ሗ
< መ
< ሙ
< ሚ
< ማ
< ሜ
< ም
< ሞ
< ሟ
< ᎀ
< ᎁ
< ᎂ
< ᎃ
< ⶁ
< ሠ
< ሡ
< ሢ
< ሣ
< ሤ
< ሥ
< ሦ
< ሧ
< ረ
< ሩ
< ሪ
< ራ
< ሬ
< ር
< ሮ
< ሯ
< ⶂ
< ሰ
< ሱ
< ሲ
< ሳ
< ሴ
< ስ
< ሶ
< ሷ
< ⶃ
< ꬁ
< ꬂ
< ꬃ
< ꬄ
< ꬅ
< ꬆ
< ሸ
< ሹ
< ሺ
< ሻ
< ሼ
< ሽ
< ሾ
< ሿ
< ⶄ
< ቀ
< ቁ
< ቂ
< ቃ
< ቄ
< ቅ
< ቆ
< ቇ
< ቈ
< ቊ
< ቋ
< ቌ
< ቍ
< ቐ
< ቑ
< ቒ
< ቓ
< ቔ
< ቕ
< ቖ
< ቘ
< ቚ
< ቛ
< ቜ
< ቝ
< በ
< ቡ
< ቢ
< ባ
< ቤ
< ብ
< ቦ
< ቧ
< ᎄ
< ᎅ
< ᎆ
< ᎇ
< ⶅ
< ቨ
< ቩ
< ቪ
< ቫ
< ቬ
< ቭ
< ቮ
< ቯ
< ተ
< ቱ
< ቲ
< ታ
< ቴ
< ት
< ቶ
< ቷ
< ⶆ
< ቸ
< ቹ
< ቺ
< ቻ
< ቼ
< ች
< ቾ
< ቿ
< ⶇ
< ኀ
< ኁ
< ኂ
< ኃ
< ኄ
< ኅ
< ኆ
< ኇ
< ኈ
< ኊ
< ኋ
< ኌ
< ኍ
< ነ
< ኑ
< ኒ
< ና
< ኔ
< ን
< ኖ
< ኗ
< ⶈ
< ኘ
< ኙ
< ኚ
< ኛ
< ኜ
< ኝ
< ኞ
< ኟ
< ⶉ
< አ
< ኡ
< ኢ
< ኣ
< ኤ
< እ
< ኦ
< ኧ
< ⶊ
< ከ
< ኩ
< ኪ
< ካ
< ኬ
< ክ
< ኮ
< ኯ
< ኰ
< ኲ
< ኳ
< ኴ
< ኵ
< ኸ
< ኹ
< ኺ
< ኻ
< ኼ
< ኽ
< ኾ
< ዀ
< ዂ
< ዃ
< ዄ
< ዅ
< ወ
< ዉ
< ዊ
< ዋ
< ዌ
< ው
< ዎ
< ዏ
< ዐ
< ዑ
< ዒ
< ዓ
< ዔ
< ዕ
< ዖ
< ዘ
< ዙ
< ዚ
< ዛ
< ዜ
< ዝ
< ዞ
< ዟ
< ⶋ
< ꬑ
< ꬒ
< ꬓ
< ꬔ
< ꬕ
< ꬖ
< ዠ
< ዡ
< ዢ
< ዣ
< ዤ
< ዥ
< ዦ
< ዧ
< የ
< ዩ
< ዪ
< ያ
< ዬ
< ይ
< ዮ
< ዯ
< ደ
< ዱ
< ዲ
< ዳ
< ዴ
< ድ
< ዶ
< ዷ
< ⶌ
< ꬉ
< ꬊ
< ꬋ
< ꬌ
< ꬍ
< ꬎ
< ዸ
< ዹ
< ዺ
< ዻ
< ዼ
< ዽ
< ዾ
< ዿ
< ⶍ
< ጀ
< ጁ
< ጂ
< ጃ
< ጄ
< ጅ
< ጆ
< ጇ
< ⶎ
< ገ
< ጉ
< ጊ
< ጋ
< ጌ
< ግ
< ጎ
< ጏ
< ጐ
< ጒ
< ጓ
< ጔ
< ጕ
< ጘ
< ጙ
< ጚ
< ጛ
< ጜ
< ጝ
< ጞ
< ጟ
< ⶓ
< ⶔ
< ⶕ
< ⶖ
< ጠ
< ጡ
< ጢ
< ጣ
< ጤ
< ጥ
< ጦ
< ጧ
< ⶏ
< ጨ
< ጩ
< ጪ
< ጫ
< ጬ
< ጭ
< ጮ
< ጯ
< ⶐ
< ꬠ
< ꬡ
< ꬢ
< ꬣ
< ꬤ
< ꬥ
< ꬦ
< ጰ
< ጱ
< ጲ
< ጳ
< ጴ
< ጵ
< ጶ
< ጷ
< ⶑ
< ጸ
< ጹ
< ጺ
< ጻ
< ጼ
< ጽ
< ጾ
< ጿ
< ꬨ
< ꬩ
< ꬪ
< ꬫ
< ꬬ
< ꬭ
< ꬮ
< ፀ
< ፁ
< ፂ
< ፃ
< ፄ
< ፅ
< ፆ
< ፇ
< ፈ
< ፉ
< ፊ
< ፋ
< ፌ
< ፍ
< ፎ
< ፏ
< ᎈ
< ᎉ
< ᎊ
< ᎋ
< ፐ
< ፑ
< ፒ
< ፓ
< ፔ
< ፕ
< ፖ
< ፗ
< ᎌ
< ᎍ
< ᎎ
< ᎏ
< ⶒ
< ፘ
< ፙ
< ፚ
< ⶠ
< ⶡ
< ⶢ
< ⶣ
< ⶤ
< ⶥ
< ⶦ
< ⶨ
< ⶩ
< ⶪ
< ⶫ
< ⶬ
< ⶭ
< ⶮ
< ⶰ
< ⶱ
< ⶲ
< ⶳ
< ⶴ
< ⶵ
< ⶶ
< ⶸ
< ⶹ
< ⶺ
< ⶻ
< ⶼ
< ⶽ
< ⶾ
< ⷀ
< ⷁ
< ⷂ
< ⷃ
< ⷄ
< ⷅ
< ⷆ
< ⷈ
< ⷉ
< ⷊ
< ⷋ
< ⷌ
< ⷍ
< ⷎ
< ⷐ
< ⷑ
< ⷒ
< ⷓ
< ⷔ
< ⷕ
< ⷖ
< ⷘ
< ⷙ
< ⷚ
< ⷛ
< ⷜ
< ⷝ
< ⷞ
< ॐ
< ॲ
< ऄ
< अ
< आ
< ॳ
< ॴ
< ॵ
< ॶ
< ॷ
< इ
< ई
< उ
< ऊ
< ऋ
< ॠ
< ऌ
< ॡ
< ऍ
< ऎ
< ए
< ऐ
< ऑ
< ऒ
< ओ
< औ
< क ; क़
< ख ; ख़
< ग ; ग़
< ॻ
< घ
< ङ
< च
< छ
< ज ; ज़
< ॹ
< ॼ
< झ
< ञ
< ट
< ठ
< ड ; ड़
< ॾ
< ढ ; ढ़
< ण
< त
< थ
< द
< ध
< न ; ऩ
< प
< फ ; फ़
< ब
< ॿ
< भ
< म
< य ; य़
< ॺ
< र ; ऱ
< ल
< ळ ; ऴ
< व
< श
< ष
< स
< ह
< ऽ
< ॽ
< ᳩ,ᳪ=ᳫ=ᳬ=ᳮ=ᳯ=ᳰ=ᳱ
< 1cf5
< 1cf6
< ꣲ,ꣳ=ꣴ=ꣵ=ꣶ=ꣷ
< ꣻ
< ा
< 093a
< ऻ
< ॏ
< 0956
< 0957
< ि
< ी
< 0941
< 0942
< 0943
< 0944
< 0962
< 0963
< 0945
< 0955
< 0946
< 0947
< ॎ
< 0948
< ॉ
< ॊ
< ो
< ौ
< 094d
< অ
< আ
< ই
< ঈ
< উ
< ঊ
< ঋ
< ৠ
< ঌ
< ৡ
< এ
< ঐ
< ও
< ঔ
< ক
< খ
< গ
< ঘ
< ঙ
< চ
< ছ
< জ
< ঝ
< ঞ
< ট
< ঠ
< ড ; ড়
< ঢ ; ঢ়
< ণ
< ত
< থ
< দ
< ধ
< ন
< প
< ফ
< ব
< ভ
< ম
< য ; য়
< র
< ৰ
< ল
< ৱ
< শ
< ষ
< স
< হ
< ঽ
< া
< ি
< ী
< 09c1
< 09c2
< 09c3
< 09c4
< 09e2
< 09e3
< ে
< ৈ
< ো
< ৌ
< 09cd
< ৗ
< ੴ
< ੳ
< ਉ
< ਊ
< ਓ
< ਅ
< ਆ
< ਐ
< ਔ
< ੲ
< ਇ
< ਈ
< ਏ
< ਸ ; ਸ਼
< ਹ
< 0a51
< ਕ
< ਖ ; ਖ਼
< ਗ ; ਗ਼
< ਘ
< ਙ
< ਚ
< ਛ
< ਜ ; ਜ਼
< ਝ
< ਞ
< ਟ
< ਠ
< ਡ
< ਢ
< ਣ
< ਤ
< ਥ
< ਦ
< ਧ
< ਨ
< ਪ
< ਫ ; ਫ਼
< ਬ
< ਭ
< ਮ
< ਯ
< 0a75
< ਰ
< ਲ ; ਲ਼
< ਵ
< ੜ
< ਾ
< ਿ
< ੀ
< 0a41
< 0a42
< 0a47
< 0a48
< 0a4b
< 0a4c
< 0a4d
< ૐ
< અ
< આ
< ઇ
< ઈ
< ઉ
< ઊ
< ઋ
< ૠ
< ઌ
< ૡ
< ઍ
< એ
< ઐ
< ઑ
< ઓ
< ઔ
< ક
< ખ
< ગ
< ઘ
< ઙ
< ચ
< છ
< જ
< ઝ
< ઞ
< ટ
< ઠ
< ડ
< ઢ
< ણ
< ત
< થ
< દ
< ધ
< ન
< પ
< ફ
< બ
< ભ
< મ
< ય
< ર
< લ
< વ
< શ
< ષ
< સ
< હ
< ળ
< ઽ
< ા
< િ
< ી
< 0ac1
< 0ac2
< 0ac3
< 0ac4
< 0ae2
< 0ae3
< 0ac5
< 0ac7
< 0ac8
< ૉ
< ો
< ૌ
< 0acd
< ଅ
< ଆ
< ଇ
< ଈ
< ଉ
< ଊ
< ଋ
< ୠ
< ଌ
< ୡ
< ଏ
< ଐ
< ଓ
< ଔ
< କ
< ଖ
< ଗ
< ଘ
< ଙ
< ଚ
< ଛ
< ଜ
< ଝ
< ଞ
< ଟ
< ଠ
< ଡ ; ଡ଼
< ଢ ; ଢ଼
< ଣ
< ତ
< ଥ
< ଦ
< ଧ
< ନ
< ପ
< ଫ
< ବ
< ଭ
< ମ
< ଯ
< ୟ
< ର
< ଲ
< ଳ
< ଵ
< ୱ
< ଶ
< ଷ
< ସ
< ହ
< ଽ
< ା
< 0b3f
< ୀ
< 0b41
< 0b42
< 0b43
< 0b44
< 0b62
< 0b63
< େ
< ୈ
< ୋ
< ୌ
< 0b4d
< 0b56
< ୗ
< ௐ
< அ
< ஆ
< இ
< ஈ
< உ
< ஊ
< எ
< ஏ
< ஐ
< ஒ
< ஓ
< ஔ
< ஃ
< க
< ங
< ச
< ஞ
< ட
< ண
< த
< ந
< ப
< ம
< ய
< ர
< ல
< வ
< ழ
< ள
< ற
< ன
< ஜ
< ஶ
< ஷ
< ஸ
< ஹ
< ா
< ி
< 0bc0
< ு
< ூ
< ெ
< ே
< ை
< ொ
< ோ
< ௌ
< 0bcd
< ௗ
< అ
< ఆ
< ఇ
< ఈ
< ఉ
< ఊ
< ఋ
< ౠ
< ఌ
< ౡ
< ఎ
< ఏ
< ఐ
< ఒ
< ఓ
< ఔ
< క
< ఖ
< గ
< ఘ
< ఙ
< చ
< ౘ
< ఛ
< జ
< ౙ
< ఝ
< ఞ
< ట
< ఠ
< డ
< ఢ
< ణ
< త
< థ
< ద
< ధ
< న
< ప
< ఫ
< బ
< భ
< మ
< య
< ర
< ఱ
< ల
< వ
< శ
< ష
< స
< హ
< ళ
< ఽ
< 0c3e
< 0c3f
< 0c40
< ు
< ూ
< ృ
< ౄ
< 0c62
< 0c63
< 0c46
< 0c47
< 0c48
< 0c4a
< 0c4b
< 0c4c
< 0c4d
< 0c55
< 0c56
< ಅ
< ಆ
< ಇ
< ಈ
< ಉ
< ಊ
< ಋ
< ೠ
< ಌ
< ೡ
< ಎ
< ಏ
< ಐ
< ಒ
< ಓ
< ಔ
< ಕ
< ಖ
< ಗ
< ಘ
< ಙ
< ಚ
< ಛ
< ಜ
< ಝ
< ಞ
< ಟ
< ಠ
< ಡ
< ಢ
< ಣ
< ತ
< ಥ
< ದ
< ಧ
< ನ
< ಪ
< ಫ
< ಬ
< ಭ
< ಮ
< ಯ
< ರ
< ಱ
< ಲ
< ವ
< ಶ
< ಷ
< ಸ
< ಹ
< ಳ
< ೞ
< ಽ
< ೱ
< ೲ
< ಾ
< 0cbf
< ೀ
< ು
< ೂ
< ೃ
< ೄ
< 0ce2
< 0ce3
< 0cc6
< ೇ
< ೈ
< ೊ
< ೋ
< 0ccc
< 0ccd
< ೕ
< ೖ
< അ
< ആ
< ഇ
< ഈ
< ഉ
< ഊ
< ഋ
< ൠ
< ഌ
< ൡ
< എ
< ഏ
< ഐ
< ഒ
< ഓ
< ഔ
< ക
< ഖ
< ഗ
< ഘ
< ങ
< ച
< ഛ
< ജ
< ഝ
< ഞ
< ട
< ഠ
< ഡ
< ഢ
< ണ
< ത
< ഥ
< ദ
< ധ
< ന
< ഩ
< പ
< ഫ
< ബ
< ഭ
< മ
< യ
< ര
< ല
< വ
< ശ
< ഷ
< സ
< ഹ
< ള
< ഴ
< റ
< ഺ
< ഽ
< ാ
< ി
< ീ
< 0d41
< 0d42
< 0d43
< 0d44
< 0d62
< 0d63
< െ
< േ
< ൈ
< ൊ
< ോ
< ൌ
< ൗ
< 0d4d
< අ
< ආ
< ඇ
< ඈ
< ඉ
< ඊ
< උ
< ඌ
< ඍ
< ඎ
< ඏ
< ඐ
< එ
< ඒ
< ඓ
< ඔ
< ඕ
< ඖ
< ක
< ඛ
< ග
< ඝ
< ඞ
< ඟ
< ච
< ඡ
< ජ
< ඣ
< ඤ
< ඥ
< ඦ
< ට
< ඨ
< ඩ
< ඪ
< ණ
< ඬ
< ත
< ථ
< ද
< ධ
< න
< ඳ
< ප
< ඵ
< බ
< භ
< ම
< ඹ
< ය
< ර
< ල
< ව
< ශ
< ෂ
< ස
< හ
< ළ
< ෆ
< ා
< ැ
< ෑ
< 0dd2
< 0dd3
< 0dd4
< 0dd6
< ෘ
< ෲ
< ෟ
< ෳ
< ෙ
< ේ
< ෛ
< ො
< ෝ
< ෞ
< 0dca
< aaf2
< ꯀ
< ꯁ
< ꯂ
< ꯃ
< ꯄ
< ꯅ
< ꯆ
< ꯇ
< ꯈ
< ꯉ
< ꯊ
< ꯋ
< ꯌ
< ꯍ
< ꯎ
< ꯏ
< ꯐ
< ꯑ
< ꯒ
< ꯓ
< ꯔ
< ꯕ
< ꯖ
< ꯗ
< ꯘ
< ꯙ
< ꯚ
< aae0
< aae1
< aae2
< aae3
< aae4
< aae5
< aae6
< aae7
< aae8
< aae9
< aaea
< ꯣ
< ꯤ
< abe5
< ꯦ
< ꯧ
< abe8
< ꯩ
< ꯪ
< aaeb
< aaec
< aaed
< aaee
< aaef
< aaf5
< ꯛ
< ꯜ
< ꯝ
< ꯞ
< ꯟ
< ꯠ
< ꯡ
< ꯢ
< abed
< aaf6
< ꠀ
< ꠁ
< a802
< ꠃ
< ꠄ
< ꠅ
< a806
< ꠇ
< ꠈ
< ꠉ
< ꠊ
< ꠌ
< ꠍ
< ꠎ
< ꠏ
< ꠐ
< ꠑ
< ꠒ
< ꠓ
< ꠔ
< ꠕ
< ꠖ
< ꠗ
< ꠘ
< ꠙ
< ꠚ
< ꠛ
< ꠜ
< ꠝ
< ꠞ
< ꠟ
< ꠠ
< ꠡ
< ꠢ
< ꠣ
< ꠤ
< a825
< a826
< ꠧ
< ꢂ
< ꢃ
< ꢄ
< ꢅ
< ꢆ
< ꢇ
< ꢈ
< ꢉ
< ꢊ
< ꢋ
< ꢌ
< ꢍ
< ꢎ
< ꢏ
< ꢐ
< ꢑ
< ꢒ
< ꢓ
< ꢔ
< ꢕ
< ꢖ
< ꢗ
< ꢘ
< ꢙ
< ꢚ
< ꢛ
< ꢜ
< ꢝ
< ꢞ
< ꢟ
< ꢠ
< ꢡ
< ꢢ
< ꢣ
< ꢤ
< ꢥ
< ꢦ
< ꢧ
< ꢨ
< ꢩ
< ꢪ
< ꢫ
< ꢬ
< ꢭ
< ꢮ
< ꢯ
< ꢰ
< ꢱ
< ꢲ
< ꢳ
< ꢴ
< ꢵ
< ꢶ
< ꢷ
< ꢸ
< ꢹ
< ꢺ
< ꢻ
< ꢼ
< ꢽ
< ꢾ
< ꢿ
< ꣀ
< ꣁ
< ꣂ
< ꣃ
< a8c4
< ᮃ,1bba
< ᮄ
< ᮅ
< ᮆ
< ᮇ
< ᮈ
< ᮉ
< ᮊ,1bbe
< ᮮ
< ᮋ
< ᮌ
< ᮍ
< ᮎ
< ᮏ
< ᮐ
< ᮑ
< ᮒ
< ᮓ
< ᮔ
< ᮕ
< ᮖ
< ᮗ
< ᮘ
< 1bbd
< ᮙ,1bbf
< 1bac
< ᮚ
< ᮡ
< ᮛ
< 1ba2
< 1bbb
< ᮜ
< 1ba3
< 1bbc
< ᮝ
< 1bad
< ᮞ
< ᮟ
< ᮯ
< ᮠ
< 1ba4
< 1ba5
< ᮦ
< ᮧ
< 1ba8
< 1ba9
< ᮪
< 1bab
< ก
< ข
< ฃ
< ค
< ฅ
< ฆ
< ง
< จ
< ฉ
< ช
< ซ
< ฌ
< ญ
< ฎ
< ฏ
< ฐ
< ฑ
< ฒ
< ณ
< ด
< ต
< ถ
< ท
< ธ
< น
< บ
< ป
< ผ
< ฝ
< พ
< ฟ
< ภ
< ม
< ย
< ร
< ฤ
< ล
< ฦ
< ว
< ศ
< ษ
< ส
< ห
< ฬ
< อ
< ฮ
< ฯ
< ะ
< 0e31
< า
< ำ
< 0e34
< 0e35
< 0e36
< 0e37
< 0e38
< 0e39
< 0e3a
< เ
< แ
< โ
< ใ
< ไ
< ๅ
< 0ede
< ກ
< ຂ
< ຄ
< ງ
< ຈ
< ສ
< ຊ
< 0edf
< ຍ
< ດ
< ຕ
< ຖ
< ທ
< ນ
< ບ
< ປ
< ຜ
< ຝ
< ພ
< ຟ
< ມ
< ຢ
< ຣ
< ລ
< ວ
< ຫ
< ອ
< ຮ
< ຯ
< ະ
< 0eb1
< າ
< ຳ
< 0eb4
< 0eb5
< 0eb6
< 0eb7
< 0eb8
< 0eb9
< 0ebb
< 0ebc
< ຽ
< ເ
< ແ
< ໂ
< ໃ
< ໄ
< ꪀ
< ꪁ
< ꪂ
< ꪃ
< ꪄ
< ꪅ
< ꪆ
< ꪇ
< ꪈ
< ꪉ
< ꪊ
< ꪋ
< ꪌ
< ꪍ
< ꪎ
< ꪏ
< ꪐ
< ꪑ
< ꪒ
< ꪓ
< ꪔ
< ꪕ
< ꪖ
< ꪗ
< ꪘ
< ꪙ
< ꪚ
< ꪛ
< ꪜ
< ꪝ
< ꪞ
< ꪟ
< ꪠ
< ꪡ
< ꪢ
< ꪣ
< ꪤ
< ꪥ
< ꪦ
< ꪧ
< ꪨ
< ꪩ
< ꪪ
< ꪫ
< ꪬ
< ꪭ
< ꪮ
< ꪯ
< aab0
< ꪱ
< aab2
< aab3
< aab4
< ꪵ
< ꪶ
< aab7
< aab8
< ꪹ
< ꪺ
< ꪻ
< ꪼ
< ꪽ
< aabe
< ꫀ
< ꫂ
< ꫛ
< ꫜ
< ཀ
< 0f90
< ཫ
< ཁ
< 0f91
< ག
< 0f92
< ང
< 0f94
< ཅ
< 0f95
< ཆ
< 0f96
< ཇ
< 0f97
< ཉ
< 0f99
< ཊ
< 0f9a
< ཋ
< 0f9b
< ཌ
< 0f9c
< ཎ
< 0f9e
< ཏ
< 0f9f
< ཐ
< 0fa0
< ད
< 0fa1
< ན
< 0fa3
< པ
< 0fa4
< ཕ
< 0fa5
< བ
< 0fa6
< མ
< 0fa8
< ཙ
< 0fa9
< ཚ
< 0faa
< ཛ
< 0fab
< ཝ
< 0fad ; 0fba
< ཞ
< 0fae
< ཟ
< 0faf
< འ
< 0fb0
< ཡ
< 0fb1 ; 0fbb
< ར ; ཪ
< 0fb2 ; 0fbc
< ཬ
< ལ
< 0fb3
< ཤ
< 0fb4
< ཥ
< 0fb5
< ས
< 0fb6
< ཧ
< 0fb7
< ཨ
< 0fb8
< ྈ
< 0f8d
< ྉ
< 0f8e
< ྌ
< 0f8f
< ྊ
< ྋ
< 0f71
< 0f72
< 0f73
< 0f80
< 0f81
< 0f74
< 0f75
< 0f76
< 0f77
< 0f78
< 0f79
< 0f7a
< 0f7b
< 0f7c
< 0f7d
< 0f84
< ᰀ
< ᰁ
< ᰂ
< ᰃ
< ᰄ
< ᰅ
< ᰆ
< ᰇ
< ᰈ
< ᰉ
< ᱍ
< ᱎ
< ᱏ
< ᰊ
< ᰋ
< ᰌ
< ᰍ
< ᰎ
< ᰏ
< ᰐ
< ᰑ
< ᰒ
< ᰓ
< ᰔ
< ᰕ
< ᰖ
< ᰗ
< ᰘ
< ᰙ
< ᰚ
< ᰤ
< ᰛ
< ᰥ
< ᰜ
< ᰝ
< ᰞ
< ᰟ
< ᰠ
< ᰡ
< ᰢ
< ᰣ
< 1c36
< ᰦ
< ᰧ
< ᰨ
< ᰩ
< ᰪ
< ᰫ
< 1c2c
< 1c2d
< 1c2e
< 1c2f
< 1c30
< 1c31
< 1c32
< 1c33
< ᰴ
< ᰵ
< ꡀ
< ꡁ
< ꡂ
< ꡃ
< ꡄ
< ꡅ
< ꡆ
< ꡇ
< ꡩ
< ꡪ
< ꡫ
< ꡬ
< ꡈ
< ꡉ
< ꡊ
< ꡋ
< ꡌ
< ꡍ
< ꡎ
< ꡏ
< ꡐ
< ꡑ
< ꡒ
< ꡓ
< ꡧ
< ꡔ
< ꡕ
< ꡖ
< ꡗ
< ꡨ
< ꡭ
< ꡘ
< ꡱ
< ꡲ
< ꡙ
< ꡚ
< ꡮ
< ꡛ
< ꡜ
< ꡯ
< ꡰ
< ꡝ
< ꡢ
< ꡣ
< ꡤ
< ꡥ
< ꡞ
< ꡟ
< ꡠ
< ꡡ
< ꡦ
< ꡳ
< ᤀ
< ᤁ
< ᤂ
< ᤃ
< ᤄ
< ᤅ
< ᤆ
< ᤇ
< ᤈ
< ᤉ
< ᤊ
< ᤋ
< ᤌ
< ᤍ
< ᤎ
< ᤏ
< ᤐ
< ᤑ
< ᤒ
< ᤓ
< ᤔ
< ᤕ
< ᤖ
< ᤗ
< ᤘ
< ᤙ
< ᤚ
< ᤛ
< ᤜ
< 1920
< 1921
< 1922
< ᤣ
< ᤤ
< ᤥ
< ᤦ
< 1927
< 1928
< ᤩ
< ᤪ
< ᤫ
< ᤰ
< ᤱ
< 1932
< ᤳ
< ᤴ
< ᤵ
< ᤶ
< ᤷ
< ᤸ
< ᜀ
< ᜁ
< ᜂ
< ᜃ
< ᜄ
< ᜅ
< ᜆ
< ᜇ
< ᜈ
< ᜉ
< ᜊ
< ᜋ
< ᜌ
< ᜎ
< ᜏ
< ᜐ
< ᜑ
< 1712
< 1713
< 1714
< ᜠ
< ᜡ
< ᜢ
< ᜣ
< ᜤ
< ᜥ
< ᜦ
< ᜧ
< ᜨ
< ᜩ
< ᜪ
< ᜫ
< ᜬ
< ᜭ
< ᜮ
< ᜯ
< ᜰ
< ᜱ
< 1732
< 1733
< 1734
< ᝀ
< ᝁ
< ᝂ
< ᝃ
< ᝄ
< ᝅ
< ᝆ
< ᝇ
< ᝈ
< ᝉ
< ᝊ
< ᝋ
< ᝌ
< ᝍ
< ᝎ
< ᝏ
< ᝐ
< ᝑ
< 1752
< 1753
< ᝠ
< ᝡ
< ᝢ
< ᝣ
< ᝤ
< ᝥ
< ᝦ
< ᝧ
< ᝨ
< ᝩ
< ᝪ
< ᝫ
< ᝬ
< ᝮ
< ᝯ
< ᝰ
< 1772
< 1773
< ᨀ
< ᨁ
< ᨂ
< ᨃ
< ᨄ
< ᨅ
< ᨆ
< ᨇ
< ᨈ
< ᨉ
< ᨊ
< ᨋ
< ᨌ
< ᨍ
< ᨎ
< ᨏ
< ᨐ
< ᨑ
< ᨒ
< ᨓ
< ᨔ
< ᨕ
< ᨖ
< 1a17
< 1a18
< ᨙ
< ᨚ
< ᨛ
< ᯀ,ᯁ
< ᯂ,ᯃ=ᯄ
< ᯅ,ᯆ
< ᯇ,ᯈ
< ᯉ,ᯊ
< ᯋ,ᯌ=ᯍ
< ᯎ,ᯏ
< ᯐ
< ᯑ
< ᯒ,ᯓ
< ᯔ,ᯕ
< ᯖ,ᯗ
< ᯘ,ᯙ=ᯚ
< ᯛ,ᯜ
< ᯝ
< ᯞ,ᯟ
< ᯠ
< ᯡ
< ᯢ
< ᯣ
< ᯤ
< ᯥ
< ᯧ,1be8
< 1be9
< ᯪ,ᯫ
< ᯬ,1bed
< ᯮ,1bef
< 1bf0
< 1bf1
< ᯲
< ᯳
< ꤰ
< ꤱ
< ꤲ
< ꤳ
< ꤴ
< ꤵ
< ꤶ
< ꤷ
< ꤸ
< ꤹ
< ꤺ
< ꤻ
< ꤼ
< ꤽ
< ꤾ
< ꤿ
< ꥀ
< ꥁ
< ꥂ
< ꥃ
< ꥄ
< ꥅ
< ꥆ
< a947
< a948
< a949
< a94a
< a94b
< a94c
< a94d
< a94e
< a94f
< a950
< a951
< ꥒ
< ꥓
< ꤊ
< ꤋ
< ꤌ
< ꤍ
< ꤎ
< ꤏ
< ꤐ
< ꤑ
< ꤒ
< ꤓ
< ꤔ
< ꤕ
< ꤖ
< ꤗ
< ꤘ
< ꤙ
< ꤚ
< ꤛ
< ꤜ
< ꤝ
< ꤞ
< ꤟ
< ꤠ
< ꤡ
< ꤢ
< ꤣ
< ꤤ
< ꤥ
< a926
< a927
< a928
< a929
< a92a
< က
< ၵ
< ခ
< ၶ
< ဂ
< ၷ
< ꩠ
< ဃ
< င
< ၚ
< စ
< ၸ
< ꩡ
< ဆ
< ꩢ
< ဇ
< ꩣ
< ၹ
< ꩲ
< ဈ
< ၛ
< ꩤ
< ၡ
< ဉ
< ၺ
< ꩥ
< ည
< ဋ
< ꩦ
< ဌ
< ꩧ
< ဍ
< ꩨ
< ဎ
< ꩩ
< ဏ
< ၮ
< တ
< ထ
< ဒ
< ၻ
< ဓ
< ꩪ
< န
< ၼ
< ꩫ
< 105e
< ပ
< ဖ
< ၽ
< ၾ
< ꩯ
< ႎ
< ဗ
< ၿ
< ဘ
< မ
< 105f
< ယ
< ျ
< ရ
< ꩳ
< ꩺ
< ြ
< လ
< 1060
< ဝ
< 103d
< 1082
< ႀ
< ၐ
< ၑ
< ၥ
< သ
< ꩬ
< ဟ
< ႁ
< ꩭ
< 103e
< ꩮ
< ꩱ
< ဠ
< ၜ
< ၝ
< ၯ
< ၰ
< ၦ
< အ
< ဢ
< ဣ
< ဤ
< ဥ
< ဦ
< ၒ
< ၓ
< ၔ
< ၕ
< ဧ
< ဨ
< ဩ
< ဪ
< ာ,ါ
< ႃ
< 1072
< ႜ
< 102d
< 1071
< 102e
< 1033
< 102f
< 1073
< 1074
< 1030
< ၖ
< ၗ
< 1058
< 1059
< ေ
< ႄ
< 1035
< 1085
< 1032
< 109d
< 1034
< ၢ
< ၧ
< ၨ
< 1086
< 1039
< 103a
< ၣ
< ၤ
< ၩ
< ၪ
< ၫ
< ၬ
< ၭ
< ႇ
< ႋ
< ႈ
< ႌ
< ႉ
< ႊ
< ႏ
< ႚ
< ႛ
< ꩻ
< ꩴ
< ꩵ
< ꩶ
< ក
< ខ
< គ
< ឃ
< ង
< ច
< ឆ
< ជ
< ឈ
< ញ
< ដ
< ឋ
< ឌ
< ឍ
< ណ
< ត
< ថ
< ទ
< ធ
< ន
< ប
< ផ
< ព
< ភ
< ម
< យ
< រ
< ល
< វ
< ឝ
< ឞ
< ស
< ហ
< ឡ
< អ
< ៜ
< ឣ
< ឤ
< ឥ
< ឦ
< ឧ
< ឨ
< ឩ
< ឪ
< ឫ
< ឬ
< ឭ
< ឮ
< ឯ
< ឰ
< ឱ
< ឲ
< ឳ
< ា
< 17b7
< 17b8
< 17b9
< 17ba
< 17bb
< 17bc
< 17bd
< ើ
< ឿ
< ៀ
< េ
< ែ
< ៃ
< ោ
< ៅ
< 17d2
< ᥐ
< ᥑ
< ᥒ
< ᥓ
< ᥔ
< ᥕ
< ᥖ
< ᥗ
< ᥘ
< ᥙ
< ᥚ
< ᥛ
< ᥜ
< ᥝ
< ᥞ
< ᥟ
< ᥠ
< ᥡ
< ᥢ
< ᥣ
< ᥤ
< ᥥ
< ᥦ
< ᥧ
< ᥨ
< ᥩ
< ᥪ
< ᥫ
< ᥬ
< ᥭ
< ᥰ
< ᥱ
< ᥲ
< ᥳ
< ᥴ
< ᦀ
< ᦁ
< ᦂ
< ᦃ
< ᦄ
< ᦅ
< ᦆ
< ᦇ
< ᦈ
< ᦉ
< ᦊ
< ᦋ
< ᦌ
< ᦍ
< ᦎ
< ᦏ
< ᦐ
< ᦑ
< ᦒ
< ᦓ
< ᦔ
< ᦕ
< ᦖ
< ᦗ
< ᦘ
< ᦙ
< ᦚ
< ᦛ
< ᦜ
< ᦝ
< ᦞ
< ᦟ
< ᦠ
< ᦡ
< ᦢ
< ᦣ
< ᦤ
< ᦥ
< ᦦ
< ᦧ
< ᦨ
< ᦩ
< ᦪ
< ᦫ
< ᦰ
< ᦱ
< ᦲ
< ᦳ
< ᦴ
< ᦵ
< ᦶ
< ᦷ
< ᦸ
< ᦹ
< ᦺ
< ᦻ
< ᦼ
< ᦽ
< ᦾ
< ᦿ
< ᧀ
< ᧁ
< ᧂ
< ᧃ
< ᧄ
< ᧅ
< ᧆ
< ᧇ
< ᧈ
< ᧉ
< ᨠ
< ᨡ
< ᨢ
< ᨣ
< ᨤ
< ᨥ
< ᨦ,1a58=1a59
< ᨧ
< ᨨ
< ᨩ
< ᨪ
< ᨫ
< ᨬ
< ᨭ
< ᨮ
< ᨯ
< ᨰ
< ᨱ
< ᨲ
< ᨳ
< ᨴ
< ᨵ
< ᨶ
< ᨷ
< ᨸ
< ᨹ
< ᨺ
< ᨻ,1a5a=1a5b
< ᨼ
< ᨽ
< ᨾ
< ᨿ
< ᩀ
< ᩁ
< ᩂ
< ᩃ
< ᩄ
< ᩅ
< ᩆ
< ᩇ
< ᩈ
< ᩉ
< ᩊ
< ᩋ
< ᩌ
< ᩓ
< 1a6b
< ᩕ
< 1a56
< ᩗ
< 1a5c
< 1a5d
< 1a5e
< ᩍ
< ᩎ
< ᩏ
< ᩐ
< ᩑ
< ᩒ
< ᩡ
< 1a6c
< 1a62
< ᩣ,ᩤ
< 1a65
< 1a66
< 1a67
< 1a68
< 1a69
< 1a6a
< ᩮ
< ᩯ
< 1a73
< ᩰ
< ᩱ
< ᩲ
< ᩭ
< 1a60
< ꨀ
< ꨁ
< ꨂ
< ꨃ
< ꨄ
< ꨅ
< ꨆ
< ꨇ
< ꨈ
< ꨉ
< ꨊ
< ꨋ
< ꨌ
< ꨍ
< ꨎ
< ꨏ
< ꨐ
< ꨑ
< ꨒ
< ꨓ
< ꨔ
< ꨕ
< ꨖ
< ꨗ
< ꨘ
< ꨙ
< ꨚ
< ꨛ
< ꨜ
< ꨝ
< ꨞ
< ꨟ
< ꨠ
< ꨡ
< ꨢ
< ꨣ
< ꨤ
< ꨥ
< ꨦ
< ꨧ
< ꨨ
< ꨳ
< ꨴ
< aa35
< aa36
< aa29
< aa2a
< aa2b
< aa2c
< aa2d
< aa2e
< ꨯ
< ꨰ
< aa31
< aa32
< ꩀ
< ꩁ
< ꩂ
< aa43
< ꩄ
< ꩅ
< ꩆ
< ꩇ
< ꩈ
< ꩉ
< ꩊ
< ꩋ
< aa4c
< ꩍ
< ᬅ
< ᬆ
< ᬇ
< ᬈ
< ᬉ
< ᬊ
< ᬋ
< ᬌ
< ᬍ
< ᬎ
< ᬏ
< ᬐ
< ᬑ
< ᬒ
< ᬓ
< ᭅ
< ᭆ
< ᬔ
< ᬕ
< ᬖ
< ᬗ
< ᬘ
< ᬙ
< ᬚ
< ᬛ
< ᬜ
< ᬝ
< ᬞ
< ᬟ
< ᬠ
< ᬡ
< ᬢ
< ᭇ
< ᬣ
< ᬤ
< ᬥ
< ᬦ
< ᬧ
< ᭈ
< ᬨ
< ᬩ
< ᬪ
< ᬫ
< ᬬ
< ᬭ
< ᬮ
< ᬯ
< ᭉ
< ᬰ
< ᬱ
< ᬲ
< ᭊ
< ᭋ
< ᬳ
< ᬵ
< 1b36
< 1b37
< 1b38
< 1b39
< 1b3a
< ᬻ
< 1b3c
< ᬽ
< ᬾ
< ᬿ
< ᭀ
< ᭁ
< 1b42
< ᭃ
< ᭄
< ꦄ
< ꦅ
< ꦆ
< ꦇ
< ꦈ
< ꦉ
< ꦊ
< ꦋ
< ꦌ
< ꦍ
< ꦎ
< ꦏ
< ꦐ
< ꦑ
< ꦒ
< ꦓ
< ꦔ
< ꦕ
< ꦖ
< ꦗ
< ꦘ
< ꦙ
< ꦚ
< ꦛ
< ꦜ
< ꦝ
< ꦞ
< ꦟ
< ꦠ
< ꦡ
< ꦢ
< ꦣ
< ꦤ
< ꦥ
< ꦦ
< ꦧ
< ꦨ
< ꦩ
< ꦪ
< ꦾ
< ꦫ,ꦬ
< ꦿ
< ꦭ
< ꦮ
< ꦯ
< ꦰ
< ꦱ
< ꦲ
< ꦴ
< a9bc
< a9b6
< a9b7
< a9b8
< a9b9
< ꦽ
< ꦺ
< ꦻ
< ꦵ
< ꧀
< ᢀ
< ᢁ
< ᢂ
< ᢃ
< ᢄ
< ᢅ
< ᢆ
< ᡃ
< ᠠ
< ᢇ
< ᠡ
< ᡄ
< ᡝ
< ᠢ
< ᡅ
< ᡞ
< ᡳ
< ᢈ
< ᡟ
< ᠣ
< ᡆ
< ᠤ
< ᡇ
< ᡡ
< ᠥ
< ᡈ
< ᠦ
< ᡉ
< ᡠ
< ᠧ
< ᠨ
< ᠩ
< ᡊ
< ᡢ
< ᢊ
< ᢛ
< ᠪ
< ᡋ
< ᠫ
< ᡌ
< ᡦ
< ᠬ
< ᡍ
< ᠭ
< ᡎ
< ᡤ
< ᢚ
< ᡥ
< ᠮ
< ᡏ
< ᠯ
< ᠰ
< ᠱ
< ᡧ
< ᢜ
< ᢝ
< ᢢ
< ᢤ
< ᢥ
< ᠲ
< ᡐ
< ᡨ
< ᠳ
< ᡑ
< ᡩ
< ᠴ
< ᡒ
< ᡱ
< ᡜ
< ᢋ
< ᠵ
< ᡓ
< ᡪ
< ᡷ
< ᠶ
< ᡕ
< ᡲ
< ᠷ
< ᡵ
< ᠸ
< ᡖ
< ᠹ
< ᡫ
< ᡶ
< ᠺ
< ᡗ
< ᡣ
< ᡴ
< ᢉ
< ᠻ
< ᠼ
< ᡔ
< ᡮ
< ᠽ
< ᡯ
< ᡘ
< ᡬ
< ᠾ
< ᡙ
< ᡭ
< ᠿ
< ᡀ
< ᡁ
< ᡂ
< ᡚ
< ᡛ
< ᡰ
< ᢌ
< ᢞ
< ᢍ
< ᢎ
< ᢟ
< ᢏ
< ᢐ
< ᢘ
< ᢠ
< ᢑ
< ᢡ
< ᢒ
< ᢓ
< ᢨ
< ᢔ
< ᢣ
< ᢕ
< ᢙ
< ᢖ
< ᢗ
< ᢦ
< ᢧ
< ᢪ
< 18a9
< ᱚ
< ᱛ
< ᱜ
< ᱝ
< ᱞ
< ᱟ
< ᱠ
< ᱡ
< ᱢ
< ᱣ
< ᱤ
< ᱥ
< ᱦ
< ᱧ
< ᱨ
< ᱩ
< ᱪ
< ᱫ
< ᱬ
< ᱭ
< ᱮ
< ᱯ
< ᱰ
< ᱱ
< ᱲ
< ᱳ
< ᱴ
< ᱵ
< ᱶ
< ᱷ
< ᱸ
< ᱹ
< ᱺ
< ᱻ
< ᱼ
< ᱽ
< Ꭰ
< Ꭱ
< Ꭲ
< Ꭳ
< Ꭴ
< Ꭵ
< Ꭶ
< Ꭷ
< Ꭸ
< Ꭹ
< Ꭺ
< Ꭻ
< Ꭼ
< Ꭽ
< Ꭾ
< Ꭿ
< Ꮀ
< Ꮁ
< Ꮂ
< Ꮃ
< Ꮄ
< Ꮅ
< Ꮆ
< Ꮇ
< Ꮈ
< Ꮉ
< Ꮊ
< Ꮋ
< Ꮌ
< Ꮍ
< Ꮎ
< Ꮏ
< Ꮐ
< Ꮑ
< Ꮒ
< Ꮓ
< Ꮔ
< Ꮕ
< Ꮖ
< Ꮗ
< Ꮘ
< Ꮙ
< Ꮚ
< Ꮛ
< Ꮜ
< Ꮝ
< Ꮞ
< Ꮟ
< Ꮠ
< Ꮡ
< Ꮢ
< Ꮣ
< Ꮤ
< Ꮥ
< Ꮦ
< Ꮧ
< Ꮨ
< Ꮩ
< Ꮪ
< Ꮫ
< Ꮬ
< Ꮭ
< Ꮮ
< Ꮯ
< Ꮰ
< Ꮱ
< Ꮲ
< Ꮳ
< Ꮴ
< Ꮵ
< Ꮶ
< Ꮷ
< Ꮸ
< Ꮹ
< Ꮺ
< Ꮻ
< Ꮼ
< Ꮽ
< Ꮾ
< Ꮿ
< Ᏸ
< Ᏹ
< Ᏺ
< Ᏻ
< Ᏼ
< ᐁ
< ᐂ
< ᐃ
< ᐄ
< ᐅ
< ᐆ
< ᐇ
< ᐈ
< ᐉ
< ᐊ
< ᐋ
< ᐌ
< ᐍ
< ᐎ
< ᐏ
< ᐐ
< ᐑ
< ᐒ
< ᐓ
< ᐔ
< ᐕ
< ᐖ
< ᐗ
< ᐘ
< ᐙ
< ᐚ
< ᐛ
< ᐜ
< ᐝ
< ᐞ
< ᐟ
< ᐠ
< ᐡ
< ᐢ
< ᐣ
< ᐤ
< ᐥ
< ᐦ
< ᐧ
< ᐨ
< ᐩ
< ᐪ
< ᐫ
< ᐬ
< ᐭ
< ᐮ
< ᐯ
< ᐰ
< ᐱ
< ᐲ
< ᐳ
< ᐴ
< ᐵ
< ᐶ
< ᐷ
< ᐸ
< ᐹ
< ᐺ
< ᐻ
< ᐼ
< ᐽ
< ᐾ
< ᐿ
< ᑀ
< ᑁ
< ᑂ
< ᑃ
< ᑄ
< ᑅ
< ᑆ
< ᑇ
< ᑈ
< ᑉ
< ᑊ
< ᑋ
< ᑌ
< ᑍ
< ᑎ
< ᑏ
< ᑐ
< ᑑ
< ᑒ
< ᑓ
< ᑔ
< ᑕ
< ᑖ
< ᑗ
< ᑘ
< ᑙ
< ᑚ
< ᑛ
< ᑜ
< ᑝ
< ᑞ
< ᑟ
< ᑠ
< ᑡ
< ᑢ
< ᑣ
< ᑤ
< ᑥ
< ᑦ
< ᑧ
< ᑨ
< ᑩ
< ᑪ
< ᑫ
< ᑬ
< ᑭ
< ᑮ
< ᑯ
< ᑰ
< ᑱ
< ᑲ
< ᑳ
< ᑴ
< ᑵ
< ᑶ
< ᑷ
< ᑸ
< ᑹ
< ᑺ
< ᑻ
< ᑼ
< ᑽ
< ᑾ
< ᑿ
< ᒀ
< ᒁ
< ᒂ
< ᒃ
< ᒄ
< ᒅ
< ᒆ
< ᒇ
< ᒈ
< ᒉ
< ᒊ
< ᒋ
< ᒌ
< ᒍ
< ᒎ
< ᒏ
< ᒐ
< ᒑ
< ᒒ
< ᒓ
< ᒔ
< ᒕ
< ᒖ
< ᒗ
< ᒘ
< ᒙ
< ᒚ
< ᒛ
< ᒜ
< ᒝ
< ᒞ
< ᒟ
< ᒠ
< ᒡ
< ᒢ
< ᒣ
< ᒤ
< ᒥ
< ᒦ
< ᒧ
< ᒨ
< ᒩ
< ᒪ
< ᒫ
< ᒬ
< ᒭ
< ᒮ
< ᒯ
< ᒰ
< ᒱ
< ᒲ
< ᒳ
< ᒴ
< ᒵ
< ᒶ
< ᒷ
< ᒸ
< ᒹ
< ᒺ
< ᒻ
< ᒼ
< ᒽ
< ᒾ
< ᒿ
< ᓀ
< ᓁ
< ᓂ
< ᓃ
< ᓄ
< ᓅ
< ᓆ
< ᓇ
< ᓈ
< ᓉ
< ᓊ
< ᓋ
< ᓌ
< ᓍ
< ᓎ
< ᓏ
< ᓐ
< ᓑ
< ᓒ
< ᓓ
< ᓔ
< ᓕ
< ᓖ
< ᓗ
< ᓘ
< ᓙ
< ᓚ
< ᓛ
< ᓜ
< ᓝ
< ᓞ
< ᓟ
< ᓠ
< ᓡ
< ᓢ
< ᓣ
< ᓤ
< ᓥ
< ᓦ
< ᓧ
< ᓨ
< ᓩ
< ᓪ
< ᓫ
< ᓬ
< ᓭ
< ᓮ
< ᓯ
< ᓰ
< ᓱ
< ᓲ
< ᓳ
< ᓴ
< ᓵ
< ᓶ
< ᓷ
< ᓸ
< ᓹ
< ᓺ
< ᓻ
< ᓼ
< ᓽ
< ᓾ
< ᓿ
< ᔀ
< ᔁ
< ᔂ
< ᔃ
< ᔄ
< ᔅ
< ᔆ
< ᔇ
< ᔈ
< ᔉ
< ᔊ
< ᔋ
< ᔌ
< ᔍ
< ᔎ
< ᔏ
< ᔐ
< ᔑ
< ᔒ
< ᔓ
< ᔔ
< ᔕ
< ᔖ
< ᔗ
< ᔘ
< ᔙ
< ᔚ
< ᔛ
< ᔜ
< ᔝ
< ᔞ
< ᔟ
< ᔠ
< ᔡ
< ᔢ
< ᔣ
< ᔤ
< ᔥ
< ᔦ
< ᔧ
< ᔨ
< ᔩ
< ᔪ
< ᔫ
< ᔬ
< ᔭ
< ᔮ
< ᔯ
< ᔰ
< ᔱ
< ᔲ
< ᔳ
< ᔴ
< ᔵ
< ᔶ
< ᔷ
< ᔸ
< ᔹ
< ᔺ
< ᔻ
< ᔼ
< ᔽ
< ᔾ
< ᔿ
< ᕀ
< ᕁ
< ᕂ
< ᕃ
< ᕄ
< ᕅ
< ᕆ
< ᕇ
< ᕈ
< ᕉ
< ᕊ
< ᕋ
< ᕌ
< ᕍ
< ᕎ
< ᕏ
< ᕐ
< ᕑ
< ᕒ
< ᕓ
< ᕔ
< ᕕ
< ᕖ
< ᕗ
< ᕘ
< ᕙ
< ᕚ
< ᕛ
< ᕜ
< ᕝ
< ᕞ
< ᕟ
< ᕠ
< ᕡ
< ᕢ
< ᕣ
< ᕤ
< ᕥ
< ᕦ
< ᕧ
< ᕨ
< ᕩ
< ᕪ
< ᕫ
< ᕬ
< ᕭ
< ᕮ
< ᕯ
< ᕰ
< ᕱ
< ᕲ
< ᕳ
< ᕴ
< ᕵ
< ᕶ
< ᕷ
< ᕸ
< ᕹ
< ᕺ
< ᕻ
< ᕽ
< ᙯ
< ᕾ
< ᕿ
< ᖀ
< ᖁ
< ᖂ
< ᖃ
< ᖄ
< ᖅ
< ᖆ
< ᖇ
< ᖈ
< ᖉ
< ᖊ
< ᖋ
< ᖌ
< ᖍ
< ᙰ
< ᖎ
< ᖏ
< ᖐ
< ᖑ
< ᖒ
< ᖓ
< ᖔ
< ᖕ
< ᙱ
< ᙲ
< ᙳ
< ᙴ
< ᙵ
< ᙶ
< ᖖ
< ᖗ
< ᖘ
< ᖙ
< ᖚ
< ᖛ
< ᖜ
< ᖝ
< ᖞ
< ᖟ
< ᖠ
< ᖡ
< ᖢ
< ᖣ
< ᖤ
< ᖥ
< ᖦ
< ᕼ
< ᖧ
< ᖨ
< ᖩ
< ᖪ
< ᖫ
< ᖬ
< ᖭ
< ᖮ
< ᖯ
< ᖰ
< ᖱ
< ᖲ
< ᖳ
< ᖴ
< ᖵ
< ᖶ
< ᖷ
< ᖸ
< ᖹ
< ᖺ
< ᖻ
< ᖼ
< ᖽ
< ᖾ
< ᖿ
< ᗀ
< ᗁ
< ᗂ
< ᗃ
< ᗄ
< ᗅ
< ᗆ
< ᗇ
< ᗈ
< ᗉ
< ᗊ
< ᗋ
< ᗌ
< ᗍ
< ᗎ
< ᗏ
< ᗐ
< ᗑ
< ᗒ
< ᗓ
< ᗔ
< ᗕ
< ᗖ
< ᗗ
< ᗘ
< ᗙ
< ᗚ
< ᗛ
< ᗜ
< ᗝ
< ᗞ
< ᗟ
< ᗠ
< ᗡ
< ᗢ
< ᗣ
< ᗤ
< ᗥ
< ᗦ
< ᗧ
< ᗨ
< ᗩ
< ᗪ
< ᗫ
< ᗬ
< ᗭ
< ᗮ
< ᗯ
< ᗰ
< ᗱ
< ᗲ
< ᗳ
< ᗴ
< ᗵ
< ᗶ
< ᗷ
< ᗸ
< ᗹ
< ᗺ
< ᗻ
< ᗼ
< ᗽ
< ᗾ
< ᗿ
< ᘀ
< ᘁ
< ᘂ
< ᘃ
< ᘄ
< ᘅ
< ᘆ
< ᘇ
< ᘈ
< ᘉ
< ᘊ
< ᘋ
< ᘌ
< ᘍ
< ᘎ
< ᘏ
< ᘐ
< ᘑ
< ᘒ
< ᘓ
< ᘔ
< ᘕ
< ᘖ
< ᘗ
< ᘘ
< ᘙ
< ᘚ
< ᘛ
< ᘜ
< ᘝ
< ᘞ
< ᘟ
< ᘠ
< ᘡ
< ᘢ
< ᘣ
< ᘤ
< ᘥ
< ᘦ
< ᘧ
< ᘨ
< ᘩ
< ᘪ
< ᘫ
< ᘬ
< ᘭ
< ᘮ
< ᘯ
< ᘰ
< ᘱ
< ᘲ
< ᘳ
< ᘴ
< ᘵ
< ᘶ
< ᘷ
< ᘸ
< ᘹ
< ᘺ
< ᘻ
< ᘼ
< ᘽ
< ᘾ
< ᘿ
< ᙀ
< ᙁ
< ᙂ
< ᙃ
< ᙄ
< ᙅ
< ᙆ
< ᙇ
< ᙈ
< ᙉ
< ᙊ
< ᙋ
< ᙌ
< ᙍ
< ᙎ
< ᙏ
< ᙐ
< ᙑ
< ᙒ
< ᙓ
< ᙔ
< ᙕ
< ᙖ
< ᙗ
< ᙘ
< ᙙ
< ᙚ
< ᙛ
< ᙜ
< ᙝ
< ᙞ
< ᙟ
< ᙠ
< ᙡ
< ᙢ
< ᙣ
< ᙤ
< ᙥ
< ᙦ
< ᙧ
< ᙨ
< ᙩ
< ᙪ
< ᙫ
< ᙬ
< ᙷ
< ᙸ
< ᙹ
< ᙺ
< ᙻ
< ᙼ
< ᙽ
< ᙾ
< ᙿ
< ᢰ
< ᢱ
< ᢲ
< ᢳ
< ᢴ
< ᢵ
< ᢶ
< ᢷ
< ᢸ
< ᢹ
< ᢺ
< ᢻ
< ᢼ
< ᢽ
< ᢾ
< ᢿ
< ᣀ
< ᣁ
< ᣂ
< ᣃ
< ᣄ
< ᣅ
< ᣆ
< ᣇ
< ᣈ
< ᣉ
< ᣊ
< ᣋ
< ᣌ
< ᣍ
< ᣎ
< ᣏ
< ᣐ
< ᣑ
< ᣒ
< ᣓ
< ᣔ
< ᣕ
< ᣖ
< ᣗ
< ᣘ
< ᣙ
< ᣚ
< ᣛ
< ᣜ
< ᣝ
< ᣞ
< ᣟ
< ᣠ
< ᣡ
< ᣢ
< ᣣ
< ᣤ
< ᣥ
< ᣦ
< ᣧ
< ᣨ
< ᣩ
< ᣪ
< ᣫ
< ᣬ
< ᣭ
< ᣮ
< ᣯ
< ᣰ
< ᣱ
< ᣲ
< ᣳ
< ᣴ
< ᣵ
< ᚁ
< ᚂ
< ᚃ
< ᚄ
< ᚅ
< ᚆ
< ᚇ
< ᚈ
< ᚉ
< ᚊ
< ᚋ
< ᚌ
< ᚍ
< ᚎ
< ᚏ
< ᚐ
< ᚑ
< ᚒ
< ᚓ
< ᚔ
< ᚕ
< ᚖ
< ᚗ
< ᚘ
< ᚙ
< ᚚ
< ᚠ ; ᚡ
< ᚢ ; ᚤ ; ᚥ
< ᚦ ; ᚧ
< ᚨ ; ᚩ ; ᚬ ; ᚭ ; ᚮ
< ᚯ
< ᚰ
< ᚱ
< ᚲ ; ᚳ ; ᚴ ; ᚵ ; ᚶ
< ᚷ
< ᚹ ; ᛩ
< ᚺ ; ᚻ ; ᚼ ; ᚽ
< ᚾ ; ᚿ ; ᛀ
< ᛁ ; ᛂ
< ᛃ ; ᛄ
< ᛅ ; ᛆ
< ᛇ
< ᛈ ; ᛕ
< ᛉ
< ᛊ,ᛎ ; ᛋ ; ᛪ ; ᛌ ; ᛍ
< ᛏ ; ᛐ ; ᛑ
< ᛒ ; ᛓ ; ᛔ
< ᛖ
< ᛗ ; ᛘ ; ᛙ
< ᛚ ; ᛛ
< ᛜ ; ᛝ
< ᛞ
< ᛟ
< ᚪ
< ᚫ
< ᚣ
< ᛠ
< ᛣ
< ᚸ
< ᛤ
< ᛡ
< ᛢ
< ᛥ
< ᛦ ; ᛧ ; ᛨ
< ꔀ
< ꔁ
< ꔂ
< ꔃ
< ꔄ
< ꔅ
< ꔆ
< ꔇ
< ꔈ
< ꔉ
< ꔊ
< ꔋ
< ꔌ
< ꔍ
< ꔎ
< ꔏ
< ꔐ
< ꔑ
< ꔒ
< ꔓ
< ꔔ
< ꔕ
< ꔖ
< ꔗ
< ꔘ
< ꔙ
< ꔚ
< ꔛ
< ꔜ
< ꔝ
< ꔞ
< ꔟ
< ꔠ
< ꔡ
< ꔢ
< ꔣ
< ꔤ
< ꔥ
< ꔦ
< ꔧ
< ꔨ
< ꔩ
< ꔪ
< ꔫ
< ꔬ
< ꔭ
< ꔮ
< ꔯ
< ꔰ
< ꔱ
< ꔲ
< ꔳ
< ꔴ
< ꔵ
< ꔶ
< ꔷ
< ꔸ
< ꔹ
< ꔺ
< ꔻ
< ꔼ
< ꔽ
< ꔾ
< ꔿ
< ꕀ
< ꕁ
< ꕂ
< ꕃ
< ꕄ
< ꕅ
< ꕆ
< ꕇ
< ꕈ
< ꕉ
< ꕊ
< ꕋ
< ꕌ
< ꕍ
< ꕎ
< ꕏ
< ꕐ
< ꕑ
< ꕒ
< ꕓ
< ꕔ
< ꕕ
< ꕖ
< ꕗ
< ꕘ,ꘐ
< ꕙ
< ꕚ
< ꕛ
< ꕜ
< ꕝ
< ꕞ
< ꕟ
< ꕠ
< ꕡ
< ꕢ
< ꕣ
< ꕤ
< ꕥ
< ꕦ
< ꕧ
< ꕨ
< ꕩ
< ꕪ,ꘑ
< ꕫ
< ꕬ
< ꕭ
< ꕮ,ꘪ
< ꕯ
< ꕰ
< ꕱ
< ꕲ
< ꕳ
< ꕴ
< ꕵ
< ꕶ
< ꕷ
< ꕸ
< ꕹ
< ꕺ
< ꕻ
< ꕼ
< ꕽ
< ꕾ
< ꕿ
< ꖀ
< ꖁ
< ꖂ
< ꖃ
< ꖄ
< ꖅ
< ꖆ
< ꖇ,ꘒ
< ꖈ
< ꖉ
< ꖊ
< ꖋ
< ꖌ
< ꖍ
< ꖎ
< ꖏ
< ꖐ
< ꖑ
< ꖒ
< ꖓ
< ꖔ
< ꖕ
< ꖖ
< ꖗ
< ꖘ
< ꖙ
< ꖚ
< ꖛ
< ꖜ
< ꖝ
< ꖞ
< ꖟ
< ꖠ
< ꖡ
< ꖢ
< ꖣ
< ꖤ
< ꖥ
< ꖦ
< ꖧ
< ꖨ
< ꖩ
< ꖪ
< ꖫ
< ꖬ
< ꖭ
< ꖮ
< ꖯ
< ꖰ
< ꖱ
< ꖲ
< ꖳ
< ꖴ
< ꖵ
< ꖶ
< ꖷ
< ꖸ
< ꖹ
< ꖺ
< ꖻ
< ꖼ
< ꖽ
< ꖾ
< ꖿ
< ꗀ
< ꗁ
< ꗂ
< ꗃ
< ꗄ
< ꗅ
< ꗆ
< ꗇ
< ꗈ
< ꗉ
< ꗊ
< ꗋ
< ꗌ
< ꗍ
< ꗎ
< ꗏ
< ꗐ
< ꗑ,ꘫ
< ꗒ
< ꗓ
< ꗔ
< ꗕ
< ꗖ
< ꗗ
< ꗘ
< ꗙ
< ꗚ
< ꗛ
< ꗜ
< ꗝ
< ꗞ
< ꗟ
< ꗠ
< ꗡ
< ꗢ
< ꗣ
< ꗤ
< ꗥ
< ꗦ
< ꗧ
< ꗨ
< ꗩ
< ꗪ
< ꗫ
< ꗬ
< ꗭ
< ꗮ
< ꗯ
< ꗰ
< ꗱ
< ꗲ
< ꗳ
< ꗴ
< ꗵ
< ꗶ
< ꗷ
< ꗸ
< ꗹ
< ꗺ
< ꗻ
< ꗼ
< ꗽ
< ꗾ
< ꗿ
< ꘀ
< ꘁ
< ꘂ
< ꘃ
< ꘄ
< ꘅ
< ꘆ
< ꘇ
< ꘈ
< ꘉ
< ꘊ
< ꘋ
< ꘌ
< ꚠ
< ꚡ
< ꚢ
< ꚣ
< ꚤ
< ꚥ
< ꚦ
< ꚧ
< ꚨ
< ꚩ
< ꚪ
< ꚫ
< ꚬ
< ꚭ
< ꚮ
< ꚯ
< ꚰ
< ꚱ
< ꚲ
< ꚳ
< ꚴ
< ꚵ
< ꚶ
< ꚷ
< ꚸ
< ꚹ
< ꚺ
< ꚻ
< ꚼ
< ꚽ
< ꚾ
< ꚿ
< ꛀ
< ꛁ
< ꛂ
< ꛃ
< ꛄ
< ꛅ
< ꛆ
< ꛇ
< ꛈ
< ꛉ
< ꛊ
< ꛋ
< ꛌ
< ꛍ
< ꛎ
< ꛏ
< ꛐ
< ꛑ
< ꛒ
< ꛓ
< ꛔ
< ꛕ
< ꛖ
< ꛗ
< ꛘ
< ꛙ
< ꛚ
< ꛛ
< ꛜ
< ꛝ
< ꛞ
< ꛟ
< ꛠ
< ꛡ
< ꛢ
< ꛣ
< ꛤ
< ꛥ
< ꛦ
< ꛧ
< ꛨ
< ꛩ
< ꛪ
< ꛫ
< ꛬ
< ꛭ
< ꛮ
< ꛯ
< ᄀ,ㄱ,㉠,ﾡ
< ᄁ,ㄲ,ﾢ
< ᄂ,ㄴ,㉡,ﾤ
< ᄃ,ㄷ,㉢,ﾧ
< ᄄ,ㄸ,ﾨ
< ᄅ,ㄹ,㉣,ﾩ
< ᄆ,ㅁ,㉤,ﾱ
< ᄇ,ㅂ,㉥,ﾲ
< ᄈ,ㅃ,ﾳ
< ᄉ,ㅅ,㉦,ﾵ
< ᄊ,ㅆ,ﾶ
< ᄋ,ㅇ,㉧,ﾷ
< ᄌ,ㅈ,㉨,ﾸ
< ᄍ,ㅉ,ﾹ
< ᄎ,ㅊ,㉩,ﾺ
< ᄏ,ㅋ,㉪,ﾻ
< ᄐ,ㅌ,㉫,ﾼ
< ᄑ,ㅍ,㉬,ﾽ
< ᄒ,ㅎ,㉭,ﾾ
< ᄓ
< ᄔ,ㅥ
< ᄕ,ㅦ
< ᄖ
< ᄗ
< ᄘ
< ᄙ
< ᄚ,ㅀ,ﾰ
< ᄛ
< ᄜ,ㅮ
< ᄝ,ㅱ
< ᄞ,ㅲ
< ᄟ
< ᄠ,ㅳ
< ᄡ,ㅄ,ﾴ
< ᄢ,ㅴ
< ᄣ,ㅵ
< ᄤ
< ᄥ
< ᄦ
< ᄧ,ㅶ
< ᄨ
< ᄩ,ㅷ
< ᄪ
< ᄫ,ㅸ
< ᄬ,ㅹ
< ᄭ,ㅺ
< ᄮ,ㅻ
< ᄯ,ㅼ
< ᄰ
< ᄱ
< ᄲ,ㅽ
< ᄳ
< ᄴ
< ᄵ
< ᄶ,ㅾ
< ᄷ
< ᄸ
< ᄹ
< ᄺ
< ᄻ
< ᄼ
< ᄽ
< ᄾ
< ᄿ
< ᅀ,ㅿ
< ᅁ
< ᅂ
< ᅃ
< ᅄ
< ᅅ
< ᅆ
< ᅇ,ㆀ
< ᅈ
< ᅉ
< ᅊ
< ᅋ
< ᅌ,ㆁ
< ᅍ
< ᅎ
< ᅏ
< ᅐ
< ᅑ
< ᅒ
< ᅓ
< ᅔ
< ᅕ
< ᅖ
< ᅗ,ㆄ
< ᅘ,ㆅ
< ᅙ,ㆆ
< ᅚ
< ᅛ
< ᅜ
< ᅝ
< ᅞ
< ꥠ
< ꥡ
< ꥢ
< ꥣ
< ꥤ
< ꥥ
< ꥦ
< ꥧ
< ꥨ
< ꥩ
< ꥪ
< ꥫ
< ꥬ
< ꥭ
< ꥮ
< ꥯ
< ꥰ
< ꥱ
< ꥲ
< ꥳ
< ꥴ
< ꥵ
< ꥶ
< ꥷ
< ꥸ
< ꥹ
< ꥺ
< ꥻ
< ꥼ
< ᅟ
< ᅠ,ㅤ,ﾠ
< ᅡ,ㅏ,ￂ
< ᅢ,ㅐ,ￃ
< ᅣ,ㅑ,ￄ
< ᅤ,ㅒ,ￅ
< ᅥ,ㅓ,ￆ
< ᅦ,ㅔ,ￇ
< ᅧ,ㅕ,ￊ
< ᅨ,ㅖ,ￋ
< ᅩ,ㅗ,ￌ
< ᅪ,ㅘ,ￍ
< ᅫ,ㅙ,ￎ
< ᅬ,ㅚ,ￏ
< ᅭ,ㅛ,ￒ
< ᅮ,ㅜ,ￓ
< ᅯ,ㅝ,ￔ
< ᅰ,ㅞ,ￕ
< ᅱ,ㅟ,ￖ
< ᅲ,ㅠ,ￗ
< ᅳ,ㅡ,ￚ
< ᅴ,ㅢ,ￛ
< ᅵ,ㅣ,ￜ
< ᅶ
< ᅷ
< ᅸ
< ᅹ
< ᅺ
< ᅻ
< ᅼ
< ᅽ
< ᅾ
< ᅿ
< ᆀ
< ᆁ
< ᆂ
< ᆃ
< ᆄ,ㆇ
< ᆅ,ㆈ
< ᆆ
< ᆇ
< ᆈ,ㆉ
< ᆉ
< ᆊ
< ᆋ
< ᆌ
< ᆍ
< ᆎ
< ᆏ
< ᆐ
< ᆑ,ㆊ
< ᆒ,ㆋ
< ᆓ
< ᆔ,ㆌ
< ᆕ
< ᆖ
< ᆗ
< ᆘ
< ᆙ
< ᆚ
< ᆛ
< ᆜ
< ᆝ
< ᆞ,ㆍ
< ᆟ
< ᆠ
< ᆡ,ㆎ
< ᆢ
< ᆣ
< ᆤ
< ᆥ
< ᆦ
< ᆧ
< ힰ
< ힱ
< ힲ
< ힳ
< ힴ
< ힵ
< ힶ
< ힷ
< ힸ
< ힹ
< ힺ
< ힻ
< ힼ
< ힽ
< ힾ
< ힿ
< ퟀ
< ퟁ
< ퟂ
< ퟃ
< ퟄ
< ퟅ
< ퟆ
< ᆨ
< ᆩ
< ᆪ,ㄳ,ﾣ
< ᆫ
< ᆬ,ㄵ,ﾥ
< ᆭ,ㄶ,ﾦ
< ᆮ
< ᆯ
< ᆰ,ㄺ,ﾪ
< ᆱ,ㄻ,ﾫ
< ᆲ,ㄼ,ﾬ
< ᆳ,ㄽ,ﾭ
< ᆴ,ㄾ,ﾮ
< ᆵ,ㄿ,ﾯ
< ᆶ
< ᆷ
< ᆸ
< ᆹ
< ᆺ
< ᆻ
< ᆼ
< ᆽ
< ᆾ
< ᆿ
< ᇀ
< ᇁ
< ᇂ
< ᇃ
< ᇄ
< ᇅ
< ᇆ
< ᇇ,ㅧ
< ᇈ,ㅨ
< ᇉ
< ᇊ
< ᇋ
< ᇌ,ㅩ
< ᇍ
< ᇎ,ㅪ
< ᇏ
< ᇐ
< ᇑ
< ᇒ
< ᇓ,ㅫ
< ᇔ
< ᇕ
< ᇖ
< ᇗ,ㅬ
< ᇘ
< ᇙ,ㅭ
< ᇚ
< ᇛ
< ᇜ
< ᇝ,ㅯ
< ᇞ
< ᇟ,ㅰ
< ᇠ
< ᇡ
< ᇢ
< ᇣ
< ᇤ
< ᇥ
< ᇦ
< ᇧ
< ᇨ
< ᇩ
< ᇪ
< ᇫ
< ᇬ
< ᇭ
< ᇮ
< ᇯ
< ᇰ
< ᇱ,ㆂ
< ᇲ,ㆃ
< ᇳ
< ᇴ
< ᇵ
< ᇶ
< ᇷ
< ᇸ
< ᇹ
< ᇺ
< ᇻ
< ᇼ
< ᇽ
< ᇾ
< ᇿ
< ퟋ
< ퟌ
< ퟍ
< ퟎ
< ퟏ
< ퟐ
< ퟑ
< ퟒ
< ퟓ
< ퟔ
< ퟕ
< ퟖ
< ퟗ
< ퟘ
< ퟙ
< ퟚ
< ퟛ
< ퟜ
< ퟝ
< ퟞ
< ퟟ
< ퟠ
< ퟡ
< ퟢ
< ퟣ
< ퟤ
< ퟥ
< ퟦ
< ퟧ
< ퟨ
< ퟩ
< ퟪ
< ퟫ
< ퟬ
< ퟭ
< ퟮ
< ퟯ
< ퟰ
< ퟱ
< ퟲ
< ퟳ
< ퟴ
< ퟵ
< ퟶ
< ퟷ
< ퟸ
< ퟹ
< ퟺ
< ퟻ
< ぁ,あ,ァ,ｧ,ア,ｱ,㋐
< ぃ,い,ィ,ｨ,イ,ｲ,㋑
< ぅ,う,ゥ,ｩ,ウ,ｳ,㋒ ; ゔ,ヴ
< ぇ,え,ェ,ｪ,エ,ｴ,㋓
< ぉ,お,ォ,ｫ,オ,ｵ,㋔
< ゕ,か,ヵ,カ,ｶ,㋕ ; が,ガ
< き,キ,ｷ,㋖ ; ぎ,ギ
< く,ㇰ,ク,ｸ,㋗ ; ぐ,グ
< ゖ,け,ヶ,ケ,ｹ,㋘ ; げ,ゲ
< こ,コ,ｺ,㋙ ; ご,ゴ
< さ,サ,ｻ,㋚ ; ざ,ザ
< し,ㇱ,シ,ｼ,㋛ ; じ,ジ
< す,ㇲ,ス,ｽ,㋜ ; ず,ズ
< せ,セ,ｾ,㋝ ; ぜ,ゼ
< そ,ソ,ｿ,㋞ ; ぞ,ゾ
< た,タ,ﾀ,㋟ ; だ,ダ
< ち,チ,ﾁ,㋠ ; ぢ,ヂ
< っ,つ,ッ,ｯ,ツ,ﾂ,㋡ ; づ,ヅ
< て,テ,ﾃ,㋢ ; で,デ
< と,ㇳ,ト,ﾄ,㋣ ; ど,ド
< な,ナ,ﾅ,㋤
< に,ニ,ﾆ,㋥
< ぬ,ㇴ,ヌ,ﾇ,㋦
< ね,ネ,ﾈ,㋧
< の,ノ,ﾉ,㋨
< は,ㇵ,ハ,ﾊ,㋩ ; ば,バ ; ぱ,パ
< ひ,ㇶ,ヒ,ﾋ,㋪ ; び,ビ ; ぴ,ピ
< ふ,ㇷ,フ,ﾌ,㋫ ; ぶ,ブ ; ぷ,プ
< へ,ㇸ,ヘ,ﾍ,㋬ ; べ,ベ ; ぺ,ペ
< ほ,ㇹ,ホ,ﾎ,㋭ ; ぼ,ボ ; ぽ,ポ
< ま,マ,ﾏ,㋮
< み,ミ,ﾐ,㋯
< む,ㇺ,ム,ﾑ,㋰
< め,メ,ﾒ,㋱
< も,モ,ﾓ,㋲
< ゃ,や,ャ,ｬ,ヤ,ﾔ,㋳
< ゅ,ゆ,ュ,ｭ,ユ,ﾕ,㋴
< ょ,よ,ョ,ｮ,ヨ,ﾖ,㋵
< ら,ㇻ,ラ,ﾗ,㋶
< り,ㇼ,リ,ﾘ,㋷
< る,ㇽ,ル,ﾙ,㋸
< れ,ㇾ,レ,ﾚ,㋹
< ろ,ㇿ,ロ,ﾛ,㋺
< ゎ,わ,ヮ,ワ,ﾜ,㋻ ; ヷ
< ゐ,ヰ,㋼ ; ヸ
< ゑ,ヱ,㋽ ; ヹ
< を,ヲ,ｦ,㋾ ; ヺ
< ん,ン,ﾝ
< ㄅ ; ㆠ
< ㄆ,ㆴ
< ㄇ
< ㄈ
< ㄪ
< ㄉ
< ㄊ,ㆵ
< ㄋ
< ㄌ
< ㄍ ; ㆣ
< ㄎ,ㆶ
< ㄫ
< ㆭ
< ㄏ,ㆷ
< ㄐ ; ㆢ
< ㄑ
< ㄒ
< ㄬ
< ㄓ
< ㄔ
< ㄕ
< ㄖ
< ㄗ ; ㆡ
< ㄘ
< ㄙ
< ㆸ
< ㆹ
< ㆺ
< ㄚ ; ㆩ
< ㄛ ; ㆧ
< ㆦ
< ㄜ
< ㄝ
< ㆤ ; ㆥ
< ㄞ ; ㆮ
< ㄟ
< ㄠ ; ㆯ
< ㄡ
< ㄢ
< ㄣ
< ㄤ
< ㆲ
< ㄥ
< ㆰ
< ㆱ
< ㆬ
< ㄦ
< ㄧ ; ㆪ,ㆳ
< ㄨ ; ㆫ ; ㆨ
< ㄩ
< ㄭ
< ꀀ
< ꀁ
< ꀂ
< ꀃ
< ꀄ
< ꀅ
< ꀆ
< ꀇ
< ꀈ
< ꀉ
< ꀊ
< ꀋ
< ꀌ
< ꀍ
< ꀎ
< ꀏ
< ꀐ
< ꀑ
< ꀒ
< ꀓ
< ꀔ
< ꀕ
< ꀖ
< ꀗ
< ꀘ
< ꀙ
< ꀚ
< ꀛ
< ꀜ
< ꀝ
< ꀞ
< ꀟ
< ꀠ
< ꀡ
< ꀢ
< ꀣ
< ꀤ
< ꀥ
< ꀦ
< ꀧ
< ꀨ
< ꀩ
< ꀪ
< ꀫ
< ꀬ
< ꀭ
< ꀮ
< ꀯ
< ꀰ
< ꀱ
< ꀲ
< ꀳ
< ꀴ
< ꀵ
< ꀶ
< ꀷ
< ꀸ
< ꀹ
< ꀺ
< ꀻ
< ꀼ
< ꀽ
< ꀾ
< ꀿ
< ꁀ
< ꁁ
< ꁂ
< ꁃ
< ꁄ
< ꁅ
< ꁆ
< ꁇ
< ꁈ
< ꁉ
< ꁊ
< ꁋ
< ꁌ
< ꁍ
< ꁎ
< ꁏ
< ꁐ
< ꁑ
< ꁒ
< ꁓ
< ꁔ
< ꁕ
< ꁖ
< ꁗ
< ꁘ
< ꁙ
< ꁚ
< ꁛ
< ꁜ
< ꁝ
< ꁞ
< ꁟ
< ꁠ
< ꁡ
< ꁢ
< ꁣ
< ꁤ
< ꁥ
< ꁦ
< ꁧ
< ꁨ
< ꁩ
< ꁪ
< ꁫ
< ꁬ
< ꁭ
< ꁮ
< ꁯ
< ꁰ
< ꁱ
< ꁲ
< ꁳ
< ꁴ
< ꁵ
< ꁶ
< ꁷ
< ꁸ
< ꁹ
< ꁺ
< ꁻ
< ꁼ
< ꁽ
< ꁾ
< ꁿ
< ꂀ
< ꂁ
< ꂂ
< ꂃ
< ꂄ
< ꂅ
< ꂆ
< ꂇ
< ꂈ
< ꂉ
< ꂊ
< ꂋ
< ꂌ
< ꂍ
< ꂎ
< ꂏ
< ꂐ
< ꂑ
< ꂒ
< ꂓ
< ꂔ
< ꂕ
< ꂖ
< ꂗ
< ꂘ
< ꂙ
< ꂚ
< ꂛ
< ꂜ
< ꂝ
< ꂞ
< ꂟ
< ꂠ
< ꂡ
< ꂢ
< ꂣ
< ꂤ
< ꂥ
< ꂦ
< ꂧ
< ꂨ
< ꂩ
< ꂪ
< ꂫ
< ꂬ
< ꂭ
< ꂮ
< ꂯ
< ꂰ
< ꂱ
< ꂲ
< ꂳ
< ꂴ
< ꂵ
< ꂶ
< ꂷ
< ꂸ
< ꂹ
< ꂺ
< ꂻ
< ꂼ
< ꂽ
< ꂾ
< ꂿ
< ꃀ
< ꃁ
< ꃂ
< ꃃ
< ꃄ
< ꃅ
< ꃆ
< ꃇ
< ꃈ
< ꃉ
< ꃊ
< ꃋ
< ꃌ
< ꃍ
< ꃎ
< ꃏ
< ꃐ
< ꃑ
< ꃒ
< ꃓ
< ꃔ
< ꃕ
< ꃖ
< ꃗ
< ꃘ
< ꃙ
< ꃚ
< ꃛ
< ꃜ
< ꃝ
< ꃞ
< ꃟ
< ꃠ
< ꃡ
< ꃢ
< ꃣ
< ꃤ
< ꃥ
< ꃦ
< ꃧ
< ꃨ
< ꃩ
< ꃪ
< ꃫ
< ꃬ
< ꃭ
< ꃮ
< ꃯ
< ꃰ
< ꃱ
< ꃲ
< ꃳ
< ꃴ
< ꃵ
< ꃶ
< ꃷ
< ꃸ
< ꃹ
< ꃺ
< ꃻ
< ꃼ
< ꃽ
< ꃾ
< ꃿ
< ꄀ
< ꄁ
< ꄂ
< ꄃ
< ꄄ
< ꄅ
< ꄆ
< ꄇ
< ꄈ
< ꄉ
< ꄊ
< ꄋ
< ꄌ
< ꄍ
< ꄎ
< ꄏ
< ꄐ
< ꄑ
< ꄒ
< ꄓ
< ꄔ
< ꄕ
< ꄖ
< ꄗ
< ꄘ
< ꄙ
< ꄚ
< ꄛ
< ꄜ
< ꄝ
< ꄞ
< ꄟ
< ꄠ
< ꄡ
< ꄢ
< ꄣ
< ꄤ
< ꄥ
< ꄦ
< ꄧ
< ꄨ
< ꄩ
< ꄪ
< ꄫ
< ꄬ
< ꄭ
< ꄮ
< ꄯ
< ꄰ
< ꄱ
< ꄲ
< ꄳ
< ꄴ
< ꄵ
< ꄶ
< ꄷ
< ꄸ
< ꄹ
< ꄺ
< ꄻ
< ꄼ
< ꄽ
< ꄾ
< ꄿ
< ꅀ
< ꅁ
< ꅂ
< ꅃ
< ꅄ
< ꅅ
< ꅆ
< ꅇ
< ꅈ
< ꅉ
< ꅊ
< ꅋ
< ꅌ
< ꅍ
< ꅎ
< ꅏ
< ꅐ
< ꅑ
< ꅒ
< ꅓ
< ꅔ
< ꅕ
< ꅖ
< ꅗ
< ꅘ
< ꅙ
< ꅚ
< ꅛ
< ꅜ
< ꅝ
< ꅞ
< ꅟ
< ꅠ
< ꅡ
< ꅢ
< ꅣ
< ꅤ
< ꅥ
< ꅦ
< ꅧ
< ꅨ
< ꅩ
< ꅪ
< ꅫ
< ꅬ
< ꅭ
< ꅮ
< ꅯ
< ꅰ
< ꅱ
< ꅲ
< ꅳ
< ꅴ
< ꅵ
< ꅶ
< ꅷ
< ꅸ
< ꅹ
< ꅺ
< ꅻ
< ꅼ
< ꅽ
< ꅾ
< ꅿ
< ꆀ
< ꆁ
< ꆂ
< ꆃ
< ꆄ
< ꆅ
< ꆆ
< ꆇ
< ꆈ
< ꆉ
< ꆊ
< ꆋ
< ꆌ
< ꆍ
< ꆎ
< ꆏ
< ꆐ
< ꆑ
< ꆒ
< ꆓ
< ꆔ
< ꆕ
< ꆖ
< ꆗ
< ꆘ
< ꆙ
< ꆚ
< ꆛ
< ꆜ
< ꆝ
< ꆞ
< ꆟ
< ꆠ
< ꆡ
< ꆢ
< ꆣ
< ꆤ
< ꆥ
< ꆦ
< ꆧ
< ꆨ
< ꆩ
< ꆪ
< ꆫ
< ꆬ
< ꆭ
< ꆮ
< ꆯ
< ꆰ
< ꆱ
< ꆲ
< ꆳ
< ꆴ
< ꆵ
< ꆶ
< ꆷ
< ꆸ
< ꆹ
< ꆺ
< ꆻ
< ꆼ
< ꆽ
< ꆾ
< ꆿ
< ꇀ
< ꇁ
< ꇂ
< ꇃ
< ꇄ
< ꇅ
< ꇆ
< ꇇ
< ꇈ
< ꇉ
< ꇊ
< ꇋ
< ꇌ
< ꇍ
< ꇎ
< ꇏ
< ꇐ
< ꇑ
< ꇒ
< ꇓ
< ꇔ
< ꇕ
< ꇖ
< ꇗ
< ꇘ
< ꇙ
< ꇚ
< ꇛ
< ꇜ
< ꇝ
< ꇞ
< ꇟ
< ꇠ
< ꇡ
< ꇢ
< ꇣ
< ꇤ
< ꇥ
< ꇦ
< ꇧ
< ꇨ
< ꇩ
< ꇪ
< ꇫ
< ꇬ
< ꇭ
< ꇮ
< ꇯ
< ꇰ
< ꇱ
< ꇲ
< ꇳ
< ꇴ
< ꇵ
< ꇶ
< ꇷ
< ꇸ
< ꇹ
< ꇺ
< ꇻ
< ꇼ
< ꇽ
< ꇾ
< ꇿ
< ꈀ
< ꈁ
< ꈂ
< ꈃ
< ꈄ
< ꈅ
< ꈆ
< ꈇ
< ꈈ
< ꈉ
< ꈊ
< ꈋ
< ꈌ
< ꈍ
< ꈎ
< ꈏ
< ꈐ
< ꈑ
< ꈒ
< ꈓ
< ꈔ
< ꈕ
< ꈖ
< ꈗ
< ꈘ
< ꈙ
< ꈚ
< ꈛ
< ꈜ
< ꈝ
< ꈞ
< ꈟ
< ꈠ
< ꈡ
< ꈢ
< ꈣ
< ꈤ
< ꈥ
< ꈦ
< ꈧ
< ꈨ
< ꈩ
< ꈪ
< ꈫ
< ꈬ
< ꈭ
< ꈮ
< ꈯ
< ꈰ
< ꈱ
< ꈲ
< ꈳ
< ꈴ
< ꈵ
< ꈶ
< ꈷ
< ꈸ
< ꈹ
< ꈺ
< ꈻ
< ꈼ
< ꈽ
< ꈾ
< ꈿ
< ꉀ
< ꉁ
< ꉂ
< ꉃ
< ꉄ
< ꉅ
< ꉆ
< ꉇ
< ꉈ
< ꉉ
< ꉊ
< ꉋ
< ꉌ
< ꉍ
< ꉎ
< ꉏ
< ꉐ
< ꉑ
< ꉒ
< ꉓ
< ꉔ
< ꉕ
< ꉖ
< ꉗ
< ꉘ
< ꉙ
< ꉚ
< ꉛ
< ꉜ
< ꉝ
< ꉞ
< ꉟ
< ꉠ
< ꉡ
< ꉢ
< ꉣ
< ꉤ
< ꉥ
< ꉦ
< ꉧ
< ꉨ
< ꉩ
< ꉪ
< ꉫ
< ꉬ
< ꉭ
< ꉮ
< ꉯ
< ꉰ
< ꉱ
< ꉲ
< ꉳ
< ꉴ
< ꉵ
< ꉶ
< ꉷ
< ꉸ
< ꉹ
< ꉺ
< ꉻ
< ꉼ
< ꉽ
< ꉾ
< ꉿ
< ꊀ
< ꊁ
< ꊂ
< ꊃ
< ꊄ
< ꊅ
< ꊆ
< ꊇ
< ꊈ
< ꊉ
< ꊊ
< ꊋ
< ꊌ
< ꊍ
< ꊎ
< ꊏ
< ꊐ
< ꊑ
< ꊒ
< ꊓ
< ꊔ
< ꊕ
< ꊖ
< ꊗ
< ꊘ
< ꊙ
< ꊚ
< ꊛ
< ꊜ
< ꊝ
< ꊞ
< ꊟ
< ꊠ
< ꊡ
< ꊢ
< ꊣ
< ꊤ
< ꊥ
< ꊦ
< ꊧ
< ꊨ
< ꊩ
< ꊪ
< ꊫ
< ꊬ
< ꊭ
< ꊮ
< ꊯ
< ꊰ
< ꊱ
< ꊲ
< ꊳ
< ꊴ
< ꊵ
< ꊶ
< ꊷ
< ꊸ
< ꊹ
< ꊺ
< ꊻ
< ꊼ
< ꊽ
< ꊾ
< ꊿ
< ꋀ
< ꋁ
< ꋂ
< ꋃ
< ꋄ
< ꋅ
< ꋆ
< ꋇ
< ꋈ
< ꋉ
< ꋊ
< ꋋ
< ꋌ
< ꋍ
< ꋎ
< ꋏ
< ꋐ
< ꋑ
< ꋒ
< ꋓ
< ꋔ
< ꋕ
< ꋖ
< ꋗ
< ꋘ
< ꋙ
< ꋚ
< ꋛ
< ꋜ
< ꋝ
< ꋞ
< ꋟ
< ꋠ
< ꋡ
< ꋢ
< ꋣ
< ꋤ
< ꋥ
< ꋦ
< ꋧ
< ꋨ
< ꋩ
< ꋪ
< ꋫ
< ꋬ
< ꋭ
< ꋮ
< ꋯ
< ꋰ
< ꋱ
< ꋲ
< ꋳ
< ꋴ
< ꋵ
< ꋶ
< ꋷ
< ꋸ
< ꋹ
< ꋺ
< ꋻ
< ꋼ
< ꋽ
< ꋾ
< ꋿ
< ꌀ
< ꌁ
< ꌂ
< ꌃ
< ꌄ
< ꌅ
< ꌆ
< ꌇ
< ꌈ
< ꌉ
< ꌊ
< ꌋ
< ꌌ
< ꌍ
< ꌎ
< ꌏ
< ꌐ
< ꌑ
< ꌒ
< ꌓ
< ꌔ
< ꌕ
< ꌖ
< ꌗ
< ꌘ
< ꌙ
< ꌚ
< ꌛ
< ꌜ
< ꌝ
< ꌞ
< ꌟ
< ꌠ
< ꌡ
< ꌢ
< ꌣ
< ꌤ
< ꌥ
< ꌦ
< ꌧ
< ꌨ
< ꌩ
< ꌪ
< ꌫ
< ꌬ
< ꌭ
< ꌮ
< ꌯ
< ꌰ
< ꌱ
< ꌲ
< ꌳ
< ꌴ
< ꌵ
< ꌶ
< ꌷ
< ꌸ
< ꌹ
< ꌺ
< ꌻ
< ꌼ
< ꌽ
< ꌾ
< ꌿ
< ꍀ
< ꍁ
< ꍂ
< ꍃ
< ꍄ
< ꍅ
< ꍆ
< ꍇ
< ꍈ
< ꍉ
< ꍊ
< ꍋ
< ꍌ
< ꍍ
< ꍎ
< ꍏ
< ꍐ
< ꍑ
< ꍒ
< ꍓ
< ꍔ
< ꍕ
< ꍖ
< ꍗ
< ꍘ
< ꍙ
< ꍚ
< ꍛ
< ꍜ
< ꍝ
< ꍞ
< ꍟ
< ꍠ
< ꍡ
< ꍢ
< ꍣ
< ꍤ
< ꍥ
< ꍦ
< ꍧ
< ꍨ
< ꍩ
< ꍪ
< ꍫ
< ꍬ
< ꍭ
< ꍮ
< ꍯ
< ꍰ
< ꍱ
< ꍲ
< ꍳ
< ꍴ
< ꍵ
< ꍶ
< ꍷ
< ꍸ
< ꍹ
< ꍺ
< ꍻ
< ꍼ
< ꍽ
< ꍾ
< ꍿ
< ꎀ
< ꎁ
< ꎂ
< ꎃ
< ꎄ
< ꎅ
< ꎆ
< ꎇ
< ꎈ
< ꎉ
< ꎊ
< ꎋ
< ꎌ
< ꎍ
< ꎎ
< ꎏ
< ꎐ
< ꎑ
< ꎒ
< ꎓ
< ꎔ
< ꎕ
< ꎖ
< ꎗ
< ꎘ
< ꎙ
< ꎚ
< ꎛ
< ꎜ
< ꎝ
< ꎞ
< ꎟ
< ꎠ
< ꎡ
< ꎢ
< ꎣ
< ꎤ
< ꎥ
< ꎦ
< ꎧ
< ꎨ
< ꎩ
< ꎪ
< ꎫ
< ꎬ
< ꎭ
< ꎮ
< ꎯ
< ꎰ
< ꎱ
< ꎲ
< ꎳ
< ꎴ
< ꎵ
< ꎶ
< ꎷ
< ꎸ
< ꎹ
< ꎺ
< ꎻ
< ꎼ
< ꎽ
< ꎾ
< ꎿ
< ꏀ
< ꏁ
< ꏂ
< ꏃ
< ꏄ
< ꏅ
< ꏆ
< ꏇ
< ꏈ
< ꏉ
< ꏊ
< ꏋ
< ꏌ
< ꏍ
< ꏎ
< ꏏ
< ꏐ
< ꏑ
< ꏒ
< ꏓ
< ꏔ
< ꏕ
< ꏖ
< ꏗ
< ꏘ
< ꏙ
< ꏚ
< ꏛ
< ꏜ
< ꏝ
< ꏞ
< ꏟ
< ꏠ
< ꏡ
< ꏢ
< ꏣ
< ꏤ
< ꏥ
< ꏦ
< ꏧ
< ꏨ
< ꏩ
< ꏪ
< ꏫ
< ꏬ
< ꏭ
< ꏮ
< ꏯ
< ꏰ
< ꏱ
< ꏲ
< ꏳ
< ꏴ
< ꏵ
< ꏶ
< ꏷ
< ꏸ
< ꏹ
< ꏺ
< ꏻ
< ꏼ
< ꏽ
< ꏾ
< ꏿ
< ꐀ
< ꐁ
< ꐂ
< ꐃ
< ꐄ
< ꐅ
< ꐆ
< ꐇ
< ꐈ
< ꐉ
< ꐊ
< ꐋ
< ꐌ
< ꐍ
< ꐎ
< ꐏ
< ꐐ
< ꐑ
< ꐒ
< ꐓ
< ꐔ
< ꐕ
< ꐖ
< ꐗ
< ꐘ
< ꐙ
< ꐚ
< ꐛ
< ꐜ
< ꐝ
< ꐞ
< ꐟ
< ꐠ
< ꐡ
< ꐢ
< ꐣ
< ꐤ
< ꐥ
< ꐦ
< ꐧ
< ꐨ
< ꐩ
< ꐪ
< ꐫ
< ꐬ
< ꐭ
< ꐮ
< ꐯ
< ꐰ
< ꐱ
< ꐲ
< ꐳ
< ꐴ
< ꐵ
< ꐶ
< ꐷ
< ꐸ
< ꐹ
< ꐺ
< ꐻ
< ꐼ
< ꐽ
< ꐾ
< ꐿ
< ꑀ
< ꑁ
< ꑂ
< ꑃ
< ꑄ
< ꑅ
< ꑆ
< ꑇ
< ꑈ
< ꑉ
< ꑊ
< ꑋ
< ꑌ
< ꑍ
< ꑎ
< ꑏ
< ꑐ
< ꑑ
< ꑒ
< ꑓ
< ꑔ
< ꑕ
< ꑖ
< ꑗ
< ꑘ
< ꑙ
< ꑚ
< ꑛ
< ꑜ
< ꑝ
< ꑞ
< ꑟ
< ꑠ
< ꑡ
< ꑢ
< ꑣ
< ꑤ
< ꑥ
< ꑦ
< ꑧ
< ꑨ
< ꑩ
< ꑪ
< ꑫ
< ꑬ
< ꑭ
< ꑮ
< ꑯ
< ꑰ
< ꑱ
< ꑲ
< ꑳ
< ꑴ
< ꑵ
< ꑶ
< ꑷ
< ꑸ
< ꑹ
< ꑺ
< ꑻ
< ꑼ
< ꑽ
< ꑾ
< ꑿ
< ꒀ
< ꒁ
< ꒂ
< ꒃ
< ꒄ
< ꒅ
< ꒆ
< ꒇ
< ꒈ
< ꒉ
< ꒊ
< ꒋ
< ꒌ
< ꓸ
< ꓹ
< ꓺ
< ꓻ
< ꓽ
< ꓼ
< ꓐ
< ꓑ
< ꓒ
< ꓓ
< ꓔ
< ꓕ
< ꓖ
< ꓗ
< ꓘ
< ꓙ
< ꓚ
< ꓛ
< ꓜ
< ꓝ
< ꓞ
< ꓟ
< ꓠ
< ꓡ
< ꓢ
< ꓣ
< ꓤ
< ꓥ
< ꓦ
< ꓧ
< ꓨ
< ꓩ
< ꓫ
< ꓭ
< ꓪ
< ꓬ
< ꓮ
< ꓯ
< ꓰ
< ꓱ
< ꓲ
< ꓳ
< ꓴ
< ꓵ
< ꓶ
< ꓷ
expand ⩴ to : : 003d
expand ‼ to ! !
expand ⁉ to ! ?
expand ⁇ to ? ?
expand ⁈ to ? !
expand ‥ to . .
expand … to . . .
expand ︙ to . . .
expand ︰ to . .
expand ⑴ to ( 1 )
expand ⑵ to ( 2 )
expand ⑶ to ( 3 )
expand ⑷ to ( 4 )
expand ⑸ to ( 5 )
expand ⑹ to ( 6 )
expand ⑺ to ( 7 )
expand ⑻ to ( 8 )
expand ⑼ to ( 9 )
expand ⑽ to ( 1 0 )
expand ⑾ to ( 1 1 )
expand ⑿ to ( 1 2 )
expand ⒀ to ( 1 3 )
expand ⒁ to ( 1 4 )
expand ⒂ to ( 1 5 )
expand ⒃ to ( 1 6 )
expand ⒄ to ( 1 7 )
expand ⒅ to ( 1 8 )
expand ⒆ to ( 1 9 )
expand ⒇ to ( 2 0 )
expand ⒜ to ( a )
expand ⒝ to ( b )
expand ⒞ to ( c )
expand ⒟ to ( d )
expand ⒠ to ( e )
expand ⒡ to ( f )
expand ⒢ to ( g )
expand ⒣ to ( h )
expand ⒤ to ( i )
expand ⒥ to ( j )
expand ⒦ to ( k )
expand ⒧ to ( l )
expand ⒨ to ( m )
expand ⒩ to ( n )
expand ⒪ to ( o )
expand ⒫ to ( p )
expand ⒬ to ( q )
expand ⒭ to ( r )
expand ⒮ to ( s )
expand ⒯ to ( t )
expand ⒰ to ( u )
expand ⒱ to ( v )
expand ⒲ to ( w )
expand ⒳ to ( x )
expand ⒴ to ( y )
expand ⒵ to ( z )
expand ㈀ to ( ᄀ )
expand ㈁ to ( ᄂ )
expand ㈂ to ( ᄃ )
expand ㈃ to ( ᄅ )
expand ㈄ to ( ᄆ )
expand ㈅ to ( ᄇ )
expand ㈆ to ( ᄉ )
expand ㈇ to ( ᄋ )
expand ㈈ to ( ᄌ )
expand ㈉ to ( ᄎ )
expand ㈊ to ( ᄏ )
expand ㈋ to ( ᄐ )
expand ㈌ to ( ᄑ )
expand ㈍ to ( ᄒ )
expand ㈎ to ( ᄀ ᅡ )
expand ㈏ to ( ᄂ ᅡ )
expand ㈐ to ( ᄃ ᅡ )
expand ㈑ to ( ᄅ ᅡ )
expand ㈒ to ( ᄆ ᅡ )
expand ㈓ to ( ᄇ ᅡ )
expand ㈔ to ( ᄉ ᅡ )
expand ㈕ to ( ᄋ ᅡ )
expand ㈖ to ( ᄌ ᅡ )
expand ㈗ to ( ᄎ ᅡ )
expand ㈘ to ( ᄏ ᅡ )
expand ㈙ to ( ᄐ ᅡ )
expand ㈚ to ( ᄑ ᅡ )
expand ㈛ to ( ᄒ ᅡ )
expand ㈜ to ( ᄌ ᅮ )
expand ㈝ to ( ᄋ ᅩ ᄌ ᅥ ᆫ )
expand ㈞ to ( ᄋ ᅩ ᄒ ᅮ )
expand ″ to ′ ′
expand ‴ to ′ ′ ′
expand ⁗ to ′ ′ ′ ′
expand ‶ to ‵ ‵
expand ‷ to ‵ ‵ ‵
expand ℃ to ° C
expand ℉ to ° F
expand ⩵ to 003d 003d
expand ⩶ to 003d 003d 003d
expand ∬ to ∫ ∫
expand ∭ to ∫ ∫ ∫
expand ⨌ to ∫ ∫ ∫ ∫
expand ∯ to ∮ ∮
expand ∰ to ∮ ∮ ∮
expand ↉ to 0 ⁄ 3
expand ⒈ to 1 .
expand ⒑ to 1 0 .
expand ⒒ to 1 1 .
expand ⒓ to 1 2 .
expand ⒔ to 1 3 .
expand ⒕ to 1 4 .
expand ⒖ to 1 5 .
expand ⒗ to 1 6 .
expand ⒘ to 1 7 .
expand ⒙ to 1 8 .
expand ⒚ to 1 9 .
expand ⑩ to 1 0
expand ⑪ to 1 1
expand ⑫ to 1 2
expand ⑬ to 1 3
expand ⑭ to 1 4
expand ⑮ to 1 5
expand ⑯ to 1 6
expand ⑰ to 1 7
expand ⑱ to 1 8
expand ⑲ to 1 9
expand ⓫ to 1 1
expand ⓬ to 1 2
expand ⓭ to 1 3
expand ⓮ to 1 4
expand ⓯ to 1 5
expand ⓰ to 1 6
expand ⓱ to 1 7
expand ⓲ to 1 8
expand ⓳ to 1 9
expand ⓾ to 1 0
expand ❿ to 1 0
expand ➉ to 1 0
expand ➓ to 1 0
expand ㉈ to 1 0
expand ¼ to 1 ⁄ 4
expand ½ to 1 ⁄ 2
expand ⅐ to 1 ⁄ 7
expand ⅑ to 1 ⁄ 9
expand ⅒ to 1 ⁄ 1 0
expand ⅓ to 1 ⁄ 3
expand ⅕ to 1 ⁄ 5
expand ⅙ to 1 ⁄ 6
expand ⅛ to 1 ⁄ 8
expand ⅟ to 1 ⁄
expand ⒉ to 2 .
expand ⒛ to 2 0 .
expand ⑳ to 2 0
expand ⓴ to 2 0
expand ㉉ to 2 0
expand ㉑ to 2 1
expand ㉒ to 2 2
expand ㉓ to 2 3
expand ㉔ to 2 4
expand ㉕ to 2 5
expand ㉖ to 2 6
expand ㉗ to 2 7
expand ㉘ to 2 8
expand ㉙ to 2 9
expand ⅔ to 2 ⁄ 3
expand ⅖ to 2 ⁄ 5
expand ⒊ to 3 .
expand ㉊ to 3 0
expand ㉚ to 3 0
expand ㉛ to 3 1
expand ㉜ to 3 2
expand ㉝ to 3 3
expand ㉞ to 3 4
expand ㉟ to 3 5
expand ㊱ to 3 6
expand ㊲ to 3 7
expand ㊳ to 3 8
expand ㊴ to 3 9
expand ¾ to 3 ⁄ 4
expand ⅗ to 3 ⁄ 5
expand ⅜ to 3 ⁄ 8
expand ⒋ to 4 .
expand ㉋ to 4 0
expand ㊵ to 4 0
expand ㊶ to 4 1
expand ㊷ to 4 2
expand ㊸ to 4 3
expand ㊹ to 4 4
expand ㊺ to 4 5
expand ㊻ to 4 6
expand ㊼ to 4 7
expand ㊽ to 4 8
expand ㊾ to 4 9
expand ⅘ to 4 ⁄ 5
expand ⒌ to 5 .
expand ㉌ to 5 0
expand ㊿ to 5 0
expand ⅚ to 5 ⁄ 6
expand ⅝ to 5 ⁄ 8
expand ⒍ to 6 .
expand ㉍ to 6 0
expand ⒎ to 7 .
expand ㉎ to 7 0
expand ⅞ to 7 ⁄ 8
expand ⒏ to 8 .
expand ㉏ to 8 0
expand ⒐ to 9 .
expand ᷕ to a o
expand ᷖ to a v
expand ẚ to a ʾ
expand ℀ to a / c
expand ℁ to a / s
expand ꜳ to a a
expand ꜵ to a o
expand ꜷ to a u
expand ꜹ to a v
expand ꜽ to a y
expand ⅍ to A / S
expand Ꜳ to A A
expand Ꜵ to A O
expand Ꜷ to A U
expand Ꜹ to A V
expand Ꜽ to A Y
expand ㏂ to a . m .
expand ㍳ to A U
expand ㏟ to A ∕ m
expand æ to a e
expand ǣ to a e
expand ǽ to a e
expand ᷔ to a e
expand ꜻ to a v
expand Æ to A E
expand Ǣ to A E
expand Ǽ to A E
expand Ꜻ to A V
expand ᴭ to a e
expand ㍴ to b a r
expand ㏃ to B q
expand ℅ to c / o
expand ℆ to c / u
expand ㎈ to c a l
expand ㎝ to c m
expand ㎠ to c m 2
expand ㎤ to c m 3
expand ㏄ to c c
expand ㏅ to c d
expand ㏆ to C ∕ k g
expand ㏇ to C o .
expand ǆ to d z
expand ǳ to d z
expand ȸ to d b
expand ʣ to d z
expand ʤ to d ʒ
expand ʥ to d ʑ
expand Ǆ to D Z
expand ǅ to D z
expand Ǳ to D Z
expand ǲ to D z
expand ㍲ to d a
expand ㍷ to d m
expand ㍸ to d m 2
expand ㍹ to d m 3
expand ㎗ to d l
expand ㏈ to d B
expand ㋍ to e r g
expand ㋎ to e V
expand ʩ to f ŋ
expand ﬀ to f f
expand ﬁ to f i
expand ﬂ to f l
expand ﬃ to f f i
expand ﬄ to f f l
expand ℻ to F A X
expand ㎙ to f m
expand ㏿ to g a l
expand ㎇ to G B
expand ㎓ to G H z
expand ㎬ to G P a
expand ㏉ to G y
expand ㍱ to h P a
expand ㏊ to h a
expand ㋌ to H g
expand ㎐ to H z
expand ㏋ to H P
expand ĳ to i j
expand ⅱ to i i
expand ⅲ to i i i
expand ⅳ to i v
expand ⅸ to i x
expand Ĳ to I J
expand Ⅱ to I I
expand Ⅲ to I I I
expand Ⅳ to I V
expand Ⅸ to I X
expand ㏌ to i n
expand ㍺ to I U
expand ㎄ to k A
expand ㎉ to k c a l
expand ㎏ to k g
expand ㎑ to k H z
expand ㎘ to k l
expand ㎞ to k m
expand ㎢ to k m 2
expand ㎦ to k m 3
expand ㎪ to k P a
expand ㎸ to k V
expand ㎾ to k W
expand ㏀ to k Ω
expand ㏏ to k t
expand ㎅ to K B
expand ㏍ to K K
expand ㏎ to K M
expand ǉ to l j
expand ʪ to l s
expand ʫ to l z
expand ỻ to l l
expand Ǉ to L J
expand ǈ to L j
expand Ỻ to L L
expand ㏐ to l m
expand ㏑ to l n
expand ㏒ to l o g
expand ㏓ to l x
expand ㋏ to L T D
expand ㎃ to m A
expand ㎎ to m g
expand ㎖ to m l
expand ㎜ to m m
expand ㎟ to m m 2
expand ㎡ to m 2
expand ㎣ to m m 3
expand ㎥ to m 3
expand ㎧ to m ∕ s
expand ㎨ to m ∕ s 2
expand ㎳ to m s
expand ㎷ to m V
expand ㎽ to m W
expand ㏔ to m b
expand ㏕ to m i l
expand ㏖ to m o l
expand ㎆ to M B
expand ㎒ to M H z
expand ㎫ to M P a
expand ㎹ to M V
expand ㎿ to M W
expand ㏁ to M Ω
expand ǌ to n j
expand Ǌ to N J
expand ǋ to N j
expand № to N o
expand ㎁ to n A
expand ㎋ to n F
expand ㎚ to n m
expand ㎱ to n s
expand ㎵ to n V
expand ㎻ to n W
expand ꝏ to o o
expand Ꝏ to O O
expand ㍵ to o V
expand œ to o e
expand Œ to O E
expand ꟹ to o e
expand ㍶ to p c
expand ㎀ to p A
expand ㎊ to p F
expand ㎰ to p s
expand ㎴ to p V
expand ㎺ to p W
expand ㏘ to p . m .
expand ㉐ to P T E
expand ㎩ to P a
expand ㏗ to P H
expand ㏙ to P P M
expand ㏚ to P R
expand ȹ to q p
expand ₨ to R s
expand ㎭ to r a d
expand ㎮ to r a d ∕ s
expand ㎯ to r a d ∕ s 2
expand ﬆ to s t
expand ℠ to s m
expand ㏛ to s r
expand ㏜ to S v
expand ß to s s
expand ẞ to S S
expand ﬅ to s t
expand ƾ to t s
expand ʦ to t s
expand ʧ to t ʃ
expand ʨ to t ɕ
expand ꜩ to t z
expand ™ to T M
expand ℡ to T E L
expand Ꜩ to T z
expand ㎔ to T H z
expand ᵺ to t h
expand ⅵ to v i
expand ⅶ to v i i
expand ⅷ to v i i i
expand ꝡ to v y
expand Ⅵ to V I
expand Ⅶ to V I I
expand Ⅷ to V I I I
expand Ꝡ to V Y
expand ㏞ to V ∕ m
expand ㏝ to W b
expand ⅺ to x i
expand ⅻ to x i i
expand Ⅺ to X I
expand Ⅻ to X I I
expand ƍ to z w
expand ŉ to ʼ n
expand ϗ to κ α ι
expand Ϗ to Κ α ι
expand ㎂ to μ A
expand ㎌ to μ F
expand ㎍ to μ g
expand ㎕ to μ l
expand ㎛ to μ m
expand ㎲ to μ s
expand ㎶ to μ V
expand ㎼ to μ W
expand ⳤ to ⲕ ⲁ ⲓ
expand ⷵ to с т
expand և to ե ւ
expand ﬓ to մ ն
expand ﬔ to մ ե
expand ﬕ to մ ի
expand ﬗ to մ խ
expand ﬖ to վ ն
expand ﭏ to א ל
expand װ to ו ו
expand ױ to ו י
expand ײ to י י
expand ײַ to י י
expand ﯸ to ئ ې
expand ﯻ to ئ ى
expand ﲗ to ئ ج
expand ﲘ to ئ ح
expand ﲙ to ئ خ
expand ﲚ to ئ م
expand ﲛ to ئ ه
expand ﳟ to ئ م
expand ﳠ to ئ ه
expand ﯫ to ئ ا
expand ﯭ to ئ ە
expand ﯯ to ئ و
expand ﯱ to ئ ۇ
expand ﯳ to ئ ۆ
expand ﯵ to ئ ۈ
expand ﯷ to ئ ې
expand ﯺ to ئ ى
expand ﱤ to ئ ر
expand ﱥ to ئ ز
expand ﱦ to ئ م
expand ﱧ to ئ ن
expand ﱨ to ئ ى
expand ﱩ to ئ ي
expand ﯪ to ئ ا
expand ﯬ to ئ ە
expand ﯮ to ئ و
expand ﯰ to ئ ۇ
expand ﯲ to ئ ۆ
expand ﯴ to ئ ۈ
expand ﯶ to ئ ې
expand ﯹ to ئ ى
expand ﰀ to ئ ج
expand ﰁ to ئ ح
expand ﰂ to ئ م
expand ﰃ to ئ ى
expand ﰄ to ئ ي
expand ٵ to ا ء
expand ﷲ to ا ل ل ه
expand ﷳ to ا ك ب ر
expand ﲜ to ب ج
expand ﲝ to ب ح
expand ﲞ to ب خ
expand ﲟ to ب م
expand ﲠ to ب ه
expand ﳡ to ب م
expand ﳢ to ب ه
expand ﱪ to ب ر
expand ﱫ to ب ز
expand ﱬ to ب م
expand ﱭ to ب ن
expand ﱮ to ب ى
expand ﱯ to ب ي
expand ﶞ to ب خ ي
expand ﷂ to ب ح ي
expand ﰅ to ب ج
expand ﰆ to ب ح
expand ﰇ to ب خ
expand ﰈ to ب م
expand ﰉ to ب ى
expand ﰊ to ب ي
expand ﲡ to ت ج
expand ﲢ to ت ح
expand ﲣ to ت خ
expand ﲤ to ت م
expand ﲥ to ت ه
expand ﵐ to ت ج م
expand ﵒ to ت ح ج
expand ﵓ to ت ح م
expand ﵔ to ت خ م
expand ﵕ to ت م ج
expand ﵖ to ت م ح
expand ﵗ to ت م خ
expand ﳣ to ت م
expand ﳤ to ت ه
expand ﱰ to ت ر
expand ﱱ to ت ز
expand ﱲ to ت م
expand ﱳ to ت ن
expand ﱴ to ت ى
expand ﱵ to ت ي
expand ﵑ to ت ح ج
expand ﶟ to ت ج ي
expand ﶠ to ت ج ى
expand ﶡ to ت خ ي
expand ﶢ to ت خ ى
expand ﶣ to ت م ي
expand ﶤ to ت م ى
expand ﰋ to ت ج
expand ﰌ to ت ح
expand ﰍ to ت خ
expand ﰎ to ت م
expand ﰏ to ت ى
expand ﰐ to ت ي
expand ﲦ to ث م
expand ﳥ to ث م
expand ﳦ to ث ه
expand ﱶ to ث ر
expand ﱷ to ث ز
expand ﱸ to ث م
expand ﱹ to ث ن
expand ﱺ to ث ى
expand ﱻ to ث ي
expand ﰑ to ث ج
expand ﰒ to ث م
expand ﰓ to ث ى
expand ﰔ to ث ي
expand ﲧ to ج ح
expand ﲨ to ج م
expand ﵙ to ج م ح
expand ﴝ to ج ى
expand ﴞ to ج ي
expand ﵘ to ج م ح
expand ﶥ to ج م ي
expand ﶦ to ج ح ى
expand ﶧ to ج م ى
expand ﶾ to ج ح ي
expand ﰕ to ج ح
expand ﰖ to ج م
expand ﴁ to ج ى
expand ﴂ to ج ي
expand ﷻ to ج ل 0020 ج ل ا ل ه
expand ﲩ to ح ج
expand ﲪ to ح م
expand ﴛ to ح ى
expand ﴜ to ح ي
expand ﵚ to ح م ي
expand ﵛ to ح م ى
expand ﶿ to ح ج ي
expand ﰗ to ح ج
expand ﰘ to ح م
expand ﳿ to ح ى
expand ﴀ to ح ي
expand ﲫ to خ ج
expand ﲬ to خ م
expand ﴟ to خ ى
expand ﴠ to خ ي
expand ﰙ to خ ج
expand ﰚ to خ ح
expand ﰛ to خ م
expand ﴃ to خ ى
expand ﴄ to خ ي
expand ﷶ to ر س و ل
expand ﷼ to ر ی ا ل
expand ﲭ to س ج
expand ﲮ to س ح
expand ﲯ to س خ
expand ﲰ to س م
expand ﴱ to س ه
expand ﵜ to س ح ج
expand ﵝ to س ج ح
expand ﵠ to س م ح
expand ﵡ to س م ج
expand ﵣ to س م م
expand ﳧ to س م
expand ﳨ to س ه
expand ﴴ to س ج
expand ﴵ to س ح
expand ﴶ to س خ
expand ﴗ to س ى
expand ﴘ to س ي
expand ﴪ to س ر
expand ﵞ to س ج ى
expand ﵟ to س م ح
expand ﵢ to س م م
expand ﶨ to س خ ى
expand ﷆ to س خ ي
expand ﰜ to س ج
expand ﰝ to س ح
expand ﰞ to س خ
expand ﰟ to س م
expand ﳻ to س ى
expand ﳼ to س ي
expand ﴎ to س ر
expand ﴭ to ش ج
expand ﴮ to ش ح
expand ﴯ to ش خ
expand ﴰ to ش م
expand ﴲ to ش ه
expand ﵨ to ش ح م
expand ﵫ to ش م خ
expand ﵭ to ش م م
expand ﳩ to ش م
expand ﳪ to ش ه
expand ﴷ to ش ج
expand ﴸ to ش ح
expand ﴹ to ش خ
expand ﴙ to ش ى
expand ﴚ to ش ي
expand ﴥ to ش ج
expand ﴦ to ش ح
expand ﴧ to ش خ
expand ﴨ to ش م
expand ﴩ to ش ر
expand ﵧ to ش ح م
expand ﵩ to ش ج ي
expand ﵪ to ش م خ
expand ﵬ to ش م م
expand ﶪ to ش ح ي
expand ﳽ to ش ى
expand ﳾ to ش ي
expand ﴉ to ش ج
expand ﴊ to ش ح
expand ﴋ to ش خ
expand ﴌ to ش م
expand ﴍ to ش ر
expand ﲱ to ص ح
expand ﲲ to ص خ
expand ﲳ to ص م
expand ﵥ to ص ح ح
expand ﷅ to ص م م
expand ﴡ to ص ى
expand ﴢ to ص ي
expand ﴫ to ص ر
expand ﵤ to ص ح ح
expand ﵦ to ص م م
expand ﶩ to ص ح ي
expand ﰠ to ص ح
expand ﰡ to ص م
expand ﴅ to ص ى
expand ﴆ to ص ي
expand ﴏ to ص ر
expand ﷰ to ص ل ے
expand ﷵ to ص ل ع م
expand ﷹ to ص ل ى
expand ﷺ to ص ل ى 0020 ا ل ل ه 0020 ع ل ي ه 0020 و س ل م
expand ﲴ to ض ج
expand ﲵ to ض ح
expand ﲶ to ض خ
expand ﲷ to ض م
expand ﵰ to ض خ م
expand ﴣ to ض ى
expand ﴤ to ض ي
expand ﴬ to ض ر
expand ﵮ to ض ح ى
expand ﵯ to ض خ م
expand ﶫ to ض ح ي
expand ﰢ to ض ج
expand ﰣ to ض ح
expand ﰤ to ض خ
expand ﰥ to ض م
expand ﴇ to ض ى
expand ﴈ to ض ي
expand ﴐ to ض ر
expand ﲸ to ط ح
expand ﴳ to ط م
expand ﵲ to ط م ح
expand ﵳ to ط م م
expand ﴺ to ط م
expand ﴑ to ط ى
expand ﴒ to ط ي
expand ﵱ to ط م ح
expand ﵴ to ط م ي
expand ﰦ to ط ح
expand ﰧ to ط م
expand ﳵ to ط ى
expand ﳶ to ط ي
expand ﲹ to ظ م
expand ﴻ to ظ م
expand ﰨ to ظ م
expand ﲺ to ع ج
expand ﲻ to ع م
expand ﵷ to ع م م
expand ﷄ to ع ج م
expand ﴓ to ع ى
expand ﴔ to ع ي
expand ﵵ to ع ج م
expand ﵶ to ع م م
expand ﵸ to ع م ى
expand ﶶ to ع م ي
expand ﰩ to ع ج
expand ﰪ to ع م
expand ﳷ to ع ى
expand ﳸ to ع ي
expand ﷷ to ع ل ي ه
expand ﲼ to غ ج
expand ﲽ to غ م
expand ﴕ to غ ى
expand ﴖ to غ ي
expand ﵹ to غ م م
expand ﵺ to غ م ي
expand ﵻ to غ م ى
expand ﰫ to غ ج
expand ﰬ to غ م
expand ﳹ to غ ى
expand ﳺ to غ ي
expand ﲾ to ف ج
expand ﲿ to ف ح
expand ﳀ to ف خ
expand ﳁ to ف م
expand ﵽ to ف خ م
expand ﱼ to ف ى
expand ﱽ to ف ي
expand ﵼ to ف خ م
expand ﷁ to ف م ي
expand ﰭ to ف ج
expand ﰮ to ف ح
expand ﰯ to ف خ
expand ﰰ to ف م
expand ﰱ to ف ى
expand ﰲ to ف ي
expand ﳂ to ق ح
expand ﳃ to ق م
expand ﶴ to ق م ح
expand ﱾ to ق ى
expand ﱿ to ق ي
expand ﵾ to ق م ح
expand ﵿ to ق م م
expand ﶲ to ق م ي
expand ﰳ to ق ح
expand ﰴ to ق م
expand ﰵ to ق ى
expand ﰶ to ق ي
expand ﷱ to ق ل ے
expand ﳄ to ك ج
expand ﳅ to ك ح
expand ﳆ to ك خ
expand ﳇ to ك ل
expand ﳈ to ك م
expand ﷃ to ك م م
expand ﳫ to ك ل
expand ﳬ to ك م
expand ﲀ to ك ا
expand ﲁ to ك ل
expand ﲂ to ك م
expand ﲃ to ك ى
expand ﲄ to ك ي
expand ﶷ to ك م ي
expand ﶻ to ك م م
expand ﰷ to ك ا
expand ﰸ to ك ج
expand ﰹ to ك ح
expand ﰺ to ك خ
expand ﰻ to ك ل
expand ﰼ to ك م
expand ﰽ to ك ى
expand ﰾ to ك ي
expand ﳉ to ل ج
expand ﳊ to ل ح
expand ﳋ to ل خ
expand ﳌ to ل م
expand ﳍ to ل ه
expand ﶃ to ل ج ج
expand ﶆ to ل خ م
expand ﶈ to ل م ح
expand ﶵ to ل ح م
expand ﶺ to ل ج م
expand ﳭ to ل م
expand ﲅ to ل م
expand ﲆ to ل ى
expand ﲇ to ل ي
expand ﶀ to ل ح م
expand ﶁ to ل ح ي
expand ﶂ to ل ح ى
expand ﶄ to ل ج ج
expand ﶅ to ل خ م
expand ﶇ to ل م ح
expand ﶬ to ل ج ي
expand ﶭ to ل م ي
expand ﶼ to ل ج م
expand ﻶ to ل آ
expand ﻸ to ل أ
expand ﻺ to ل إ
expand ﻼ to ل ا
expand ﰿ to ل ج
expand ﱀ to ل ح
expand ﱁ to ل خ
expand ﱂ to ل م
expand ﱃ to ل ى
expand ﱄ to ل ي
expand ﻵ to ل آ
expand ﻷ to ل أ
expand ﻹ to ل إ
expand ﻻ to ل ا
expand ﳎ to م ج
expand ﳏ to م ح
expand ﳐ to م خ
expand ﳑ to م م
expand ﶉ to م ح ج
expand ﶊ to م ح م
expand ﶌ to م ج ح
expand ﶍ to م ج م
expand ﶎ to م خ ج
expand ﶏ to م خ م
expand ﶒ to م ج خ
expand ﲈ to م ا
expand ﲉ to م م
expand ﶋ to م ح ي
expand ﶱ to م م ي
expand ﶹ to م خ ي
expand ﷀ to م ج ي
expand ﱅ to م ج
expand ﱆ to م ح
expand ﱇ to م خ
expand ﱈ to م م
expand ﱉ to م ى
expand ﱊ to م ي
expand ﷴ to م ح م د
expand ﳒ to ن ج
expand ﳓ to ن ح
expand ﳔ to ن خ
expand ﳕ to ن م
expand ﳖ to ن ه
expand ﶕ to ن ح م
expand ﶘ to ن ج م
expand ﶸ to ن ج ح
expand ﳮ to ن م
expand ﳯ to ن ه
expand ﲊ to ن ر
expand ﲋ to ن ز
expand ﲌ to ن م
expand ﲍ to ن ن
expand ﲎ to ن ى
expand ﲏ to ن ي
expand ﶖ to ن ح ى
expand ﶗ to ن ج م
expand ﶙ to ن ج ى
expand ﶚ to ن م ي
expand ﶛ to ن م ى
expand ﶳ to ن ح ي
expand ﶽ to ن ج ح
expand ﷇ to ن ج ي
expand ﱋ to ن ج
expand ﱌ to ن ح
expand ﱍ to ن خ
expand ﱎ to ن م
expand ﱏ to ن ى
expand ﱐ to ن ي
expand ﳗ to ه ج
expand ﳘ to ه م
expand ﶓ to ه م ج
expand ﶔ to ه م م
expand ﱑ to ه ج
expand ﱒ to ه م
expand ﱓ to ه ى
expand ﱔ to ه ي
expand ٶ to و ء
expand ﷸ to و س ل م
expand ٷ to ۇ ء
expand ﯝ to ۇ ء
expand ٸ to ي ء
expand ﳚ to ي ج
expand ﳛ to ي ح
expand ﳜ to ي خ
expand ﳝ to ي م
expand ﳞ to ي ه
expand ﶝ to ي م م
expand ﳰ to ي م
expand ﳱ to ي ه
expand ﲑ to ي ر
expand ﲒ to ي ز
expand ﲓ to ي م
expand ﲔ to ي ن
expand ﲕ to ي ى
expand ﲖ to ي ي
expand ﶜ to ي م م
expand ﶮ to ي ح ي
expand ﶯ to ي ج ي
expand ﶰ to ي م ي
expand ﱕ to ي ج
expand ﱖ to ي ح
expand ﱗ to ي خ
expand ﱘ to ي م
expand ﱙ to ي ى
expand ﱚ to ي ي
expand ৎ to ত 09cd
expand ൿ to ക 0d4d
expand ൺ to ണ 0d4d
expand ൻ to ന 0d4d
expand ൎ to ര 0d4d
expand ർ to ര 0d4d
expand ൽ to ല 0d4d
expand ൾ to ള 0d4d
expand ໜ to ຫ ນ
expand ໝ to ຫ ມ
expand ཀྵ to ཀ 0fb5
expand ྐྵ to 0f90 0fb5
expand གྷ to ག 0fb7
expand ྒྷ to 0f92 0fb7
expand ཌྷ to ཌ 0fb7
expand ྜྷ to 0f9c 0fb7
expand དྷ to ད 0fb7
expand ྡྷ to 0fa1 0fb7
expand བྷ to བ 0fb7
expand ྦྷ to 0fa6 0fb7
expand ཛྷ to ཛ 0fb7
expand ྫྷ to 0fab 0fb7
expand ༀ to ཨ 0f7c
expand ဿ to သ 1039 သ
expand ᧞ to ᦜ ᦶ
expand ᧟ to ᦜ ᦶ ᧁ
expand ᩔ to ᩆ 1a60 ᩆ
expand ᛰ to ᚦ ᚦ
expand ᛮ to ᛅ ᛚ
expand ᛯ to ᛗ ᛗ
expand ꘓ to ꔌ ꘋ
expand ꘔ to ꔞ ꘋ
expand ꘕ to ꔳ ꘋ
expand ꘖ to ꕇ ꘌ
expand ꘗ to ꕒ ꘋ
expand ꘘ to ꕘ ꘌ
expand ꘙ to ꕚ ꘌ
expand ꘚ to ꕠ ꘋ
expand ꘛ to ꖅ ꘋ
expand ꘜ to ꖴ ꘋ
expand ꘝ to ꗋ ꘋ
expand ꘞ to ꗑ ꘌ
expand ꘟ to ꗘ ꘋ
expand ㉮ to ᄀ ᅡ
expand ㉯ to ᄂ ᅡ
expand ㉰ to ᄃ ᅡ
expand ㉱ to ᄅ ᅡ
expand ㉲ to ᄆ ᅡ
expand ㉳ to ᄇ ᅡ
expand ㉴ to ᄉ ᅡ
expand ㉵ to ᄋ ᅡ
expand ㉾ to ᄋ ᅮ
expand ㉶ to ᄌ ᅡ
expand ㉽ to ᄌ ᅮ ᄋ ᅴ
expand ㉷ to ᄎ ᅡ
expand ㉼ to ᄎ ᅡ ᆷ ᄀ ᅩ
expand ㉸ to ᄏ ᅡ
expand ㉹ to ᄐ ᅡ
expand ㉺ to ᄑ ᅡ
expand ㉻ to ᄒ ᅡ
expand ㌀ to ぁ は ー と
expand ㌁ to ぁ る ふ ぁ
expand ㌂ to ぁ ん へ ぁ
expand ㌃ to ぁ ー る
expand ㌄ to ぃ に ん ゖ
expand ㌅ to ぃ ん ち
expand ㌆ to ぅ ぉ ん
expand ㌇ to ぇ す く ー と
expand ㌈ to ぇ ー ゕ ー
expand ㌉ to ぉ ん す
expand ㌊ to ぉ ー む
expand ㌋ to ゕ ぃ り
expand ㌌ to ゕ ら っ と
expand ㌍ to ゕ ろ り ー
expand ㌎ to ゕ ろ ん
expand ㌏ to ゕ ん ま
expand ㌒ to き ゅ り ー
expand ㌔ to き ろ
expand ㌕ to き ろ く ら む
expand ㌖ to き ろ め ー と る
expand ㌗ to き ろ ゎ っ と
expand ㌐ to き ゕ
expand ㌑ to き に ー
expand ㌓ to き る ち ー
expand ㌚ to く る せ ぃ ろ
expand ㌛ to く ろ ー ね
expand ㌘ to く ら む
expand ㌙ to く ら む と ん
expand ㌜ to ゖ ー す
expand ヿ to こ と
expand ㌝ to こ る な
expand ㌞ to こ ー ほ
expand ㌟ to さ ぃ く る
expand ㌠ to さ ん ち ー む
expand 〆 to し め
expand ㌡ to し り ん ゖ
expand ㌢ to せ ん ち
expand ㌣ to せ ん と
expand ㌤ to た ー す
expand ㌥ to て し
expand ㌧ to と ん
expand ㌦ to と る
expand ㌨ to な の
expand ㌩ to の っ と
expand ㌪ to は ぃ っ
expand ㌭ to は ー れ る
expand ㌫ to は ー せ ん と
expand ㌬ to は ー っ
expand ㌱ to ひ る
expand ㌮ to ひ ぁ す と る
expand ㌯ to ひ く る
expand ㌰ to ひ こ
expand ㌲ to ふ ぁ ら っ と
expand ㌳ to ふ ぃ ー と
expand ㌵ to ふ ら ん
expand ㌴ to ふ っ し ぇ る
expand ㌶ to へ く た ー る
expand ㌹ to へ る っ
expand ㌼ to へ ー た
expand ㌷ to へ そ
expand ㌸ to へ に ひ
expand ㌺ to へ ん す
expand ㌻ to へ ー す
expand ㌿ to ほ ん
expand ㍁ to ほ ー る
expand ㍂ to ほ ー ん
expand ㌾ to ほ る と
expand ㌽ to ほ ぃ ん と
expand ㍀ to ほ ん な
expand 〼 to ま す
expand ㍃ to ま ぃ く ろ
expand ㍄ to ま ぃ る
expand ㍅ to ま っ は
expand ㍆ to ま る く
expand ㍇ to ま ん し ょ ん
expand ㍈ to み く ろ ん
expand ㍉ to み り
expand ㍊ to み り は ー る
expand ㍋ to め ゕ
expand ㍌ to め ゕ と ん
expand ㍍ to め ー と る
expand ㍎ to ゃ ー と
expand ㍏ to ゃ ー る
expand ㍐ to ゅ ぁ ん
expand ゟ to ょ り
expand ㍑ to り っ と る
expand ㍒ to り ら
expand ㍓ to る ひ ー
expand ㍔ to る ー ふ る
expand ㍕ to れ む
expand ㍖ to れ ん と こ ん
expand ㍗ to ゎ っ と

# ends
